%!PS-Adobe-3.0 EPSF-3.0 
%%BoundingBox: 0 0 898 463
%%Pages: 0
%%Creator: LibreOffice 4.1
%%Title: none
%%CreationDate: none
%%LanguageLevel: 2
%%EndComments
%%BeginProlog
%%BeginResource: procset SDRes-Prolog 1.0 0
/b4_inc_state save def
/dict_count countdictstack def
/op_count count 1 sub def
userdict begin
0 setgray 0 setlinecap 1 setlinewidth 0 setlinejoin 10 setmiterlimit[] 0 setdash newpath
/languagelevel where {pop languagelevel 1 ne {false setstrokeadjust false setoverprint} if} if
/bdef {bind def} bind def
/c {setrgbcolor} bdef
/l {neg lineto} bdef
/rl {neg rlineto} bdef
/lc {setlinecap} bdef
/lj {setlinejoin} bdef
/lw {setlinewidth} bdef
/ml {setmiterlimit} bdef
/ld {setdash} bdef
/m {neg moveto} bdef
/ct {6 2 roll neg 6 2 roll neg 6 2 roll neg curveto} bdef
/r {rotate} bdef
/t {neg translate} bdef
/s {scale} bdef
/sw {show} bdef
/gs {gsave} bdef
/gr {grestore} bdef
/f {findfont dup length dict begin
{1 index /FID ne {def} {pop pop} ifelse} forall /Encoding ISOLatin1Encoding def
currentdict end /NFont exch definefont pop /NFont findfont} bdef
/p {closepath} bdef
/sf {scalefont setfont} bdef
/ef {eofill}bdef
/pc {closepath stroke}bdef
/ps {stroke}bdef
/pum {matrix currentmatrix}bdef
/pom {setmatrix}bdef
/bs {/aString exch def /nXOfs exch def /nWidth exch def currentpoint nXOfs 0 rmoveto pum nWidth aString stringwidth pop div 1 scale aString show pom moveto} bdef
%%EndResource
%%EndProlog
%%BeginSetup
%%EndSetup
%%Page: 1 1
%%BeginPageSetup
%%EndPageSetup
pum
0.02834 0.02836 s 
0 -16323 t
/tm matrix currentmatrix def
tm setmatrix
-30326 0 t 
1 1 s 
1.000 1.000 1.000 c 46147 16322 m  30309 16322 l  30309 0 l  61984 0 l 
61984 16322 l  46147 16322 l  p ef
0 lw 1 lj 0.703 0.703 0.703 c 46487 13811 m  32840 13811 l  32840 1744 l 
60135 1744 l  60135 13811 l  46487 13811 l  pc
32840 1742 m  32840 13810 l  ps
38299 1742 m  38299 13810 l  ps
43758 1742 m  43758 13810 l  ps
49216 1742 m  49216 13810 l  ps
54675 1742 m  54675 13810 l  ps
60135 1742 m  60135 13810 l  ps
60135 13810 m  32840 13810 l  ps
60135 11798 m  32840 11798 l  ps
60135 9787 m  32840 9787 l  ps
60135 7777 m  32840 7777 l  ps
60135 5765 m  32840 5765 l  ps
60135 3754 m  32840 3754 l  ps
60135 1742 m  32840 1742 l  ps
32840 13960 m  32840 13810 l  ps
32840 13960 m  32840 13810 l  ps
38299 13960 m  38299 13810 l  ps
38299 13960 m  38299 13810 l  ps
43758 13960 m  43758 13810 l  ps
43758 13960 m  43758 13810 l  ps
49216 13960 m  49216 13810 l  ps
49216 13960 m  49216 13810 l  ps
54675 13960 m  54675 13810 l  ps
54675 13960 m  54675 13810 l  ps
60135 13960 m  60135 13810 l  ps
60135 13960 m  60135 13810 l  ps
32840 13810 m  60135 13810 l  ps
32690 13810 m  32840 13810 l  ps
32690 13810 m  32840 13810 l  ps
32690 11798 m  32840 11798 l  ps
32690 11798 m  32840 11798 l  ps
32690 9787 m  32840 9787 l  ps
32690 9787 m  32840 9787 l  ps
32690 7777 m  32840 7777 l  ps
32690 7777 m  32840 7777 l  ps
32690 5765 m  32840 5765 l  ps
32690 5765 m  32840 5765 l  ps
32690 3754 m  32840 3754 l  ps
32690 3754 m  32840 3754 l  ps
32690 1742 m  32840 1742 l  ps
32690 1742 m  32840 1742 l  ps
32840 13810 m  32840 1742 l  ps
0.003 0.273 0.527 c 33593 13266 m  33618 13366 l  33718 13391 l  33618 13416 l 
33593 13516 l  33568 13416 l  33468 13391 l  33568 13366 l  33593 13266 l 
p ef
33593 13266 m  33618 13366 l  33718 13391 l  33618 13416 l  33593 13516 l 
33568 13416 l  33468 13391 l  33568 13366 l  33593 13266 l  pc
33647 13589 m  33672 13689 l  33772 13714 l  33672 13739 l  33647 13839 l 
33622 13739 l  33522 13714 l  33622 13689 l  33647 13589 l  p ef
33647 13589 m  33672 13689 l  33772 13714 l  33672 13739 l  33647 13839 l 
33622 13739 l  33522 13714 l  33622 13689 l  33647 13589 l  pc
33696 13299 m  33721 13399 l  33821 13424 l  33721 13449 l  33696 13549 l 
33671 13449 l  33571 13424 l  33671 13399 l  33696 13299 l  p ef
33696 13299 m  33721 13399 l  33821 13424 l  33721 13449 l  33696 13549 l 
33671 13449 l  33571 13424 l  33671 13399 l  33696 13299 l  pc
33749 13031 m  33774 13131 l  33874 13156 l  33774 13181 l  33749 13281 l 
33724 13181 l  33624 13156 l  33724 13131 l  33749 13031 l  p ef
33749 13031 m  33774 13131 l  33874 13156 l  33774 13181 l  33749 13281 l 
33724 13181 l  33624 13156 l  33724 13131 l  33749 13031 l  pc
33828 13135 m  33853 13235 l  33953 13260 l  33853 13285 l  33828 13385 l 
33803 13285 l  33703 13260 l  33803 13235 l  33828 13135 l  p ef
33828 13135 m  33853 13235 l  33953 13260 l  33853 13285 l  33828 13385 l 
33803 13285 l  33703 13260 l  33803 13235 l  33828 13135 l  pc
33884 13517 m  33909 13617 l  34009 13642 l  33909 13667 l  33884 13767 l 
33859 13667 l  33759 13642 l  33859 13617 l  33884 13517 l  p ef
33884 13517 m  33909 13617 l  34009 13642 l  33909 13667 l  33884 13767 l 
33859 13667 l  33759 13642 l  33859 13617 l  33884 13517 l  pc
33913 13517 m  33938 13617 l  34038 13642 l  33938 13667 l  33913 13767 l 
33888 13667 l  33788 13642 l  33888 13617 l  33913 13517 l  p ef
33913 13517 m  33938 13617 l  34038 13642 l  33938 13667 l  33913 13767 l 
33888 13667 l  33788 13642 l  33888 13617 l  33913 13517 l  pc
34036 13223 m  34061 13323 l  34161 13348 l  34061 13373 l  34036 13473 l 
34011 13373 l  33911 13348 l  34011 13323 l  34036 13223 l  p ef
34036 13223 m  34061 13323 l  34161 13348 l  34061 13373 l  34036 13473 l 
34011 13373 l  33911 13348 l  34011 13323 l  34036 13223 l  pc
34092 13161 m  34117 13261 l  34217 13286 l  34117 13311 l  34092 13411 l 
34067 13311 l  33967 13286 l  34067 13261 l  34092 13161 l  p ef
34092 13161 m  34117 13261 l  34217 13286 l  34117 13311 l  34092 13411 l 
34067 13311 l  33967 13286 l  34067 13261 l  34092 13161 l  pc
34168 13123 m  34193 13223 l  34293 13248 l  34193 13273 l  34168 13373 l 
34143 13273 l  34043 13248 l  34143 13223 l  34168 13123 l  p ef
34168 13123 m  34193 13223 l  34293 13248 l  34193 13273 l  34168 13373 l 
34143 13273 l  34043 13248 l  34143 13223 l  34168 13123 l  pc
34193 13246 m  34218 13346 l  34318 13371 l  34218 13396 l  34193 13496 l 
34168 13396 l  34068 13371 l  34168 13346 l  34193 13246 l  p ef
34193 13246 m  34218 13346 l  34318 13371 l  34218 13396 l  34193 13496 l 
34168 13396 l  34068 13371 l  34168 13346 l  34193 13246 l  pc
34269 13231 m  34294 13331 l  34394 13356 l  34294 13381 l  34269 13481 l 
34244 13381 l  34144 13356 l  34244 13331 l  34269 13231 l  p ef
34269 13231 m  34294 13331 l  34394 13356 l  34294 13381 l  34269 13481 l 
34244 13381 l  34144 13356 l  34244 13331 l  34269 13231 l  pc
34346 13093 m  34371 13193 l  34471 13218 l  34371 13243 l  34346 13343 l 
34321 13243 l  34221 13218 l  34321 13193 l  34346 13093 l  p ef
34346 13093 m  34371 13193 l  34471 13218 l  34371 13243 l  34346 13343 l 
34321 13243 l  34221 13218 l  34321 13193 l  34346 13093 l  pc
34443 13371 m  34468 13471 l  34568 13496 l  34468 13521 l  34443 13621 l 
34418 13521 l  34318 13496 l  34418 13471 l  34443 13371 l  p ef
34443 13371 m  34468 13471 l  34568 13496 l  34468 13521 l  34443 13621 l 
34418 13521 l  34318 13496 l  34418 13471 l  34443 13371 l  pc
34524 13035 m  34549 13135 l  34649 13160 l  34549 13185 l  34524 13285 l 
34499 13185 l  34399 13160 l  34499 13135 l  34524 13035 l  p ef
34524 13035 m  34549 13135 l  34649 13160 l  34549 13185 l  34524 13285 l 
34499 13185 l  34399 13160 l  34499 13135 l  34524 13035 l  pc
34619 13360 m  34644 13460 l  34744 13485 l  34644 13510 l  34619 13610 l 
34594 13510 l  34494 13485 l  34594 13460 l  34619 13360 l  p ef
34619 13360 m  34644 13460 l  34744 13485 l  34644 13510 l  34619 13610 l 
34594 13510 l  34494 13485 l  34594 13460 l  34619 13360 l  pc
34694 12949 m  34719 13049 l  34819 13074 l  34719 13099 l  34694 13199 l 
34669 13099 l  34569 13074 l  34669 13049 l  34694 12949 l  p ef
34694 12949 m  34719 13049 l  34819 13074 l  34719 13099 l  34694 13199 l 
34669 13099 l  34569 13074 l  34669 13049 l  34694 12949 l  pc
34765 13440 m  34790 13540 l  34890 13565 l  34790 13590 l  34765 13690 l 
34740 13590 l  34640 13565 l  34740 13540 l  34765 13440 l  p ef
34765 13440 m  34790 13540 l  34890 13565 l  34790 13590 l  34765 13690 l 
34740 13590 l  34640 13565 l  34740 13540 l  34765 13440 l  pc
34907 13076 m  34932 13176 l  35032 13201 l  34932 13226 l  34907 13326 l 
34882 13226 l  34782 13201 l  34882 13176 l  34907 13076 l  p ef
34907 13076 m  34932 13176 l  35032 13201 l  34932 13226 l  34907 13326 l 
34882 13226 l  34782 13201 l  34882 13176 l  34907 13076 l  pc
34996 12858 m  35021 12958 l  35121 12983 l  35021 13008 l  34996 13108 l 
34971 13008 l  34871 12983 l  34971 12958 l  34996 12858 l  p ef
34996 12858 m  35021 12958 l  35121 12983 l  35021 13008 l  34996 13108 l 
34971 13008 l  34871 12983 l  34971 12958 l  34996 12858 l  pc
35109 12049 m  35134 12149 l  35234 12174 l  35134 12199 l  35109 12299 l 
35084 12199 l  34984 12174 l  35084 12149 l  35109 12049 l  p ef
35109 12049 m  35134 12149 l  35234 12174 l  35134 12199 l  35109 12299 l 
35084 12199 l  34984 12174 l  35084 12149 l  35109 12049 l  pc
35375 12515 m  35400 12615 l  35500 12640 l  35400 12665 l  35375 12765 l 
35350 12665 l  35250 12640 l  35350 12615 l  35375 12515 l  p ef
35375 12515 m  35400 12615 l  35500 12640 l  35400 12665 l  35375 12765 l 
35350 12665 l  35250 12640 l  35350 12615 l  35375 12515 l  pc
35430 11655 m  35455 11755 l  35555 11780 l  35455 11805 l  35430 11905 l 
35405 11805 l  35305 11780 l  35405 11755 l  35430 11655 l  p ef
35430 11655 m  35455 11755 l  35555 11780 l  35455 11805 l  35430 11905 l 
35405 11805 l  35305 11780 l  35405 11755 l  35430 11655 l  pc
35583 11947 m  35608 12047 l  35708 12072 l  35608 12097 l  35583 12197 l 
35558 12097 l  35458 12072 l  35558 12047 l  35583 11947 l  p ef
35583 11947 m  35608 12047 l  35708 12072 l  35608 12097 l  35583 12197 l 
35558 12097 l  35458 12072 l  35558 12047 l  35583 11947 l  pc
35696 12262 m  35721 12362 l  35821 12387 l  35721 12412 l  35696 12512 l 
35671 12412 l  35571 12387 l  35671 12362 l  35696 12262 l  p ef
35696 12262 m  35721 12362 l  35821 12387 l  35721 12412 l  35696 12512 l 
35671 12412 l  35571 12387 l  35671 12362 l  35696 12262 l  pc
35777 13268 m  35802 13368 l  35902 13393 l  35802 13418 l  35777 13518 l 
35752 13418 l  35652 13393 l  35752 13368 l  35777 13268 l  p ef
35777 13268 m  35802 13368 l  35902 13393 l  35802 13418 l  35777 13518 l 
35752 13418 l  35652 13393 l  35752 13368 l  35777 13268 l  pc
35984 13303 m  36009 13403 l  36109 13428 l  36009 13453 l  35984 13553 l 
35959 13453 l  35859 13428 l  35959 13403 l  35984 13303 l  p ef
35984 13303 m  36009 13403 l  36109 13428 l  36009 13453 l  35984 13553 l 
35959 13453 l  35859 13428 l  35959 13403 l  35984 13303 l  pc
36054 11708 m  36079 11808 l  36179 11833 l  36079 11858 l  36054 11958 l 
36029 11858 l  35929 11833 l  36029 11808 l  36054 11708 l  p ef
36054 11708 m  36079 11808 l  36179 11833 l  36079 11858 l  36054 11958 l 
36029 11858 l  35929 11833 l  36029 11808 l  36054 11708 l  pc
36410 13282 m  36435 13382 l  36535 13407 l  36435 13432 l  36410 13532 l 
36385 13432 l  36285 13407 l  36385 13382 l  36410 13282 l  p ef
36410 13282 m  36435 13382 l  36535 13407 l  36435 13432 l  36410 13532 l 
36385 13432 l  36285 13407 l  36385 13382 l  36410 13282 l  pc
36559 13195 m  36584 13295 l  36684 13320 l  36584 13345 l  36559 13445 l 
36534 13345 l  36434 13320 l  36534 13295 l  36559 13195 l  p ef
36559 13195 m  36584 13295 l  36684 13320 l  36584 13345 l  36559 13445 l 
36534 13345 l  36434 13320 l  36534 13295 l  36559 13195 l  pc
36846 12712 m  36871 12812 l  36971 12837 l  36871 12862 l  36846 12962 l 
36821 12862 l  36721 12837 l  36821 12812 l  36846 12712 l  p ef
36846 12712 m  36871 12812 l  36971 12837 l  36871 12862 l  36846 12962 l 
36821 12862 l  36721 12837 l  36821 12812 l  36846 12712 l  pc
36963 11607 m  36988 11707 l  37088 11732 l  36988 11757 l  36963 11857 l 
36938 11757 l  36838 11732 l  36938 11707 l  36963 11607 l  p ef
36963 11607 m  36988 11707 l  37088 11732 l  36988 11757 l  36963 11857 l 
36938 11757 l  36838 11732 l  36938 11707 l  36963 11607 l  pc
37232 10435 m  37257 10535 l  37357 10560 l  37257 10585 l  37232 10685 l 
37207 10585 l  37107 10560 l  37207 10535 l  37232 10435 l  p ef
37232 10435 m  37257 10535 l  37357 10560 l  37257 10585 l  37232 10685 l 
37207 10585 l  37107 10560 l  37207 10535 l  37232 10435 l  pc
37385 12624 m  37410 12724 l  37510 12749 l  37410 12774 l  37385 12874 l 
37360 12774 l  37260 12749 l  37360 12724 l  37385 12624 l  p ef
37385 12624 m  37410 12724 l  37510 12749 l  37410 12774 l  37385 12874 l 
37360 12774 l  37260 12749 l  37360 12724 l  37385 12624 l  pc
37694 13189 m  37719 13289 l  37819 13314 l  37719 13339 l  37694 13439 l 
37669 13339 l  37569 13314 l  37669 13289 l  37694 13189 l  p ef
37694 13189 m  37719 13289 l  37819 13314 l  37719 13339 l  37694 13439 l 
37669 13339 l  37569 13314 l  37669 13289 l  37694 13189 l  pc
38130 11806 m  38155 11906 l  38255 11931 l  38155 11956 l  38130 12056 l 
38105 11956 l  38005 11931 l  38105 11906 l  38130 11806 l  p ef
38130 11806 m  38155 11906 l  38255 11931 l  38155 11956 l  38130 12056 l 
38105 11956 l  38005 11931 l  38105 11906 l  38130 11806 l  pc
38338 12174 m  38363 12274 l  38463 12299 l  38363 12324 l  38338 12424 l 
38313 12324 l  38213 12299 l  38313 12274 l  38338 12174 l  p ef
38338 12174 m  38363 12274 l  38463 12299 l  38363 12324 l  38338 12424 l 
38313 12324 l  38213 12299 l  38313 12274 l  38338 12174 l  pc
38560 11870 m  38585 11970 l  38685 11995 l  38585 12020 l  38560 12120 l 
38535 12020 l  38435 11995 l  38535 11970 l  38560 11870 l  p ef
38560 11870 m  38585 11970 l  38685 11995 l  38585 12020 l  38560 12120 l 
38535 12020 l  38435 11995 l  38535 11970 l  38560 11870 l  pc
38599 12729 m  38624 12829 l  38724 12854 l  38624 12879 l  38599 12979 l 
38574 12879 l  38474 12854 l  38574 12829 l  38599 12729 l  p ef
38599 12729 m  38624 12829 l  38724 12854 l  38624 12879 l  38599 12979 l 
38574 12879 l  38474 12854 l  38574 12829 l  38599 12729 l  pc
39255 12186 m  39280 12286 l  39380 12311 l  39280 12336 l  39255 12436 l 
39230 12336 l  39130 12311 l  39230 12286 l  39255 12186 l  p ef
39255 12186 m  39280 12286 l  39380 12311 l  39280 12336 l  39255 12436 l 
39230 12336 l  39130 12311 l  39230 12286 l  39255 12186 l  pc
39460 9492 m  39485 9592 l  39585 9617 l  39485 9642 l  39460 9742 l  39435 9642 l 
39335 9617 l  39435 9592 l  39460 9492 l  p ef
39460 9492 m  39485 9592 l  39585 9617 l  39485 9642 l  39460 9742 l  39435 9642 l 
39335 9617 l  39435 9592 l  39460 9492 l  pc
39924 13247 m  39949 13347 l  40049 13372 l  39949 13397 l  39924 13497 l 
39899 13397 l  39799 13372 l  39899 13347 l  39924 13247 l  p ef
39924 13247 m  39949 13347 l  40049 13372 l  39949 13397 l  39924 13497 l 
39899 13397 l  39799 13372 l  39899 13347 l  39924 13247 l  pc
40460 10988 m  40485 11088 l  40585 11113 l  40485 11138 l  40460 11238 l 
40435 11138 l  40335 11113 l  40435 11088 l  40460 10988 l  p ef
40460 10988 m  40485 11088 l  40585 11113 l  40485 11138 l  40460 11238 l 
40435 11138 l  40335 11113 l  40435 11088 l  40460 10988 l  pc
40593 8901 m  40618 9001 l  40718 9026 l  40618 9051 l  40593 9151 l  40568 9051 l 
40468 9026 l  40568 9001 l  40593 8901 l  p ef
40593 8901 m  40618 9001 l  40718 9026 l  40618 9051 l  40593 9151 l  40568 9051 l 
40468 9026 l  40568 9001 l  40593 8901 l  pc
41118 9653 m  41143 9753 l  41243 9778 l  41143 9803 l  41118 9903 l  41093 9803 l 
40993 9778 l  41093 9753 l  41118 9653 l  p ef
41118 9653 m  41143 9753 l  41243 9778 l  41143 9803 l  41118 9903 l  41093 9803 l 
40993 9778 l  41093 9753 l  41118 9653 l  pc
41633 11727 m  41658 11827 l  41758 11852 l  41658 11877 l  41633 11977 l 
41608 11877 l  41508 11852 l  41608 11827 l  41633 11727 l  p ef
41633 11727 m  41658 11827 l  41758 11852 l  41658 11877 l  41633 11977 l 
41608 11877 l  41508 11852 l  41608 11827 l  41633 11727 l  pc
42319 6801 m  42344 6901 l  42444 6926 l  42344 6951 l  42319 7051 l  42294 6951 l 
42194 6926 l  42294 6901 l  42319 6801 l  p ef
42319 6801 m  42344 6901 l  42444 6926 l  42344 6951 l  42319 7051 l  42294 6951 l 
42194 6926 l  42294 6901 l  42319 6801 l  pc
42912 7411 m  42937 7511 l  43037 7536 l  42937 7561 l  42912 7661 l  42887 7561 l 
42787 7536 l  42887 7511 l  42912 7411 l  p ef
42912 7411 m  42937 7511 l  43037 7536 l  42937 7561 l  42912 7661 l  42887 7561 l 
42787 7536 l  42887 7511 l  42912 7411 l  pc
43077 6061 m  43102 6161 l  43202 6186 l  43102 6211 l  43077 6311 l  43052 6211 l 
42952 6186 l  43052 6161 l  43077 6061 l  p ef
43077 6061 m  43102 6161 l  43202 6186 l  43102 6211 l  43077 6311 l  43052 6211 l 
42952 6186 l  43052 6161 l  43077 6061 l  pc
43740 12505 m  43765 12605 l  43865 12630 l  43765 12655 l  43740 12755 l 
43715 12655 l  43615 12630 l  43715 12605 l  43740 12505 l  p ef
43740 12505 m  43765 12605 l  43865 12630 l  43765 12655 l  43740 12755 l 
43715 12655 l  43615 12630 l  43715 12605 l  43740 12505 l  pc
44268 8120 m  44293 8219 l  44393 8244 l  44293 8269 l  44268 8369 l  44243 8269 l 
44143 8244 l  44243 8219 l  44268 8120 l  p ef
44268 8120 m  44293 8219 l  44393 8244 l  44293 8269 l  44268 8369 l  44243 8269 l 
44143 8244 l  44243 8219 l  44268 8120 l  pc
44319 10914 m  44344 11014 l  44444 11039 l  44344 11064 l  44319 11164 l 
44294 11064 l  44194 11039 l  44294 11014 l  44319 10914 l  p ef
44319 10914 m  44344 11014 l  44444 11039 l  44344 11064 l  44319 11164 l 
44294 11064 l  44194 11039 l  44294 11014 l  44319 10914 l  pc
45325 11792 m  45350 11892 l  45450 11917 l  45350 11942 l  45325 12042 l 
45300 11942 l  45200 11917 l  45300 11892 l  45325 11792 l  p ef
45325 11792 m  45350 11892 l  45450 11917 l  45350 11942 l  45325 12042 l 
45300 11942 l  45200 11917 l  45300 11892 l  45325 11792 l  pc
45929 10073 m  45954 10173 l  46054 10198 l  45954 10223 l  45929 10323 l 
45904 10223 l  45804 10198 l  45904 10173 l  45929 10073 l  p ef
45929 10073 m  45954 10173 l  46054 10198 l  45954 10223 l  45929 10323 l 
45904 10223 l  45804 10198 l  45904 10173 l  45929 10073 l  pc
46567 11437 m  46592 11537 l  46692 11562 l  46592 11587 l  46567 11687 l 
46542 11587 l  46442 11562 l  46542 11537 l  46567 11437 l  p ef
46567 11437 m  46592 11537 l  46692 11562 l  46592 11587 l  46567 11687 l 
46542 11587 l  46442 11562 l  46542 11537 l  46567 11437 l  pc
47424 7901 m  47449 8001 l  47549 8026 l  47449 8051 l  47424 8151 l  47399 8051 l 
47299 8026 l  47399 8001 l  47424 7901 l  p ef
47424 7901 m  47449 8001 l  47549 8026 l  47449 8051 l  47424 8151 l  47399 8051 l 
47299 8026 l  47399 8001 l  47424 7901 l  pc
48911 12373 m  48936 12473 l  49036 12498 l  48936 12523 l  48911 12623 l 
48886 12523 l  48786 12498 l  48886 12473 l  48911 12373 l  p ef
48911 12373 m  48936 12473 l  49036 12498 l  48936 12523 l  48911 12623 l 
48886 12523 l  48786 12498 l  48886 12473 l  48911 12373 l  pc
49647 4738 m  49672 4838 l  49772 4863 l  49672 4888 l  49647 4988 l  49622 4888 l 
49522 4863 l  49622 4838 l  49647 4738 l  p ef
49647 4738 m  49672 4838 l  49772 4863 l  49672 4888 l  49647 4988 l  49622 4888 l 
49522 4863 l  49622 4838 l  49647 4738 l  pc
50429 9156 m  50454 9256 l  50554 9281 l  50454 9306 l  50429 9406 l  50404 9306 l 
50304 9281 l  50404 9256 l  50429 9156 l  p ef
50429 9156 m  50454 9256 l  50554 9281 l  50454 9306 l  50429 9406 l  50404 9306 l 
50304 9281 l  50404 9256 l  50429 9156 l  pc
51959 10719 m  51984 10819 l  52084 10844 l  51984 10869 l  51959 10969 l 
51934 10869 l  51834 10844 l  51934 10819 l  51959 10719 l  p ef
51959 10719 m  51984 10819 l  52084 10844 l  51984 10869 l  51959 10969 l 
51934 10869 l  51834 10844 l  51934 10819 l  51959 10719 l  pc
52173 12806 m  52198 12906 l  52298 12931 l  52198 12956 l  52173 13056 l 
52148 12956 l  52048 12931 l  52148 12906 l  52173 12806 l  p ef
52173 12806 m  52198 12906 l  52298 12931 l  52198 12956 l  52173 13056 l 
52148 12956 l  52048 12931 l  52148 12906 l  52173 12806 l  pc
54102 2242 m  54127 2342 l  54227 2367 l  54127 2392 l  54102 2492 l  54077 2392 l 
53977 2367 l  54077 2342 l  54102 2242 l  p ef
54102 2242 m  54127 2342 l  54227 2367 l  54127 2392 l  54102 2492 l  54077 2392 l 
53977 2367 l  54077 2342 l  54102 2242 l  pc
55346 2432 m  55371 2532 l  55471 2557 l  55371 2582 l  55346 2682 l  55321 2582 l 
55221 2557 l  55321 2532 l  55346 2432 l  p ef
55346 2432 m  55371 2532 l  55471 2557 l  55371 2582 l  55346 2682 l  55321 2582 l 
55221 2557 l  55321 2532 l  55346 2432 l  pc
pum
32694 14536 t
0.003 0.003 0.003 c 21 -174 m  21 -216 25 -250 33 -275 ct 42 -301 55 -320 72 -334 ct 
89 -348 110 -355 136 -355 ct 155 -355 171 -351 186 -344 ct 200 -336 212 -325 221 -311 ct 
231 -296 238 -279 243 -258 ct 248 -237 251 -209 251 -174 ct 251 -133 247 -99 238 -74 ct 
230 -48 217 -29 200 -15 ct 183 -1 162 6 136 6 ct 102 6 75 -6 55 -31 ct 32 -60 21 -108 21 -174 ct 
p
65 -174 m  65 -116 72 -78 86 -59 ct 99 -39 116 -30 136 -30 ct 156 -30 173 -39 186 -59 ct 
200 -78 206 -117 206 -174 ct 206 -233 200 -271 186 -290 ct 173 -309 156 -319 135 -319 ct 
115 -319 99 -311 88 -294 ct 73 -272 65 -232 65 -174 ct p ef
pom
pum
37862 14536 t
21 -93 m  66 -96 l  69 -74 77 -58 90 -46 ct 102 -35 117 -30 134 -30 ct 155 -30 173 -38 187 -53 ct 
202 -69 209 -90 209 -116 ct 209 -141 202 -160 188 -175 ct 174 -189 156 -196 133 -196 ct 
119 -196 107 -193 96 -186 ct 84 -180 75 -172 69 -162 ct 28 -167 l  62 -349 l 
238 -349 l  238 -308 l  97 -308 l  78 -212 l  99 -227 122 -234 145 -234 ct 
176 -234 202 -224 223 -202 ct 244 -181 255 -153 255 -120 ct 255 -88 246 -60 227 -37 ct 
204 -8 173 6 134 6 ct 102 6 76 -3 55 -21 ct 35 -39 23 -63 21 -93 ct p ef
312 -174 m  312 -216 316 -250 324 -275 ct 333 -301 346 -320 363 -334 ct 380 -348 401 -355 427 -355 ct 
446 -355 462 -351 477 -344 ct 491 -336 503 -325 512 -311 ct 522 -296 529 -279 534 -258 ct 
539 -237 542 -209 542 -174 ct 542 -133 538 -99 529 -74 ct 521 -48 508 -29 491 -15 ct 
474 -1 453 6 427 6 ct 393 6 366 -6 346 -31 ct 323 -60 312 -108 312 -174 ct p
356 -174 m  356 -116 363 -78 377 -59 ct 390 -39 407 -30 427 -30 ct 447 -30 464 -39 477 -59 ct 
491 -78 497 -117 497 -174 ct 497 -233 491 -271 477 -290 ct 464 -309 447 -319 426 -319 ct 
406 -319 390 -311 379 -294 ct 364 -272 356 -232 356 -174 ct p ef
603 -174 m  603 -216 607 -250 615 -275 ct 624 -301 637 -320 654 -334 ct 671 -348 692 -355 718 -355 ct 
737 -355 753 -351 768 -344 ct 782 -336 794 -325 803 -311 ct 813 -296 820 -279 825 -258 ct 
830 -237 833 -209 833 -174 ct 833 -133 829 -99 820 -74 ct 812 -48 799 -29 782 -15 ct 
765 -1 744 6 718 6 ct 684 6 657 -6 637 -31 ct 614 -60 603 -108 603 -174 ct p
647 -174 m  647 -116 654 -78 668 -59 ct 681 -39 698 -30 718 -30 ct 738 -30 755 -39 768 -59 ct 
782 -78 788 -117 788 -174 ct 788 -233 782 -271 768 -290 ct 755 -309 738 -319 717 -319 ct 
697 -319 681 -311 670 -294 ct 655 -272 647 -232 647 -174 ct p ef
pom
pum
43176 14536 t
184 0 m  141 0 l  141 -277 l  130 -267 116 -257 100 -247 ct 83 -237 67 -229 54 -224 ct 
54 -266 l  78 -278 99 -292 117 -308 ct 136 -324 149 -340 156 -355 ct 184 -355 l 
184 0 l  p ef
312 -174 m  312 -216 316 -250 324 -275 ct 333 -301 346 -320 363 -334 ct 380 -348 401 -355 427 -355 ct 
446 -355 462 -351 477 -344 ct 491 -336 503 -325 512 -311 ct 522 -296 529 -279 534 -258 ct 
539 -237 542 -209 542 -174 ct 542 -133 538 -99 529 -74 ct 521 -48 508 -29 491 -15 ct 
474 -1 453 6 427 6 ct 393 6 366 -6 346 -31 ct 323 -60 312 -108 312 -174 ct p
356 -174 m  356 -116 363 -78 377 -59 ct 390 -39 407 -30 427 -30 ct 447 -30 464 -39 477 -59 ct 
491 -78 497 -117 497 -174 ct 497 -233 491 -271 477 -290 ct 464 -309 447 -319 426 -319 ct 
406 -319 390 -311 379 -294 ct 364 -272 356 -232 356 -174 ct p ef
603 -174 m  603 -216 607 -250 615 -275 ct 624 -301 637 -320 654 -334 ct 671 -348 692 -355 718 -355 ct 
737 -355 753 -351 768 -344 ct 782 -336 794 -325 803 -311 ct 813 -296 820 -279 825 -258 ct 
830 -237 833 -209 833 -174 ct 833 -133 829 -99 820 -74 ct 812 -48 799 -29 782 -15 ct 
765 -1 744 6 718 6 ct 684 6 657 -6 637 -31 ct 614 -60 603 -108 603 -174 ct p
647 -174 m  647 -116 654 -78 668 -59 ct 681 -39 698 -30 718 -30 ct 738 -30 755 -39 768 -59 ct 
782 -78 788 -117 788 -174 ct 788 -233 782 -271 768 -290 ct 755 -309 738 -319 717 -319 ct 
697 -319 681 -311 670 -294 ct 655 -272 647 -232 647 -174 ct p ef
894 -174 m  894 -216 898 -250 906 -275 ct 915 -301 928 -320 945 -334 ct 962 -348 983 -355 1009 -355 ct 
1028 -355 1044 -351 1059 -344 ct 1073 -336 1085 -325 1094 -311 ct 1104 -296 1111 -279 1116 -258 ct 
1121 -237 1124 -209 1124 -174 ct 1124 -133 1120 -99 1111 -74 ct 1103 -48 1090 -29 1073 -15 ct 
1056 -1 1035 6 1009 6 ct 975 6 948 -6 928 -31 ct 905 -60 894 -108 894 -174 ct p
938 -174 m  938 -116 945 -78 959 -59 ct 972 -39 989 -30 1009 -30 ct 1029 -30 1046 -39 1059 -59 ct 
1073 -78 1079 -117 1079 -174 ct 1079 -233 1073 -271 1059 -290 ct 1046 -309 1029 -319 1008 -319 ct 
988 -319 972 -311 961 -294 ct 946 -272 938 -232 938 -174 ct p ef
pom
pum
48635 14536 t
184 0 m  141 0 l  141 -277 l  130 -267 116 -257 100 -247 ct 83 -237 67 -229 54 -224 ct 
54 -266 l  78 -278 99 -292 117 -308 ct 136 -324 149 -340 156 -355 ct 184 -355 l 
184 0 l  p ef
312 -93 m  357 -96 l  360 -74 368 -58 381 -46 ct 393 -35 408 -30 425 -30 ct 
446 -30 464 -38 478 -53 ct 493 -69 500 -90 500 -116 ct 500 -141 493 -160 479 -175 ct 
465 -189 447 -196 424 -196 ct 410 -196 398 -193 387 -186 ct 375 -180 366 -172 360 -162 ct 
319 -167 l  353 -349 l  529 -349 l  529 -308 l  388 -308 l  369 -212 l 
390 -227 413 -234 436 -234 ct 467 -234 493 -224 514 -202 ct 535 -181 546 -153 546 -120 ct 
546 -88 537 -60 518 -37 ct 495 -8 464 6 425 6 ct 393 6 367 -3 346 -21 ct 326 -39 314 -63 312 -93 ct 
p ef
603 -174 m  603 -216 607 -250 615 -275 ct 624 -301 637 -320 654 -334 ct 671 -348 692 -355 718 -355 ct 
737 -355 753 -351 768 -344 ct 782 -336 794 -325 803 -311 ct 813 -296 820 -279 825 -258 ct 
830 -237 833 -209 833 -174 ct 833 -133 829 -99 820 -74 ct 812 -48 799 -29 782 -15 ct 
765 -1 744 6 718 6 ct 684 6 657 -6 637 -31 ct 614 -60 603 -108 603 -174 ct p
647 -174 m  647 -116 654 -78 668 -59 ct 681 -39 698 -30 718 -30 ct 738 -30 755 -39 768 -59 ct 
782 -78 788 -117 788 -174 ct 788 -233 782 -271 768 -290 ct 755 -309 738 -319 717 -319 ct 
697 -319 681 -311 670 -294 ct 655 -272 647 -232 647 -174 ct p ef
894 -174 m  894 -216 898 -250 906 -275 ct 915 -301 928 -320 945 -334 ct 962 -348 983 -355 1009 -355 ct 
1028 -355 1044 -351 1059 -344 ct 1073 -336 1085 -325 1094 -311 ct 1104 -296 1111 -279 1116 -258 ct 
1121 -237 1124 -209 1124 -174 ct 1124 -133 1120 -99 1111 -74 ct 1103 -48 1090 -29 1073 -15 ct 
1056 -1 1035 6 1009 6 ct 975 6 948 -6 928 -31 ct 905 -60 894 -108 894 -174 ct p
938 -174 m  938 -116 945 -78 959 -59 ct 972 -39 989 -30 1009 -30 ct 1029 -30 1046 -39 1059 -59 ct 
1073 -78 1079 -117 1079 -174 ct 1079 -233 1073 -271 1059 -290 ct 1046 -309 1029 -319 1008 -319 ct 
988 -319 972 -311 961 -294 ct 946 -272 938 -232 938 -174 ct p ef
pom
pum
54094 14536 t
249 -42 m  249 0 l  15 0 l  15 -10 16 -21 20 -30 ct 26 -46 36 -62 49 -77 ct 
62 -93 81 -110 105 -131 ct 144 -162 170 -187 183 -206 ct 197 -224 204 -241 204 -258 ct 
204 -275 197 -290 185 -301 ct 173 -313 157 -319 137 -319 ct 116 -319 99 -313 87 -300 ct 
74 -288 68 -270 68 -248 ct 23 -253 l  26 -286 38 -311 58 -329 ct 78 -346 104 -355 138 -355 ct 
172 -355 199 -346 219 -327 ct 238 -308 248 -285 248 -257 ct 248 -243 245 -229 240 -215 ct 
234 -201 224 -187 211 -172 ct 197 -157 175 -136 144 -110 ct 118 -88 101 -73 94 -65 ct 
86 -57 80 -50 75 -42 ct 249 -42 l  p ef
312 -174 m  312 -216 316 -250 324 -275 ct 333 -301 346 -320 363 -334 ct 380 -348 401 -355 427 -355 ct 
446 -355 462 -351 477 -344 ct 491 -336 503 -325 512 -311 ct 522 -296 529 -279 534 -258 ct 
539 -237 542 -209 542 -174 ct 542 -133 538 -99 529 -74 ct 521 -48 508 -29 491 -15 ct 
474 -1 453 6 427 6 ct 393 6 366 -6 346 -31 ct 323 -60 312 -108 312 -174 ct p
356 -174 m  356 -116 363 -78 377 -59 ct 390 -39 407 -30 427 -30 ct 447 -30 464 -39 477 -59 ct 
491 -78 497 -117 497 -174 ct 497 -233 491 -271 477 -290 ct 464 -309 447 -319 426 -319 ct 
406 -319 390 -311 379 -294 ct 364 -272 356 -232 356 -174 ct p ef
603 -174 m  603 -216 607 -250 615 -275 ct 624 -301 637 -320 654 -334 ct 671 -348 692 -355 718 -355 ct 
737 -355 753 -351 768 -344 ct 782 -336 794 -325 803 -311 ct 813 -296 820 -279 825 -258 ct 
830 -237 833 -209 833 -174 ct 833 -133 829 -99 820 -74 ct 812 -48 799 -29 782 -15 ct 
765 -1 744 6 718 6 ct 684 6 657 -6 637 -31 ct 614 -60 603 -108 603 -174 ct p
647 -174 m  647 -116 654 -78 668 -59 ct 681 -39 698 -30 718 -30 ct 738 -30 755 -39 768 -59 ct 
782 -78 788 -117 788 -174 ct 788 -233 782 -271 768 -290 ct 755 -309 738 -319 717 -319 ct 
697 -319 681 -311 670 -294 ct 655 -272 647 -232 647 -174 ct p ef
894 -174 m  894 -216 898 -250 906 -275 ct 915 -301 928 -320 945 -334 ct 962 -348 983 -355 1009 -355 ct 
1028 -355 1044 -351 1059 -344 ct 1073 -336 1085 -325 1094 -311 ct 1104 -296 1111 -279 1116 -258 ct 
1121 -237 1124 -209 1124 -174 ct 1124 -133 1120 -99 1111 -74 ct 1103 -48 1090 -29 1073 -15 ct 
1056 -1 1035 6 1009 6 ct 975 6 948 -6 928 -31 ct 905 -60 894 -108 894 -174 ct p
938 -174 m  938 -116 945 -78 959 -59 ct 972 -39 989 -30 1009 -30 ct 1029 -30 1046 -39 1059 -59 ct 
1073 -78 1079 -117 1079 -174 ct 1079 -233 1073 -271 1059 -290 ct 1046 -309 1029 -319 1008 -319 ct 
988 -319 972 -311 961 -294 ct 946 -272 938 -232 938 -174 ct p ef
pom
pum
59554 14536 t
249 -42 m  249 0 l  15 0 l  15 -10 16 -21 20 -30 ct 26 -46 36 -62 49 -77 ct 
62 -93 81 -110 105 -131 ct 144 -162 170 -187 183 -206 ct 197 -224 204 -241 204 -258 ct 
204 -275 197 -290 185 -301 ct 173 -313 157 -319 137 -319 ct 116 -319 99 -313 87 -300 ct 
74 -288 68 -270 68 -248 ct 23 -253 l  26 -286 38 -311 58 -329 ct 78 -346 104 -355 138 -355 ct 
172 -355 199 -346 219 -327 ct 238 -308 248 -285 248 -257 ct 248 -243 245 -229 240 -215 ct 
234 -201 224 -187 211 -172 ct 197 -157 175 -136 144 -110 ct 118 -88 101 -73 94 -65 ct 
86 -57 80 -50 75 -42 ct 249 -42 l  p ef
312 -93 m  357 -96 l  360 -74 368 -58 381 -46 ct 393 -35 408 -30 425 -30 ct 
446 -30 464 -38 478 -53 ct 493 -69 500 -90 500 -116 ct 500 -141 493 -160 479 -175 ct 
465 -189 447 -196 424 -196 ct 410 -196 398 -193 387 -186 ct 375 -180 366 -172 360 -162 ct 
319 -167 l  353 -349 l  529 -349 l  529 -308 l  388 -308 l  369 -212 l 
390 -227 413 -234 436 -234 ct 467 -234 493 -224 514 -202 ct 535 -181 546 -153 546 -120 ct 
546 -88 537 -60 518 -37 ct 495 -8 464 6 425 6 ct 393 6 367 -3 346 -21 ct 326 -39 314 -63 312 -93 ct 
p ef
603 -174 m  603 -216 607 -250 615 -275 ct 624 -301 637 -320 654 -334 ct 671 -348 692 -355 718 -355 ct 
737 -355 753 -351 768 -344 ct 782 -336 794 -325 803 -311 ct 813 -296 820 -279 825 -258 ct 
830 -237 833 -209 833 -174 ct 833 -133 829 -99 820 -74 ct 812 -48 799 -29 782 -15 ct 
765 -1 744 6 718 6 ct 684 6 657 -6 637 -31 ct 614 -60 603 -108 603 -174 ct p
647 -174 m  647 -116 654 -78 668 -59 ct 681 -39 698 -30 718 -30 ct 738 -30 755 -39 768 -59 ct 
782 -78 788 -117 788 -174 ct 788 -233 782 -271 768 -290 ct 755 -309 738 -319 717 -319 ct 
697 -319 681 -311 670 -294 ct 655 -272 647 -232 647 -174 ct p ef
894 -174 m  894 -216 898 -250 906 -275 ct 915 -301 928 -320 945 -334 ct 962 -348 983 -355 1009 -355 ct 
1028 -355 1044 -351 1059 -344 ct 1073 -336 1085 -325 1094 -311 ct 1104 -296 1111 -279 1116 -258 ct 
1121 -237 1124 -209 1124 -174 ct 1124 -133 1120 -99 1111 -74 ct 1103 -48 1090 -29 1073 -15 ct 
1056 -1 1035 6 1009 6 ct 975 6 948 -6 928 -31 ct 905 -60 894 -108 894 -174 ct p
938 -174 m  938 -116 945 -78 959 -59 ct 972 -39 989 -30 1009 -30 ct 1029 -30 1046 -39 1059 -59 ct 
1073 -78 1079 -117 1079 -174 ct 1079 -233 1073 -271 1059 -290 ct 1046 -309 1029 -319 1008 -319 ct 
988 -319 972 -311 961 -294 ct 946 -272 938 -232 938 -174 ct p ef
pom
pum
32299 13983 t
21 -174 m  21 -216 25 -250 33 -275 ct 42 -301 55 -320 72 -334 ct 89 -348 110 -355 136 -355 ct 
155 -355 171 -351 186 -344 ct 200 -336 212 -325 221 -311 ct 231 -296 238 -279 243 -258 ct 
248 -237 251 -209 251 -174 ct 251 -133 247 -99 238 -74 ct 230 -48 217 -29 200 -15 ct 
183 -1 162 6 136 6 ct 102 6 75 -6 55 -31 ct 32 -60 21 -108 21 -174 ct p
65 -174 m  65 -116 72 -78 86 -59 ct 99 -39 116 -30 136 -30 ct 156 -30 173 -39 186 -59 ct 
200 -78 206 -117 206 -174 ct 206 -233 200 -271 186 -290 ct 173 -309 156 -319 135 -319 ct 
115 -319 99 -311 88 -294 ct 73 -272 65 -232 65 -174 ct p ef
pom
pum
32299 11971 t
184 0 m  141 0 l  141 -277 l  130 -267 116 -257 100 -247 ct 83 -237 67 -229 54 -224 ct 
54 -266 l  78 -278 99 -292 117 -308 ct 136 -324 149 -340 156 -355 ct 184 -355 l 
184 0 l  p ef
pom
pum
32299 9960 t
249 -42 m  249 0 l  15 0 l  15 -10 16 -21 20 -30 ct 26 -46 36 -62 49 -77 ct 
62 -93 81 -110 105 -131 ct 144 -162 170 -187 183 -206 ct 197 -224 204 -241 204 -258 ct 
204 -275 197 -290 185 -301 ct 173 -313 157 -319 137 -319 ct 116 -319 99 -313 87 -300 ct 
74 -288 68 -270 68 -248 ct 23 -253 l  26 -286 38 -311 58 -329 ct 78 -346 104 -355 138 -355 ct 
172 -355 199 -346 219 -327 ct 238 -308 248 -285 248 -257 ct 248 -243 245 -229 240 -215 ct 
234 -201 224 -187 211 -172 ct 197 -157 175 -136 144 -110 ct 118 -88 101 -73 94 -65 ct 
86 -57 80 -50 75 -42 ct 249 -42 l  p ef
pom
pum
32299 7949 t
21 -93 m  64 -99 l  69 -75 78 -57 90 -46 ct 102 -35 116 -30 133 -30 ct 154 -30 171 -37 185 -51 ct 
199 -65 206 -83 206 -104 ct 206 -123 200 -140 187 -153 ct 174 -166 157 -172 137 -172 ct 
129 -172 119 -171 106 -167 ct 111 -205 l  114 -205 116 -205 118 -205 ct 137 -205 153 -210 168 -220 ct 
183 -229 190 -244 190 -264 ct 190 -280 185 -294 174 -304 ct 163 -315 149 -320 132 -320 ct 
116 -320 101 -315 90 -304 ct 79 -293 72 -277 69 -256 ct 25 -264 l  30 -293 42 -316 61 -332 ct 
80 -348 103 -356 131 -356 ct 151 -356 169 -352 185 -343 ct 201 -335 213 -324 222 -309 ct 
231 -295 235 -280 235 -263 ct 235 -248 231 -234 223 -222 ct 214 -209 202 -199 186 -191 ct 
207 -187 223 -177 235 -161 ct 247 -146 252 -127 252 -105 ct 252 -74 241 -48 219 -26 ct 
196 -5 168 6 133 6 ct 102 6 76 -3 56 -22 ct 35 -40 24 -64 21 -93 ct p ef
pom
pum
32299 5937 t
160 0 m  160 -85 l  6 -85 l  6 -125 l  168 -354 l  203 -354 l  203 -125 l 
251 -125 l  251 -85 l  203 -85 l  203 0 l  160 0 l  p
160 -125 m  160 -284 l  49 -125 l  160 -125 l  p ef
pom
pum
32299 3926 t
21 -93 m  66 -96 l  69 -74 77 -58 90 -46 ct 102 -35 117 -30 134 -30 ct 155 -30 173 -38 187 -53 ct 
202 -69 209 -90 209 -116 ct 209 -141 202 -160 188 -175 ct 174 -189 156 -196 133 -196 ct 
119 -196 107 -193 96 -186 ct 84 -180 75 -172 69 -162 ct 28 -167 l  62 -349 l 
238 -349 l  238 -308 l  97 -308 l  78 -212 l  99 -227 122 -234 145 -234 ct 
176 -234 202 -224 223 -202 ct 244 -181 255 -153 255 -120 ct 255 -88 246 -60 227 -37 ct 
204 -8 173 6 134 6 ct 102 6 76 -3 55 -21 ct 35 -39 23 -63 21 -93 ct p ef
pom
pum
32299 1914 t
246 -267 m  203 -264 l  199 -281 193 -293 186 -301 ct 174 -313 160 -319 143 -319 ct 
129 -319 117 -315 106 -308 ct 93 -298 82 -283 74 -264 ct 66 -245 62 -218 62 -182 ct 
72 -198 85 -210 100 -218 ct 115 -226 131 -229 148 -229 ct 177 -229 201 -219 222 -197 ct 
242 -176 252 -149 252 -115 ct 252 -93 247 -72 238 -53 ct 228 -34 215 -19 198 -9 ct 
182 1 163 6 141 6 ct 105 6 76 -7 53 -34 ct 30 -61 19 -104 19 -165 ct 19 -234 31 -283 56 -314 ct 
78 -342 108 -355 145 -355 ct 173 -355 196 -347 214 -332 ct 232 -316 242 -294 246 -267 ct 
p
69 -115 m  69 -100 72 -85 78 -72 ct 84 -58 93 -48 105 -40 ct 116 -33 128 -30 141 -30 ct 
159 -30 175 -37 188 -52 ct 201 -67 208 -87 208 -112 ct 208 -137 201 -156 188 -170 ct 
175 -184 159 -191 139 -191 ct 119 -191 103 -184 89 -170 ct 75 -156 69 -137 69 -115 ct 
p ef
pom
pum
42650 15862 t
290 -124 m  337 -112 l  327 -74 310 -44 284 -24 ct 259 -4 228 6 191 6 ct 153 6 122 -2 98 -17 ct 
74 -33 56 -55 43 -85 ct 31 -114 25 -146 25 -180 ct 25 -217 32 -249 46 -276 ct 60 -304 80 -324 106 -339 ct 
132 -353 160 -360 192 -360 ct 227 -360 257 -351 281 -333 ct 305 -315 322 -290 331 -257 ct 
285 -246 l  277 -272 265 -291 249 -302 ct 234 -314 214 -320 191 -320 ct 163 -320 141 -313 122 -300 ct 
104 -287 91 -270 84 -248 ct 77 -226 73 -203 73 -180 ct 73 -150 77 -124 86 -101 ct 
95 -79 108 -62 127 -51 ct 145 -40 165 -34 187 -34 ct 213 -34 235 -42 254 -57 ct 
272 -72 284 -94 290 -124 ct p ef
380 0 m  380 -35 l  543 -222 l  524 -222 508 -222 494 -222 ct 389 -222 l 
389 -256 l  599 -256 l  599 -227 l  460 -65 l  433 -35 l  453 -37 471 -37 488 -37 ct 
606 -37 l  606 0 l  380 0 l  p ef
843 -82 m  888 -77 l  881 -51 868 -30 848 -16 ct 829 -1 805 6 775 6 ct 738 6 708 -6 686 -29 ct 
664 -52 653 -84 653 -126 ct 653 -169 664 -202 686 -226 ct 709 -250 737 -262 773 -262 ct 
807 -262 835 -250 857 -227 ct 878 -204 889 -171 889 -129 ct 889 -126 889 -122 889 -117 ct 
698 -117 l  700 -89 708 -67 722 -52 ct 736 -37 754 -30 775 -30 ct 791 -30 805 -34 816 -42 ct 
827 -51 836 -64 843 -82 ct p
700 -153 m  843 -153 l  841 -174 836 -190 827 -201 ct 813 -218 795 -226 773 -226 ct 
753 -226 737 -219 723 -206 ct 709 -193 702 -175 700 -153 ct p
766 -6 m  795 -6 l  789 9 786 22 786 34 ct 786 45 789 54 796 61 ct 802 67 811 71 821 71 ct 
833 71 847 67 861 60 ct 861 88 l  853 93 844 96 834 99 ct 824 102 816 103 808 103 ct 
793 103 780 98 770 89 ct 760 79 756 66 756 50 ct 756 36 759 17 766 -6 ct p ef
941 -76 m  984 -83 l  987 -66 993 -53 1004 -43 ct 1015 -34 1031 -30 1050 -30 ct 
1070 -30 1085 -34 1095 -42 ct 1105 -50 1109 -60 1109 -70 ct 1109 -80 1105 -88 1097 -94 ct 
1091 -97 1076 -102 1052 -108 ct 1020 -116 998 -123 986 -129 ct 974 -135 964 -143 958 -154 ct 
952 -164 948 -175 948 -188 ct 948 -199 951 -210 956 -220 ct 962 -229 969 -237 978 -244 ct 
984 -249 994 -253 1005 -257 ct 1017 -260 1029 -262 1043 -262 ct 1063 -262 1080 -259 1096 -253 ct 
1111 -247 1122 -239 1129 -230 ct 1137 -220 1142 -206 1144 -190 ct 1102 -184 l 
1100 -197 1094 -208 1085 -215 ct 1076 -222 1063 -226 1046 -226 ct 1026 -226 1012 -223 1003 -216 ct 
995 -210 990 -202 990 -193 ct 990 -187 992 -182 996 -178 ct 999 -173 1005 -169 1012 -166 ct 
1017 -165 1029 -161 1051 -155 ct 1081 -147 1103 -140 1115 -135 ct 1127 -130 1137 -122 1144 -112 ct 
1150 -102 1154 -90 1154 -75 ct 1154 -61 1150 -47 1141 -34 ct 1133 -21 1121 -11 1105 -4 ct 
1089 2 1071 6 1051 6 ct 1017 6 992 -1 975 -15 ct 957 -29 946 -49 941 -76 ct p ef
1318 -39 m  1325 -1 l  1312 2 1301 3 1292 3 ct 1276 3 1264 0 1255 -4 ct 1246 -9 1240 -16 1237 -24 ct 
1233 -32 1232 -49 1232 -75 ct 1232 -223 l  1200 -223 l  1200 -257 l  1232 -257 l 
1232 -320 l  1275 -346 l  1275 -257 l  1318 -257 l  1318 -223 l  1275 -223 l 
1275 -73 l  1275 -61 1275 -53 1277 -49 ct 1279 -46 1281 -43 1284 -41 ct 1288 -39 1293 -38 1299 -38 ct 
1304 -38 1310 -38 1318 -39 ct p ef
1339 -128 m  1339 -175 1353 -211 1379 -233 ct 1401 -252 1428 -262 1460 -262 ct 
1495 -262 1524 -250 1546 -227 ct 1568 -204 1579 -172 1579 -132 ct 1579 -99 1574 -73 1565 -54 ct 
1555 -35 1540 -20 1521 -10 ct 1503 1 1482 6 1460 6 ct 1424 6 1395 -6 1373 -29 ct 
1350 -52 1339 -85 1339 -128 ct p
1384 -128 m  1384 -95 1391 -71 1406 -54 ct 1420 -38 1438 -30 1460 -30 ct 1481 -30 1499 -38 1513 -54 ct 
1528 -71 1535 -96 1535 -129 ct 1535 -161 1528 -185 1513 -201 ct 1499 -218 1481 -226 1460 -226 ct 
1438 -226 1420 -218 1406 -202 ct 1391 -185 1384 -161 1384 -128 ct p ef
1741 -39 m  1748 -1 l  1735 2 1724 3 1715 3 ct 1699 3 1687 0 1678 -4 ct 1669 -9 1663 -16 1660 -24 ct 
1656 -32 1655 -49 1655 -75 ct 1655 -223 l  1623 -223 l  1623 -257 l  1655 -257 l 
1655 -320 l  1698 -346 l  1698 -257 l  1741 -257 l  1741 -223 l  1698 -223 l 
1698 -73 l  1698 -61 1698 -53 1700 -49 ct 1702 -46 1704 -43 1707 -41 ct 1711 -39 1716 -38 1722 -38 ct 
1727 -38 1733 -38 1741 -39 ct p ef
1778 0 m  1778 -354 l  1821 -354 l  1821 0 l  1778 0 l  p ef
1885 -304 m  1885 -354 l  1928 -354 l  1928 -304 l  1885 -304 l  p
1885 0 m  1885 -256 l  1928 -256 l  1928 0 l  1885 0 l  p ef
2038 0 m  1959 -256 l  2004 -256 l  2045 -108 l  2060 -53 l  2061 -56 2065 -74 2074 -106 ct 
2114 -256 l  2159 -256 l  2197 -108 l  2210 -59 l  2225 -108 l  2269 -256 l 
2311 -256 l  2231 0 l  2186 0 l  2145 -153 l  2135 -197 l  2083 0 l  2038 0 l 
p ef
2344 -128 m  2344 -175 2358 -211 2384 -233 ct 2406 -252 2433 -262 2465 -262 ct 
2500 -262 2529 -250 2551 -227 ct 2573 -204 2584 -172 2584 -132 ct 2584 -99 2579 -73 2570 -54 ct 
2560 -35 2545 -20 2526 -10 ct 2508 1 2487 6 2465 6 ct 2429 6 2400 -6 2378 -29 ct 
2355 -52 2344 -85 2344 -128 ct p
2389 -128 m  2389 -95 2396 -71 2411 -54 ct 2425 -38 2443 -30 2465 -30 ct 2486 -30 2504 -38 2518 -54 ct 
2533 -71 2540 -96 2540 -129 ct 2540 -161 2533 -185 2518 -201 ct 2504 -218 2486 -226 2465 -226 ct 
2443 -226 2425 -218 2411 -202 ct 2396 -185 2389 -161 2389 -128 ct p ef
2634 -76 m  2677 -83 l  2680 -66 2686 -53 2697 -43 ct 2708 -34 2724 -30 2743 -30 ct 
2763 -30 2778 -34 2788 -42 ct 2798 -50 2802 -60 2802 -70 ct 2802 -80 2798 -88 2790 -94 ct 
2784 -97 2769 -102 2745 -108 ct 2713 -116 2691 -123 2679 -129 ct 2667 -135 2657 -143 2651 -154 ct 
2645 -164 2641 -175 2641 -188 ct 2641 -199 2644 -210 2649 -220 ct 2655 -229 2662 -237 2671 -244 ct 
2677 -249 2687 -253 2698 -257 ct 2710 -260 2722 -262 2736 -262 ct 2756 -262 2773 -259 2789 -253 ct 
2804 -247 2815 -239 2822 -230 ct 2830 -220 2835 -206 2837 -190 ct 2795 -184 l 
2793 -197 2787 -208 2778 -215 ct 2769 -222 2756 -226 2739 -226 ct 2719 -226 2705 -223 2696 -216 ct 
2688 -210 2683 -202 2683 -193 ct 2683 -187 2685 -182 2689 -178 ct 2692 -173 2698 -169 2705 -166 ct 
2710 -165 2722 -161 2744 -155 ct 2774 -147 2796 -140 2808 -135 ct 2820 -130 2830 -122 2837 -112 ct 
2843 -102 2847 -90 2847 -75 ct 2847 -61 2843 -47 2834 -34 ct 2826 -21 2814 -11 2798 -4 ct 
2782 2 2764 6 2744 6 ct 2710 6 2685 -1 2668 -15 ct 2650 -29 2639 -49 2634 -76 ct 
p
2714 -288 m  2746 -356 l  2803 -356 l  2750 -288 l  2714 -288 l  p ef
3084 -94 m  3126 -88 l  3122 -59 3110 -36 3091 -19 ct 3071 -2 3048 6 3020 6 ct 
2985 6 2957 -5 2935 -28 ct 2914 -51 2903 -84 2903 -127 ct 2903 -155 2908 -179 2917 -199 ct 
2926 -220 2940 -236 2959 -246 ct 2978 -257 2998 -262 3020 -262 ct 3048 -262 3071 -255 3088 -241 ct 
3106 -227 3117 -207 3122 -181 ct 3080 -174 l  3076 -191 3069 -204 3059 -213 ct 
3049 -222 3036 -226 3022 -226 ct 3000 -226 2982 -218 2968 -202 ct 2955 -187 2948 -162 2948 -128 ct 
2948 -94 2955 -69 2968 -53 ct 2981 -38 2998 -30 3019 -30 ct 3036 -30 3051 -35 3062 -45 ct 
3073 -56 3081 -72 3084 -94 ct p
2986 -288 m  3018 -356 l  3075 -356 l  3022 -288 l  2986 -288 l  p ef
3314 98 m  3314 -256 l  3353 -256 l  3353 -223 l  3362 -236 3373 -246 3385 -252 ct 
3396 -259 3411 -262 3427 -262 ct 3449 -262 3469 -256 3485 -245 ct 3502 -234 3515 -218 3523 -197 ct 
3532 -177 3536 -155 3536 -130 ct 3536 -104 3531 -80 3522 -59 ct 3512 -38 3499 -22 3481 -11 ct 
3463 0 3444 6 3424 6 ct 3410 6 3397 3 3385 -3 ct 3374 -10 3364 -17 3357 -27 ct 
3357 98 l  3314 98 l  p
3353 -127 m  3353 -94 3360 -69 3373 -54 ct 3386 -38 3402 -30 3421 -30 ct 3441 -30 3457 -38 3471 -54 ct 
3485 -71 3492 -96 3492 -130 ct 3492 -163 3485 -187 3471 -204 ct 3458 -220 3442 -228 3423 -228 ct 
3405 -228 3388 -219 3374 -202 ct 3360 -185 3353 -160 3353 -127 ct p ef
3588 -128 m  3588 -175 3602 -211 3628 -233 ct 3650 -252 3677 -262 3709 -262 ct 
3744 -262 3773 -250 3795 -227 ct 3817 -204 3828 -172 3828 -132 ct 3828 -99 3823 -73 3814 -54 ct 
3804 -35 3789 -20 3770 -10 ct 3752 1 3731 6 3709 6 ct 3673 6 3644 -6 3622 -29 ct 
3599 -52 3588 -85 3588 -128 ct p
3633 -128 m  3633 -95 3640 -71 3655 -54 ct 3669 -38 3687 -30 3709 -30 ct 3730 -30 3748 -38 3762 -54 ct 
3777 -71 3784 -96 3784 -129 ct 3784 -161 3777 -185 3762 -201 ct 3748 -218 3730 -226 3709 -226 ct 
3687 -226 3669 -218 3655 -202 ct 3640 -185 3633 -161 3633 -128 ct p ef
4063 -94 m  4105 -88 l  4101 -59 4089 -36 4070 -19 ct 4050 -2 4027 6 3999 6 ct 
3964 6 3936 -5 3914 -28 ct 3893 -51 3882 -84 3882 -127 ct 3882 -155 3887 -179 3896 -199 ct 
3905 -220 3919 -236 3938 -246 ct 3957 -257 3977 -262 3999 -262 ct 4027 -262 4050 -255 4067 -241 ct 
4085 -227 4096 -207 4101 -181 ct 4059 -174 l  4055 -191 4048 -204 4038 -213 ct 
4028 -222 4015 -226 4001 -226 ct 3979 -226 3961 -218 3947 -202 ct 3934 -187 3927 -162 3927 -128 ct 
3927 -94 3934 -69 3947 -53 ct 3960 -38 3977 -30 3998 -30 ct 4015 -30 4030 -35 4041 -45 ct 
4052 -56 4060 -72 4063 -94 ct p ef
4138 0 m  4138 -35 l  4301 -222 l  4282 -222 4266 -222 4252 -222 ct 4147 -222 l 
4147 -256 l  4357 -256 l  4357 -227 l  4218 -65 l  4191 -35 l  4211 -37 4229 -37 4246 -37 ct 
4364 -37 l  4364 0 l  4138 0 l  p ef
4592 -31 m  4576 -18 4560 -8 4545 -2 ct 4530 3 4514 6 4497 6 ct 4469 6 4448 -1 4433 -15 ct 
4417 -28 4410 -46 4410 -67 ct 4410 -80 4413 -91 4418 -102 ct 4424 -112 4432 -120 4441 -127 ct 
4450 -133 4461 -138 4472 -141 ct 4481 -143 4493 -145 4511 -148 ct 4546 -152 4572 -157 4588 -163 ct 
4588 -168 4588 -172 4588 -174 ct 4588 -192 4584 -204 4576 -211 ct 4565 -221 4548 -226 4527 -226 ct 
4506 -226 4491 -222 4481 -215 ct 4472 -208 4464 -195 4460 -177 ct 4417 -183 l 
4421 -201 4428 -216 4436 -227 ct 4445 -238 4458 -247 4475 -253 ct 4491 -259 4511 -262 4533 -262 ct 
4555 -262 4573 -259 4586 -254 ct 4600 -249 4610 -243 4616 -235 ct 4623 -227 4627 -217 4630 -205 ct 
4631 -198 4632 -185 4632 -165 ct 4632 -107 l  4632 -67 4633 -41 4635 -31 ct 
4637 -20 4640 -10 4646 0 ct 4600 0 l  4596 -9 4593 -19 4592 -31 ct p
4588 -128 m  4572 -122 4549 -117 4517 -112 ct 4499 -109 4487 -107 4479 -103 ct 
4472 -100 4466 -95 4462 -89 ct 4458 -83 4456 -76 4456 -69 ct 4456 -57 4461 -47 4469 -40 ct 
4478 -32 4491 -28 4508 -28 ct 4525 -28 4539 -32 4552 -39 ct 4565 -46 4575 -56 4581 -69 ct 
4586 -79 4588 -93 4588 -113 ct 4588 -128 l  p
4602 -12 m  4632 -12 l  4626 3 4623 16 4623 28 ct 4623 39 4626 48 4632 55 ct 
4639 61 4647 65 4657 65 ct 4670 65 4683 61 4698 54 ct 4698 82 l  4690 87 4680 90 4671 93 ct 
4661 96 4652 97 4645 97 ct 4629 97 4616 92 4607 82 ct 4597 73 4592 60 4592 44 ct 
4592 30 4596 11 4602 -12 ct p ef
4810 -39 m  4817 -1 l  4804 2 4793 3 4784 3 ct 4768 3 4756 0 4747 -4 ct 4738 -9 4732 -16 4729 -24 ct 
4725 -32 4724 -49 4724 -75 ct 4724 -223 l  4692 -223 l  4692 -257 l  4724 -257 l 
4724 -320 l  4767 -346 l  4767 -257 l  4810 -257 l  4810 -223 l  4767 -223 l 
4767 -73 l  4767 -61 4767 -53 4769 -49 ct 4771 -46 4773 -43 4776 -41 ct 4780 -39 4785 -38 4791 -38 ct 
4796 -38 4802 -38 4810 -39 ct p ef
4848 0 m  4848 -354 l  4891 -354 l  4891 -152 l  4994 -256 l  5050 -256 l 
4952 -161 l  5060 0 l  5007 0 l  4922 -131 l  4891 -102 l  4891 0 l  4848 0 l 
p ef
5096 -128 m  5096 -175 5110 -211 5136 -233 ct 5158 -252 5185 -262 5217 -262 ct 
5252 -262 5281 -250 5303 -227 ct 5325 -204 5336 -172 5336 -132 ct 5336 -99 5331 -73 5322 -54 ct 
5312 -35 5297 -20 5278 -10 ct 5260 1 5239 6 5217 6 ct 5181 6 5152 -6 5130 -29 ct 
5107 -52 5096 -85 5096 -128 ct p
5141 -128 m  5141 -95 5148 -71 5163 -54 ct 5177 -38 5195 -30 5217 -30 ct 5238 -30 5256 -38 5270 -54 ct 
5285 -71 5292 -96 5292 -129 ct 5292 -161 5285 -185 5270 -201 ct 5256 -218 5238 -226 5217 -226 ct 
5195 -226 5177 -218 5163 -202 ct 5148 -185 5141 -161 5141 -128 ct p ef
5451 0 m  5372 -256 l  5417 -256 l  5458 -108 l  5473 -53 l  5474 -56 5478 -74 5487 -106 ct 
5527 -256 l  5572 -256 l  5610 -108 l  5623 -59 l  5638 -108 l  5682 -256 l 
5724 -256 l  5644 0 l  5599 0 l  5558 -153 l  5548 -197 l  5496 0 l  5451 0 l 
p ef
5941 -31 m  5925 -18 5909 -8 5894 -2 ct 5879 3 5863 6 5846 6 ct 5818 6 5797 -1 5782 -15 ct 
5766 -28 5759 -46 5759 -67 ct 5759 -80 5762 -91 5767 -102 ct 5773 -112 5781 -120 5790 -127 ct 
5799 -133 5810 -138 5821 -141 ct 5830 -143 5842 -145 5860 -148 ct 5895 -152 5921 -157 5937 -163 ct 
5937 -168 5937 -172 5937 -174 ct 5937 -192 5933 -204 5925 -211 ct 5914 -221 5897 -226 5876 -226 ct 
5855 -226 5840 -222 5830 -215 ct 5821 -208 5813 -195 5809 -177 ct 5766 -183 l 
5770 -201 5777 -216 5785 -227 ct 5794 -238 5807 -247 5824 -253 ct 5840 -259 5860 -262 5882 -262 ct 
5904 -262 5922 -259 5935 -254 ct 5949 -249 5959 -243 5965 -235 ct 5972 -227 5976 -217 5979 -205 ct 
5980 -198 5981 -184 5981 -165 ct 5981 -107 l  5981 -67 5982 -41 5984 -31 ct 
5986 -20 5989 -10 5995 0 ct 5949 0 l  5945 -9 5942 -19 5941 -31 ct p
5937 -128 m  5921 -122 5898 -117 5866 -112 ct 5848 -109 5836 -107 5828 -103 ct 
5821 -100 5815 -95 5811 -89 ct 5807 -83 5805 -76 5805 -69 ct 5805 -57 5810 -47 5818 -40 ct 
5827 -32 5840 -28 5857 -28 ct 5874 -28 5888 -32 5901 -39 ct 5914 -46 5924 -56 5930 -69 ct 
5935 -79 5937 -93 5937 -113 ct 5937 -128 l  p ef
6199 98 m  6199 -354 l  6294 -354 l  6294 -318 l  6242 -318 l  6242 62 l 
6294 62 l  6294 98 l  6199 98 l  p ef
6337 0 m  6337 -354 l  6383 -354 l  6383 -209 l  6567 -209 l  6567 -354 l 
6614 -354 l  6614 0 l  6567 0 l  6567 -167 l  6383 -167 l  6383 0 l  6337 0 l 
p ef
6678 0 m  6678 -35 l  6841 -222 l  6822 -222 6806 -222 6792 -222 ct 6687 -222 l 
6687 -256 l  6897 -256 l  6897 -227 l  6758 -65 l  6731 -35 l  6751 -37 6769 -37 6786 -37 ct 
6904 -37 l  6904 0 l  6678 0 l  p ef
7037 98 m  6941 98 l  6941 62 l  6994 62 l  6994 -318 l  6941 -318 l  6941 -354 l 
7037 -354 l  7037 98 l  p ef
pom
pum
32063 10435 t
89.9 r 36 0 m  36 -354 l  169 -354 l  196 -354 218 -350 234 -343 ct 250 -336 263 -325 272 -310 ct 
281 -295 286 -279 286 -263 ct 286 -248 282 -234 274 -220 ct 266 -207 253 -196 237 -188 ct 
258 -182 274 -171 286 -156 ct 297 -141 303 -123 303 -103 ct 303 -86 300 -71 293 -56 ct 
286 -42 277 -31 267 -23 ct 256 -16 244 -10 228 -6 ct 213 -2 194 0 171 0 ct 36 0 l 
p
83 -205 m  159 -205 l  180 -205 195 -206 204 -209 ct 216 -213 225 -219 231 -227 ct 
237 -235 240 -245 240 -258 ct 240 -269 237 -280 232 -289 ct 226 -298 218 -304 207 -307 ct 
197 -310 179 -312 154 -312 ct 83 -312 l  83 -205 l  p
83 -42 m  171 -42 l  186 -42 197 -42 203 -43 ct 214 -45 223 -49 230 -53 ct 237 -58 243 -64 248 -73 ct 
252 -81 255 -91 255 -103 ct 255 -116 251 -127 245 -137 ct 238 -147 228 -153 216 -157 ct 
205 -161 187 -163 165 -163 ct 83 -163 l  83 -42 l  p ef
376 -138 m  345 -112 l  345 -150 l  376 -177 l  376 -354 l  419 -354 l 
419 -213 l  452 -241 l  452 -203 l  419 -175 l  419 0 l  376 0 l  376 -138 l 
p ef
650 -31 m  634 -18 618 -8 603 -2 ct 588 3 572 6 555 6 ct 527 6 506 -1 491 -15 ct 
475 -28 468 -46 468 -67 ct 468 -80 471 -91 476 -102 ct 482 -112 490 -120 499 -127 ct 
508 -133 519 -138 530 -141 ct 539 -143 551 -145 569 -148 ct 604 -152 630 -157 646 -163 ct 
646 -168 646 -172 646 -174 ct 646 -192 642 -204 634 -211 ct 623 -221 606 -226 585 -226 ct 
564 -226 549 -222 539 -215 ct 530 -208 522 -195 518 -177 ct 475 -183 l  479 -201 486 -216 494 -227 ct 
503 -238 516 -247 533 -253 ct 549 -259 569 -262 591 -262 ct 613 -262 631 -259 644 -254 ct 
658 -249 668 -243 674 -235 ct 681 -227 685 -217 688 -205 ct 689 -198 690 -185 690 -165 ct 
690 -107 l  690 -67 691 -41 693 -31 ct 695 -20 698 -10 704 0 ct 658 0 l  654 -9 651 -19 650 -31 ct 
p
646 -128 m  630 -122 607 -117 575 -112 ct 557 -109 545 -107 537 -103 ct 530 -100 524 -95 520 -89 ct 
516 -83 514 -76 514 -69 ct 514 -57 519 -47 527 -40 ct 536 -32 549 -28 566 -28 ct 
583 -28 597 -32 610 -39 ct 623 -46 633 -56 639 -69 ct 644 -79 646 -93 646 -113 ct 
646 -128 l  p
660 -12 m  690 -12 l  684 3 681 16 681 28 ct 681 39 684 48 690 55 ct 697 61 705 65 715 65 ct 
728 65 741 61 756 54 ct 756 82 l  748 87 738 90 729 93 ct 719 96 710 97 703 97 ct 
687 97 674 92 665 82 ct 655 73 650 60 650 44 ct 650 30 654 11 660 -12 ct p ef
940 0 m  940 -32 l  924 -7 900 6 868 6 ct 848 6 829 0 812 -11 ct 795 -22 781 -38 772 -58 ct 
763 -78 758 -102 758 -128 ct 758 -153 762 -177 771 -197 ct 779 -218 792 -234 809 -245 ct 
826 -256 845 -262 866 -262 ct 882 -262 895 -259 907 -252 ct 920 -246 929 -237 937 -227 ct 
937 -354 l  980 -354 l  980 0 l  940 0 l  p
803 -128 m  803 -95 809 -70 823 -54 ct 837 -38 853 -30 872 -30 ct 891 -30 907 -37 921 -53 ct 
934 -69 940 -92 940 -124 ct 940 -159 934 -185 920 -201 ct 907 -218 890 -226 870 -226 ct 
851 -226 835 -218 822 -202 ct 809 -187 803 -162 803 -128 ct p ef
1237 0 m  1196 0 l  1196 -354 l  1240 -354 l  1240 -227 l  1258 -250 1281 -262 1310 -262 ct 
1326 -262 1341 -259 1355 -252 ct 1369 -246 1380 -237 1389 -225 ct 1399 -214 1406 -200 1411 -184 ct 
1416 -168 1418 -150 1418 -132 ct 1418 -88 1408 -54 1386 -30 ct 1364 -6 1338 6 1308 6 ct 
1278 6 1254 -7 1237 -32 ct 1237 0 l  p
1236 -130 m  1236 -99 1240 -77 1249 -63 ct 1262 -41 1281 -30 1304 -30 ct 1323 -30 1340 -38 1353 -54 ct 
1367 -71 1374 -95 1374 -128 ct 1374 -162 1367 -186 1354 -202 ct 1341 -218 1325 -226 1306 -226 ct 
1287 -226 1271 -218 1257 -201 ct 1243 -185 1236 -161 1236 -130 ct p ef
1663 -82 m  1708 -77 l  1701 -51 1688 -30 1668 -16 ct 1649 -1 1625 6 1595 6 ct 
1558 6 1528 -6 1506 -29 ct 1484 -52 1473 -84 1473 -126 ct 1473 -169 1484 -202 1506 -226 ct 
1529 -250 1557 -262 1593 -262 ct 1627 -262 1655 -250 1677 -227 ct 1698 -204 1709 -171 1709 -129 ct 
1709 -126 1709 -122 1709 -117 ct 1518 -117 l  1520 -89 1528 -67 1542 -52 ct 
1556 -37 1574 -30 1595 -30 ct 1611 -30 1625 -34 1636 -42 ct 1647 -51 1656 -64 1663 -82 ct 
p
1520 -153 m  1663 -153 l  1661 -174 1656 -190 1647 -201 ct 1633 -218 1615 -226 1593 -226 ct 
1573 -226 1557 -219 1543 -206 ct 1529 -193 1522 -175 1520 -153 ct p ef
1756 0 m  1756 -35 l  1919 -222 l  1900 -222 1884 -222 1870 -222 ct 1765 -222 l 
1765 -256 l  1975 -256 l  1975 -227 l  1836 -65 l  1809 -35 l  1829 -37 1847 -37 1864 -37 ct 
1982 -37 l  1982 0 l  1756 0 l  p ef
2091 0 m  2012 -256 l  2057 -256 l  2098 -108 l  2113 -53 l  2114 -56 2118 -74 2127 -106 ct 
2167 -256 l  2212 -256 l  2250 -108 l  2263 -59 l  2278 -108 l  2322 -256 l 
2364 -256 l  2284 0 l  2239 0 l  2198 -153 l  2188 -197 l  2136 0 l  2091 0 l 
p ef
2391 0 m  2391 -35 l  2554 -222 l  2535 -222 2519 -222 2505 -222 ct 2400 -222 l 
2400 -256 l  2610 -256 l  2610 -227 l  2471 -65 l  2444 -35 l  2464 -37 2482 -37 2499 -37 ct 
2617 -37 l  2617 0 l  2391 0 l  p ef
2671 21 m  2713 28 l  2715 41 2719 50 2728 56 ct 2738 64 2753 68 2772 68 ct 
2792 68 2807 64 2818 56 ct 2829 48 2837 37 2840 22 ct 2843 13 2844 -5 2844 -34 ct 
2825 -11 2801 0 2773 0 ct 2737 0 2710 -13 2691 -38 ct 2672 -64 2662 -94 2662 -130 ct 
2662 -154 2666 -177 2675 -197 ct 2684 -218 2697 -234 2714 -245 ct 2730 -256 2750 -262 2773 -262 ct 
2803 -262 2828 -250 2848 -225 ct 2848 -256 l  2888 -256 l  2888 -35 l  2888 5 2884 33 2876 50 ct 
2867 67 2855 80 2837 90 ct 2819 99 2798 104 2772 104 ct 2741 104 2717 97 2698 83 ct 
2679 70 2670 49 2671 21 ct p
2707 -133 m  2707 -99 2713 -75 2727 -59 ct 2740 -44 2757 -36 2777 -36 ct 2797 -36 2813 -44 2827 -59 ct 
2840 -74 2847 -98 2847 -131 ct 2847 -163 2840 -186 2826 -202 ct 2812 -218 2796 -226 2776 -226 ct 
2757 -226 2740 -218 2727 -203 ct 2713 -187 2707 -164 2707 -133 ct p ef
2969 0 m  2969 -354 l  3012 -354 l  3012 0 l  2969 0 l  p ef
3251 -82 m  3296 -77 l  3289 -51 3276 -30 3256 -16 ct 3237 -1 3213 6 3183 6 ct 
3146 6 3116 -6 3094 -29 ct 3072 -52 3061 -84 3061 -126 ct 3061 -169 3072 -202 3094 -226 ct 
3117 -250 3145 -262 3181 -262 ct 3215 -262 3243 -250 3265 -227 ct 3286 -204 3297 -171 3297 -129 ct 
3297 -126 3297 -122 3297 -117 ct 3106 -117 l  3108 -89 3116 -67 3130 -52 ct 
3144 -37 3162 -30 3183 -30 ct 3199 -30 3213 -34 3224 -42 ct 3235 -51 3244 -64 3251 -82 ct 
p
3108 -153 m  3251 -153 l  3249 -174 3244 -190 3235 -201 ct 3221 -218 3203 -226 3181 -226 ct 
3161 -226 3145 -219 3131 -206 ct 3117 -193 3110 -175 3108 -153 ct p
3174 -6 m  3203 -6 l  3197 9 3194 22 3194 34 ct 3194 45 3197 54 3204 61 ct 3210 67 3219 71 3229 71 ct 
3241 71 3255 67 3269 60 ct 3269 88 l  3261 93 3252 96 3242 99 ct 3232 102 3224 103 3216 103 ct 
3201 103 3188 98 3178 89 ct 3168 79 3164 66 3164 50 ct 3164 36 3167 17 3174 -6 ct 
p ef
3533 0 m  3533 -32 l  3517 -7 3493 6 3461 6 ct 3441 6 3422 0 3405 -11 ct 3388 -22 3374 -38 3365 -58 ct 
3356 -78 3351 -102 3351 -128 ct 3351 -153 3355 -177 3364 -197 ct 3372 -218 3385 -234 3402 -245 ct 
3419 -256 3438 -262 3459 -262 ct 3475 -262 3488 -259 3500 -252 ct 3513 -246 3522 -237 3530 -227 ct 
3530 -354 l  3573 -354 l  3573 0 l  3533 0 l  p
3396 -128 m  3396 -95 3402 -70 3416 -54 ct 3430 -38 3446 -30 3465 -30 ct 3484 -30 3500 -37 3514 -53 ct 
3527 -69 3533 -92 3533 -124 ct 3533 -159 3527 -185 3513 -201 ct 3500 -218 3483 -226 3463 -226 ct 
3444 -226 3428 -218 3415 -202 ct 3402 -187 3396 -162 3396 -128 ct p ef
3658 0 m  3658 -256 l  3697 -256 l  3697 -220 l  3715 -248 3743 -262 3778 -262 ct 
3794 -262 3808 -259 3821 -254 ct 3834 -248 3843 -241 3850 -232 ct 3856 -223 3861 -212 3863 -200 ct 
3865 -192 3866 -178 3866 -158 ct 3866 0 l  3822 0 l  3822 -156 l  3822 -174 3821 -187 3817 -196 ct 
3814 -204 3808 -211 3799 -217 ct 3791 -222 3781 -224 3769 -224 ct 3751 -224 3735 -218 3721 -207 ct 
3708 -195 3701 -173 3701 -140 ct 3701 0 l  3658 0 l  p ef
3947 99 m  3942 58 l  3951 60 3960 62 3967 62 ct 3976 62 3984 60 3990 57 ct 
3996 54 4000 49 4004 43 ct 4007 39 4011 28 4017 11 ct 4018 9 4019 5 4021 1 ct 3924 -256 l 
3971 -256 l  4024 -108 l  4031 -89 4037 -69 4043 -48 ct 4048 -68 4054 -88 4060 -107 ct 
4115 -256 l  4159 -256 l  4061 4 l  4051 33 4043 52 4037 63 ct 4029 77 4020 87 4010 94 ct 
4000 101 3988 104 3975 104 ct 3966 104 3957 102 3947 99 ct p ef
4347 98 m  4347 -354 l  4442 -354 l  4442 -318 l  4390 -318 l  4390 62 l 
4442 62 l  4442 98 l  4347 98 l  p ef
4485 0 m  4485 -354 l  4531 -354 l  4531 -209 l  4715 -209 l  4715 -354 l 
4762 -354 l  4762 0 l  4715 0 l  4715 -167 l  4531 -167 l  4531 0 l  4485 0 l 
p ef
4825 0 m  4825 -35 l  4988 -222 l  4969 -222 4953 -222 4939 -222 ct 4834 -222 l 
4834 -256 l  5044 -256 l  5044 -227 l  4905 -65 l  4878 -35 l  4898 -37 4916 -37 4933 -37 ct 
5051 -37 l  5051 0 l  4825 0 l  p ef
5185 98 m  5089 98 l  5089 62 l  5142 62 l  5142 -318 l  5089 -318 l  5089 -354 l 
5185 -354 l  5185 98 l  p ef
pom
0 16323 t 
pom
count op_count sub {pop} repeat countdictstack dict_count sub {end} repeat b4_inc_state restore
%%PageTrailer
%%Trailer
%%EOF
