%!PS-Adobe-3.0 EPSF-3.0 
%%BoundingBox: 0 0 903 471
%%Pages: 0
%%Creator: LibreOffice 4.1
%%Title: none
%%CreationDate: none
%%LanguageLevel: 2
%%EndComments
%%BeginProlog
%%BeginResource: procset SDRes-Prolog 1.0 0
/b4_inc_state save def
/dict_count countdictstack def
/op_count count 1 sub def
userdict begin
0 setgray 0 setlinecap 1 setlinewidth 0 setlinejoin 10 setmiterlimit[] 0 setdash newpath
/languagelevel where {pop languagelevel 1 ne {false setstrokeadjust false setoverprint} if} if
/bdef {bind def} bind def
/c {setrgbcolor} bdef
/l {neg lineto} bdef
/rl {neg rlineto} bdef
/lc {setlinecap} bdef
/lj {setlinejoin} bdef
/lw {setlinewidth} bdef
/ml {setmiterlimit} bdef
/ld {setdash} bdef
/m {neg moveto} bdef
/ct {6 2 roll neg 6 2 roll neg 6 2 roll neg curveto} bdef
/r {rotate} bdef
/t {neg translate} bdef
/s {scale} bdef
/sw {show} bdef
/gs {gsave} bdef
/gr {grestore} bdef
/f {findfont dup length dict begin
{1 index /FID ne {def} {pop pop} ifelse} forall /Encoding ISOLatin1Encoding def
currentdict end /NFont exch definefont pop /NFont findfont} bdef
/p {closepath} bdef
/sf {scalefont setfont} bdef
/ef {eofill}bdef
/pc {closepath stroke}bdef
/ps {stroke}bdef
/pum {matrix currentmatrix}bdef
/pom {setmatrix}bdef
/bs {/aString exch def /nXOfs exch def /nWidth exch def currentpoint nXOfs 0 rmoveto pum nWidth aString stringwidth pop div 1 scale aString show pom moveto} bdef
%%EndResource
%%EndProlog
%%BeginSetup
%%EndSetup
%%Page: 1 1
%%BeginPageSetup
%%EndPageSetup
pum
0.02833 0.02833 s 
0 -16625 t
/tm matrix currentmatrix def
tm setmatrix
-30313 -17001 t 
1 1 s 
1.000 1.000 1.000 c 46231 33589 m  30296 33589 l  30296 16965 l  62166 16965 l 
62166 33589 l  46231 33589 l  p ef
0 lw 1 lj 0.703 0.703 0.703 c 46876 31072 m  33445 31072 l  33445 18733 l 
60308 18733 l  60308 31072 l  46876 31072 l  pc
33445 18732 m  33445 31071 l  ps
38817 18732 m  38817 31071 l  ps
44190 18732 m  44190 31071 l  ps
49562 18732 m  49562 31071 l  ps
54935 18732 m  54935 31071 l  ps
60308 18732 m  60308 31071 l  ps
60308 31071 m  33445 31071 l  ps
60308 29837 m  33445 29837 l  ps
60308 28603 m  33445 28603 l  ps
60308 27369 m  33445 27369 l  ps
60308 26135 m  33445 26135 l  ps
60308 24902 m  33445 24902 l  ps
60308 23667 m  33445 23667 l  ps
60308 22433 m  33445 22433 l  ps
60308 21199 m  33445 21199 l  ps
60308 19965 m  33445 19965 l  ps
60308 18732 m  33445 18732 l  ps
33445 31221 m  33445 31071 l  ps
33445 31221 m  33445 31071 l  ps
38817 31221 m  38817 31071 l  ps
38817 31221 m  38817 31071 l  ps
44190 31221 m  44190 31071 l  ps
44190 31221 m  44190 31071 l  ps
49562 31221 m  49562 31071 l  ps
49562 31221 m  49562 31071 l  ps
54935 31221 m  54935 31071 l  ps
54935 31221 m  54935 31071 l  ps
60308 31221 m  60308 31071 l  ps
60308 31221 m  60308 31071 l  ps
33445 31071 m  60308 31071 l  ps
33295 31071 m  33445 31071 l  ps
33295 31071 m  33445 31071 l  ps
33295 29837 m  33445 29837 l  ps
33295 29837 m  33445 29837 l  ps
33295 28603 m  33445 28603 l  ps
33295 28603 m  33445 28603 l  ps
33295 27369 m  33445 27369 l  ps
33295 27369 m  33445 27369 l  ps
33295 26135 m  33445 26135 l  ps
33295 26135 m  33445 26135 l  ps
33295 24902 m  33445 24902 l  ps
33295 24902 m  33445 24902 l  ps
33295 23667 m  33445 23667 l  ps
33295 23667 m  33445 23667 l  ps
33295 22433 m  33445 22433 l  ps
33295 22433 m  33445 22433 l  ps
33295 21199 m  33445 21199 l  ps
33295 21199 m  33445 21199 l  ps
33295 19965 m  33445 19965 l  ps
33295 19965 m  33445 19965 l  ps
33295 18732 m  33445 18732 l  ps
33295 18732 m  33445 18732 l  ps
33445 31071 m  33445 18732 l  ps
0.003 0.273 0.527 c 34187 23533 m  34212 23633 l  34312 23658 l  34212 23683 l 
34187 23783 l  34162 23683 l  34062 23658 l  34162 23633 l  34187 23533 l 
p ef
34187 23533 m  34212 23633 l  34312 23658 l  34212 23683 l  34187 23783 l 
34162 23683 l  34062 23658 l  34162 23633 l  34187 23533 l  pc
34192 23533 m  34217 23633 l  34317 23658 l  34217 23683 l  34192 23783 l 
34167 23683 l  34067 23658 l  34167 23633 l  34192 23533 l  p ef
34192 23533 m  34217 23633 l  34317 23658 l  34217 23683 l  34192 23783 l 
34167 23683 l  34067 23658 l  34167 23633 l  34192 23533 l  pc
34239 29355 m  34264 29455 l  34364 29480 l  34264 29505 l  34239 29605 l 
34214 29505 l  34114 29480 l  34214 29455 l  34239 29355 l  p ef
34239 29355 m  34264 29455 l  34364 29480 l  34264 29505 l  34239 29605 l 
34214 29505 l  34114 29480 l  34214 29455 l  34239 29355 l  pc
34287 24855 m  34312 24955 l  34412 24980 l  34312 25005 l  34287 25105 l 
34262 25005 l  34162 24980 l  34262 24955 l  34287 24855 l  p ef
34287 24855 m  34312 24955 l  34412 24980 l  34312 25005 l  34287 25105 l 
34262 25005 l  34162 24980 l  34262 24955 l  34287 24855 l  pc
34340 21233 m  34365 21333 l  34465 21358 l  34365 21383 l  34340 21483 l 
34315 21383 l  34215 21358 l  34315 21333 l  34340 21233 l  p ef
34340 21233 m  34365 21333 l  34465 21358 l  34365 21383 l  34340 21483 l 
34315 21383 l  34215 21358 l  34315 21333 l  34340 21233 l  pc
34417 23651 m  34442 23751 l  34542 23776 l  34442 23801 l  34417 23901 l 
34392 23801 l  34292 23776 l  34392 23751 l  34417 23651 l  p ef
34417 23651 m  34442 23751 l  34542 23776 l  34442 23801 l  34417 23901 l 
34392 23801 l  34292 23776 l  34392 23751 l  34417 23651 l  pc
34472 28843 m  34497 28943 l  34597 28968 l  34497 28993 l  34472 29093 l 
34447 28993 l  34347 28968 l  34447 28943 l  34472 28843 l  p ef
34472 28843 m  34497 28943 l  34597 28968 l  34497 28993 l  34472 29093 l 
34447 28993 l  34347 28968 l  34447 28943 l  34472 28843 l  pc
34501 28843 m  34526 28943 l  34626 28968 l  34526 28993 l  34501 29093 l 
34476 28993 l  34376 28968 l  34476 28943 l  34501 28843 l  p ef
34501 28843 m  34526 28943 l  34626 28968 l  34526 28993 l  34501 29093 l 
34476 28993 l  34376 28968 l  34476 28943 l  34501 28843 l  pc
34622 25797 m  34647 25897 l  34747 25922 l  34647 25947 l  34622 26047 l 
34597 25947 l  34497 25922 l  34597 25897 l  34622 25797 l  p ef
34622 25797 m  34647 25897 l  34747 25922 l  34647 25947 l  34622 26047 l 
34597 25947 l  34497 25922 l  34597 25897 l  34622 25797 l  pc
34677 25432 m  34702 25532 l  34802 25557 l  34702 25582 l  34677 25682 l 
34652 25582 l  34552 25557 l  34652 25532 l  34677 25432 l  p ef
34677 25432 m  34702 25532 l  34802 25557 l  34702 25582 l  34677 25682 l 
34652 25582 l  34552 25557 l  34652 25532 l  34677 25432 l  pc
34752 25364 m  34777 25464 l  34877 25489 l  34777 25514 l  34752 25614 l 
34727 25514 l  34627 25489 l  34727 25464 l  34752 25364 l  p ef
34752 25364 m  34777 25464 l  34877 25489 l  34777 25514 l  34752 25614 l 
34727 25514 l  34627 25489 l  34727 25464 l  34752 25364 l  pc
34777 26584 m  34802 26684 l  34902 26709 l  34802 26734 l  34777 26834 l 
34752 26734 l  34652 26709 l  34752 26684 l  34777 26584 l  p ef
34777 26584 m  34802 26684 l  34902 26709 l  34802 26734 l  34777 26834 l 
34752 26734 l  34652 26709 l  34752 26684 l  34777 26584 l  pc
34852 26696 m  34877 26796 l  34977 26821 l  34877 26846 l  34852 26946 l 
34827 26846 l  34727 26821 l  34827 26796 l  34852 26696 l  p ef
34852 26696 m  34877 26796 l  34977 26821 l  34877 26846 l  34852 26946 l 
34827 26846 l  34727 26821 l  34827 26796 l  34852 26696 l  pc
34927 25708 m  34952 25808 l  35052 25833 l  34952 25858 l  34927 25958 l 
34902 25858 l  34802 25833 l  34902 25808 l  34927 25708 l  p ef
34927 25708 m  34952 25808 l  35052 25833 l  34952 25858 l  34927 25958 l 
34902 25858 l  34802 25833 l  34902 25808 l  34927 25708 l  pc
35023 28330 m  35048 28430 l  35148 28455 l  35048 28480 l  35023 28580 l 
34998 28480 l  34898 28455 l  34998 28430 l  35023 28330 l  p ef
35023 28330 m  35048 28430 l  35148 28455 l  35048 28480 l  35023 28580 l 
34998 28480 l  34898 28455 l  34998 28430 l  35023 28330 l  pc
35103 25823 m  35128 25923 l  35228 25948 l  35128 25973 l  35103 26073 l 
35078 25973 l  34978 25948 l  35078 25923 l  35103 25823 l  p ef
35103 25823 m  35128 25923 l  35228 25948 l  35128 25973 l  35103 26073 l 
35078 25973 l  34978 25948 l  35078 25923 l  35103 25823 l  pc
35196 28535 m  35221 28635 l  35321 28660 l  35221 28685 l  35196 28785 l 
35171 28685 l  35071 28660 l  35171 28635 l  35196 28535 l  p ef
35196 28535 m  35221 28635 l  35321 28660 l  35221 28685 l  35196 28785 l 
35171 28685 l  35071 28660 l  35171 28635 l  35196 28535 l  pc
35270 25773 m  35295 25873 l  35395 25898 l  35295 25923 l  35270 26023 l 
35245 25923 l  35145 25898 l  35245 25873 l  35270 25773 l  p ef
35270 25773 m  35295 25873 l  35395 25898 l  35295 25923 l  35270 26023 l 
35245 25923 l  35145 25898 l  35245 25873 l  35270 25773 l  pc
35340 29226 m  35365 29326 l  35465 29351 l  35365 29376 l  35340 29476 l 
35315 29376 l  35215 29351 l  35315 29326 l  35340 29226 l  p ef
35340 29226 m  35365 29326 l  35465 29351 l  35365 29376 l  35340 29476 l 
35315 29376 l  35215 29351 l  35315 29326 l  35340 29226 l  pc
35480 26907 m  35505 27007 l  35605 27032 l  35505 27057 l  35480 27157 l 
35455 27057 l  35355 27032 l  35455 27007 l  35480 26907 l  p ef
35480 26907 m  35505 27007 l  35605 27032 l  35505 27057 l  35480 27157 l 
35455 27057 l  35355 27032 l  35455 27007 l  35480 26907 l  pc
35567 25769 m  35592 25869 l  35692 25894 l  35592 25919 l  35567 26019 l 
35542 25919 l  35442 25894 l  35542 25869 l  35567 25769 l  p ef
35567 25769 m  35592 25869 l  35692 25894 l  35592 25919 l  35567 26019 l 
35542 25919 l  35442 25894 l  35542 25869 l  35567 25769 l  pc
35678 21277 m  35703 21377 l  35803 21402 l  35703 21427 l  35678 21527 l 
35653 21427 l  35553 21402 l  35653 21377 l  35678 21277 l  p ef
35678 21277 m  35703 21377 l  35803 21402 l  35703 21427 l  35678 21527 l 
35653 21427 l  35553 21402 l  35653 21377 l  35678 21277 l  pc
35940 24787 m  35965 24887 l  36065 24912 l  35965 24937 l  35940 25037 l 
35915 24937 l  35815 24912 l  35915 24887 l  35940 24787 l  p ef
35940 24787 m  35965 24887 l  36065 24912 l  35965 24937 l  35940 25037 l 
35915 24937 l  35815 24912 l  35915 24887 l  35940 24787 l  pc
35994 20261 m  36019 20361 l  36119 20386 l  36019 20411 l  35994 20511 l 
35969 20411 l  35869 20386 l  35969 20361 l  35994 20261 l  p ef
35994 20261 m  36019 20361 l  36119 20386 l  36019 20411 l  35994 20511 l 
35969 20411 l  35869 20386 l  35969 20361 l  35994 20261 l  pc
36145 22316 m  36170 22416 l  36270 22441 l  36170 22466 l  36145 22566 l 
36120 22466 l  36020 22441 l  36120 22416 l  36145 22316 l  p ef
36145 22316 m  36170 22416 l  36270 22441 l  36170 22466 l  36145 22566 l 
36120 22466 l  36020 22441 l  36120 22416 l  36145 22316 l  pc
36256 24274 m  36281 24374 l  36381 24399 l  36281 24424 l  36256 24524 l 
36231 24424 l  36131 24399 l  36231 24374 l  36256 24274 l  p ef
36256 24274 m  36281 24374 l  36381 24399 l  36281 24424 l  36256 24524 l 
36231 24424 l  36131 24399 l  36231 24374 l  36256 24274 l  pc
36335 28995 m  36360 29095 l  36460 29120 l  36360 29145 l  36335 29245 l 
36310 29145 l  36210 29120 l  36310 29095 l  36335 28995 l  p ef
36335 28995 m  36360 29095 l  36460 29120 l  36360 29145 l  36335 29245 l 
36310 29145 l  36210 29120 l  36310 29095 l  36335 28995 l  pc
36539 29355 m  36564 29455 l  36664 29480 l  36564 29505 l  36539 29605 l 
36514 29505 l  36414 29480 l  36514 29455 l  36539 29355 l  p ef
36539 29355 m  36564 29455 l  36664 29480 l  36564 29505 l  36539 29605 l 
36514 29505 l  36414 29480 l  36514 29455 l  36539 29355 l  pc
36608 22695 m  36633 22795 l  36733 22820 l  36633 22845 l  36608 22945 l 
36583 22845 l  36483 22820 l  36583 22795 l  36608 22695 l  p ef
36608 22695 m  36633 22795 l  36733 22820 l  36633 22845 l  36608 22945 l 
36583 22845 l  36483 22820 l  36583 22795 l  36608 22695 l  pc
36958 29448 m  36983 29548 l  37083 29573 l  36983 29598 l  36958 29698 l 
36933 29598 l  36833 29573 l  36933 29548 l  36958 29448 l  p ef
36958 29448 m  36983 29548 l  37083 29573 l  36983 29598 l  36958 29698 l 
36933 29598 l  36833 29573 l  36933 29548 l  36958 29448 l  pc
37105 29226 m  37130 29326 l  37230 29351 l  37130 29376 l  37105 29476 l 
37080 29376 l  36980 29351 l  37080 29326 l  37105 29226 l  p ef
37105 29226 m  37130 29326 l  37230 29351 l  37130 29376 l  37105 29476 l 
37080 29376 l  36980 29351 l  37080 29326 l  37105 29226 l  pc
37387 27721 m  37412 27821 l  37512 27846 l  37412 27871 l  37387 27971 l 
37362 27871 l  37262 27846 l  37362 27821 l  37387 27721 l  p ef
37387 27721 m  37412 27821 l  37512 27846 l  37412 27871 l  37387 27971 l 
37362 27871 l  37262 27846 l  37362 27821 l  37387 27721 l  pc
37503 24058 m  37528 24158 l  37628 24183 l  37528 24208 l  37503 24308 l 
37478 24208 l  37378 24183 l  37478 24158 l  37503 24058 l  p ef
37503 24058 m  37528 24158 l  37628 24183 l  37528 24208 l  37503 24308 l 
37478 24208 l  37378 24183 l  37478 24158 l  37503 24058 l  pc
37767 20774 m  37792 20874 l  37892 20899 l  37792 20924 l  37767 21024 l 
37742 20924 l  37642 20899 l  37742 20874 l  37767 20774 l  p ef
37767 20774 m  37792 20874 l  37892 20899 l  37792 20924 l  37767 21024 l 
37742 20924 l  37642 20899 l  37742 20874 l  37767 20774 l  pc
37918 27809 m  37943 27909 l  38043 27934 l  37943 27959 l  37918 28059 l 
37893 27959 l  37793 27934 l  37893 27909 l  37918 27809 l  p ef
37918 27809 m  37943 27909 l  38043 27934 l  37943 27959 l  37918 28059 l 
37893 27959 l  37793 27934 l  37893 27909 l  37918 27809 l  pc
38222 29562 m  38247 29662 l  38347 29687 l  38247 29712 l  38222 29812 l 
38197 29712 l  38097 29687 l  38197 29662 l  38222 29562 l  p ef
38222 29562 m  38247 29662 l  38347 29687 l  38247 29712 l  38222 29812 l 
38197 29712 l  38097 29687 l  38197 29662 l  38222 29562 l  pc
38651 26279 m  38676 26379 l  38776 26404 l  38676 26429 l  38651 26529 l 
38626 26429 l  38526 26404 l  38626 26379 l  38651 26279 l  p ef
38651 26279 m  38676 26379 l  38776 26404 l  38676 26429 l  38651 26529 l 
38626 26429 l  38526 26404 l  38626 26379 l  38651 26279 l  pc
38856 27194 m  38881 27294 l  38981 27319 l  38881 27344 l  38856 27444 l 
38831 27344 l  38731 27319 l  38831 27294 l  38856 27194 l  p ef
38856 27194 m  38881 27294 l  38981 27319 l  38881 27344 l  38856 27444 l 
38831 27344 l  38731 27319 l  38831 27294 l  38856 27194 l  pc
39074 26696 m  39099 26796 l  39199 26821 l  39099 26846 l  39074 26946 l 
39049 26846 l  38949 26821 l  39049 26796 l  39074 26696 l  p ef
39074 26696 m  39099 26796 l  39199 26821 l  39099 26846 l  39074 26946 l 
39049 26846 l  38949 26821 l  39049 26796 l  39074 26696 l  pc
39113 28708 m  39138 28808 l  39238 28833 l  39138 28858 l  39113 28958 l 
39088 28858 l  38988 28833 l  39088 28808 l  39113 28708 l  p ef
39113 28708 m  39138 28808 l  39238 28833 l  39138 28858 l  39113 28958 l 
39088 28858 l  38988 28833 l  39088 28808 l  39113 28708 l  pc
39759 27818 m  39784 27918 l  39884 27943 l  39784 27968 l  39759 28068 l 
39734 27968 l  39634 27943 l  39734 27918 l  39759 27818 l  p ef
39759 27818 m  39784 27918 l  39884 27943 l  39784 27968 l  39759 28068 l 
39734 27968 l  39634 27943 l  39734 27918 l  39759 27818 l  pc
39960 22676 m  39985 22776 l  40085 22801 l  39985 22826 l  39960 22926 l 
39935 22826 l  39835 22801 l  39935 22776 l  39960 22676 l  p ef
39960 22676 m  39985 22776 l  40085 22801 l  39985 22826 l  39960 22926 l 
39935 22826 l  39835 22801 l  39935 22776 l  39960 22676 l  pc
40417 30133 m  40442 30233 l  40542 30258 l  40442 30283 l  40417 30383 l 
40392 30283 l  40292 30258 l  40392 30233 l  40417 30133 l  p ef
40417 30133 m  40442 30233 l  40542 30258 l  40442 30283 l  40417 30383 l 
40392 30283 l  40292 30258 l  40392 30233 l  40417 30133 l  pc
40945 26205 m  40970 26305 l  41070 26330 l  40970 26355 l  40945 26455 l 
40920 26355 l  40820 26330 l  40920 26305 l  40945 26205 l  p ef
40945 26205 m  40970 26305 l  41070 26330 l  40970 26355 l  40945 26455 l 
40920 26355 l  40820 26330 l  40920 26305 l  40945 26205 l  pc
41075 22537 m  41100 22637 l  41200 22662 l  41100 22687 l  41075 22787 l 
41050 22687 l  40950 22662 l  41050 22637 l  41075 22537 l  p ef
41075 22537 m  41100 22637 l  41200 22662 l  41100 22687 l  41075 22787 l 
41050 22687 l  40950 22662 l  41050 22637 l  41075 22537 l  pc
41592 24262 m  41617 24362 l  41717 24387 l  41617 24412 l  41592 24512 l 
41567 24412 l  41467 24387 l  41567 24362 l  41592 24262 l  p ef
41592 24262 m  41617 24362 l  41717 24387 l  41617 24412 l  41592 24512 l 
41567 24412 l  41467 24387 l  41567 24362 l  41592 24262 l  pc
42099 27882 m  42124 27982 l  42224 28007 l  42124 28032 l  42099 28132 l 
42074 28032 l  41974 28007 l  42074 27982 l  42099 27882 l  p ef
42099 27882 m  42124 27982 l  42224 28007 l  42124 28032 l  42099 28132 l 
42074 28032 l  41974 28007 l  42074 27982 l  42099 27882 l  pc
42774 21347 m  42799 21447 l  42899 21472 l  42799 21497 l  42774 21597 l 
42749 21497 l  42649 21472 l  42749 21447 l  42774 21347 l  p ef
42774 21347 m  42799 21447 l  42899 21472 l  42799 21497 l  42774 21597 l 
42749 21497 l  42649 21472 l  42749 21447 l  42774 21347 l  pc
43358 22686 m  43383 22786 l  43483 22811 l  43383 22836 l  43358 22936 l 
43333 22836 l  43233 22811 l  43333 22786 l  43358 22686 l  p ef
43358 22686 m  43383 22786 l  43483 22811 l  43383 22836 l  43358 22936 l 
43333 22836 l  43233 22811 l  43333 22786 l  43358 22686 l  pc
43520 20908 m  43545 21008 l  43645 21033 l  43545 21058 l  43520 21158 l 
43495 21058 l  43395 21033 l  43495 21008 l  43520 20908 l  p ef
43520 20908 m  43545 21008 l  43645 21033 l  43545 21058 l  43520 21158 l 
43495 21058 l  43395 21033 l  43495 21008 l  43520 20908 l  pc
44172 29481 m  44197 29581 l  44297 29606 l  44197 29631 l  44172 29731 l 
44147 29631 l  44047 29606 l  44147 29581 l  44172 29481 l  p ef
44172 29481 m  44197 29581 l  44297 29606 l  44197 29631 l  44172 29731 l 
44147 29631 l  44047 29606 l  44147 29581 l  44172 29481 l  pc
44692 24418 m  44717 24518 l  44817 24543 l  44717 24568 l  44692 24668 l 
44667 24568 l  44567 24543 l  44667 24518 l  44692 24418 l  p ef
44692 24418 m  44717 24518 l  44817 24543 l  44717 24568 l  44692 24668 l 
44667 24568 l  44567 24543 l  44667 24518 l  44692 24418 l  pc
44742 27702 m  44767 27802 l  44867 27827 l  44767 27852 l  44742 27952 l 
44717 27852 l  44617 27827 l  44717 27802 l  44742 27702 l  p ef
44742 27702 m  44767 27802 l  44867 27827 l  44767 27852 l  44742 27952 l 
44717 27852 l  44617 27827 l  44717 27802 l  44742 27702 l  pc
45732 28971 m  45757 29071 l  45857 29096 l  45757 29121 l  45732 29221 l 
45707 29121 l  45607 29096 l  45707 29071 l  45732 28971 l  p ef
45732 28971 m  45757 29071 l  45857 29096 l  45757 29121 l  45732 29221 l 
45707 29121 l  45607 29096 l  45707 29071 l  45732 28971 l  pc
46326 27178 m  46351 27278 l  46451 27303 l  46351 27328 l  46326 27428 l 
46301 27328 l  46202 27303 l  46301 27278 l  46326 27178 l  p ef
46326 27178 m  46351 27278 l  46451 27303 l  46351 27328 l  46326 27428 l 
46301 27328 l  46202 27303 l  46301 27278 l  46326 27178 l  pc
46954 28729 m  46979 28829 l  47079 28854 l  46979 28879 l  46954 28979 l 
46929 28879 l  46829 28854 l  46929 28829 l  46954 28729 l  p ef
46954 28729 m  46979 28829 l  47079 28854 l  46979 28879 l  46954 28979 l 
46929 28879 l  46829 28854 l  46929 28829 l  46954 28729 l  pc
47798 25568 m  47823 25668 l  47923 25693 l  47823 25718 l  47798 25818 l 
47773 25718 l  47673 25693 l  47773 25668 l  47798 25568 l  p ef
47798 25568 m  47823 25668 l  47923 25693 l  47823 25718 l  47798 25818 l 
47773 25718 l  47673 25693 l  47773 25668 l  47798 25568 l  pc
49261 29858 m  49286 29958 l  49386 29983 l  49286 30008 l  49261 30108 l 
49236 30008 l  49136 29983 l  49236 29958 l  49261 29858 l  p ef
49261 29858 m  49286 29958 l  49386 29983 l  49286 30008 l  49261 30108 l 
49236 30008 l  49136 29983 l  49236 29958 l  49261 29858 l  pc
49986 23944 m  50011 24044 l  50111 24069 l  50011 24094 l  49986 24194 l 
49961 24094 l  49861 24069 l  49961 24044 l  49986 23944 l  p ef
49986 23944 m  50011 24044 l  50111 24069 l  50011 24094 l  49986 24194 l 
49961 24094 l  49861 24069 l  49961 24044 l  49986 23944 l  pc
50756 27402 m  50781 27502 l  50881 27527 l  50781 27552 l  50756 27652 l 
50731 27552 l  50631 27527 l  50731 27502 l  50756 27402 l  p ef
50756 27402 m  50781 27502 l  50881 27527 l  50781 27552 l  50756 27652 l 
50731 27552 l  50631 27527 l  50731 27502 l  50756 27402 l  pc
52261 28878 m  52286 28978 l  52386 29003 l  52286 29028 l  52261 29128 l 
52236 29028 l  52136 29003 l  52236 28978 l  52261 28878 l  p ef
52261 28878 m  52286 28978 l  52386 29003 l  52286 29028 l  52261 29128 l 
52236 29028 l  52136 29003 l  52236 28978 l  52261 28878 l  pc
52472 30333 m  52497 30433 l  52597 30458 l  52497 30483 l  52472 30583 l 
52447 30483 l  52347 30458 l  52447 30433 l  52472 30333 l  p ef
52472 30333 m  52497 30433 l  52597 30458 l  52497 30483 l  52472 30583 l 
52447 30483 l  52347 30458 l  52447 30433 l  52472 30333 l  pc
54371 23840 m  54396 23940 l  54496 23965 l  54396 23990 l  54371 24090 l 
54346 23990 l  54246 23965 l  54346 23940 l  54371 23840 l  p ef
54371 23840 m  54396 23940 l  54496 23965 l  54396 23990 l  54371 24090 l 
54346 23990 l  54246 23965 l  54346 23940 l  54371 23840 l  pc
55595 24346 m  55620 24446 l  55720 24471 l  55620 24496 l  55595 24596 l 
55570 24496 l  55470 24471 l  55570 24446 l  55595 24346 l  p ef
55595 24346 m  55620 24446 l  55720 24471 l  55620 24496 l  55595 24596 l 
55570 24496 l  55470 24471 l  55570 24446 l  55595 24346 l  pc
pum
33299 31797 t
0.003 0.003 0.003 c 21 -174 m  21 -216 25 -250 33 -275 ct 42 -301 55 -320 72 -334 ct 
89 -348 110 -355 136 -355 ct 155 -355 171 -351 186 -344 ct 200 -336 212 -325 221 -311 ct 
231 -296 238 -279 243 -258 ct 248 -237 251 -209 251 -174 ct 251 -133 247 -99 238 -74 ct 
230 -48 217 -29 200 -15 ct 183 -1 162 6 136 6 ct 102 6 75 -6 55 -31 ct 32 -60 21 -108 21 -174 ct 
p
65 -174 m  65 -116 72 -78 86 -59 ct 99 -39 116 -30 136 -30 ct 156 -30 173 -39 186 -59 ct 
200 -78 206 -117 206 -174 ct 206 -233 200 -271 186 -290 ct 173 -309 156 -319 135 -319 ct 
115 -319 99 -311 88 -294 ct 73 -272 65 -232 65 -174 ct p ef
pom
pum
38380 31797 t
21 -93 m  66 -96 l  69 -74 77 -58 90 -46 ct 102 -35 117 -30 134 -30 ct 155 -30 173 -38 187 -53 ct 
202 -69 209 -90 209 -116 ct 209 -141 202 -160 188 -175 ct 174 -189 156 -196 133 -196 ct 
119 -196 107 -193 96 -186 ct 84 -180 75 -172 69 -162 ct 28 -167 l  62 -349 l 
238 -349 l  238 -308 l  97 -308 l  78 -212 l  99 -227 122 -234 145 -234 ct 
176 -234 202 -224 223 -202 ct 244 -181 255 -153 255 -120 ct 255 -88 246 -60 227 -37 ct 
204 -8 173 6 134 6 ct 102 6 76 -3 55 -21 ct 35 -39 23 -63 21 -93 ct p ef
312 -174 m  312 -216 316 -250 324 -275 ct 333 -301 346 -320 363 -334 ct 380 -348 401 -355 427 -355 ct 
446 -355 462 -351 477 -344 ct 491 -336 503 -325 512 -311 ct 522 -296 529 -279 534 -258 ct 
539 -237 542 -209 542 -174 ct 542 -133 538 -99 529 -74 ct 521 -48 508 -29 491 -15 ct 
474 -1 453 6 427 6 ct 393 6 366 -6 346 -31 ct 323 -60 312 -108 312 -174 ct p
356 -174 m  356 -116 363 -78 377 -59 ct 390 -39 407 -30 427 -30 ct 447 -30 464 -39 477 -59 ct 
491 -78 497 -117 497 -174 ct 497 -233 491 -271 477 -290 ct 464 -309 447 -319 426 -319 ct 
406 -319 390 -311 379 -294 ct 364 -272 356 -232 356 -174 ct p ef
603 -174 m  603 -216 607 -250 615 -275 ct 624 -301 637 -320 654 -334 ct 671 -348 692 -355 718 -355 ct 
737 -355 753 -351 768 -344 ct 782 -336 794 -325 803 -311 ct 813 -296 820 -279 825 -258 ct 
830 -237 833 -209 833 -174 ct 833 -133 829 -99 820 -74 ct 812 -48 799 -29 782 -15 ct 
765 -1 744 6 718 6 ct 684 6 657 -6 637 -31 ct 614 -60 603 -108 603 -174 ct p
647 -174 m  647 -116 654 -78 668 -59 ct 681 -39 698 -30 718 -30 ct 738 -30 755 -39 768 -59 ct 
782 -78 788 -117 788 -174 ct 788 -233 782 -271 768 -290 ct 755 -309 738 -319 717 -319 ct 
697 -319 681 -311 670 -294 ct 655 -272 647 -232 647 -174 ct p ef
pom
pum
43608 31797 t
184 0 m  141 0 l  141 -277 l  130 -267 116 -257 100 -247 ct 83 -237 67 -229 54 -224 ct 
54 -266 l  78 -278 99 -292 117 -308 ct 136 -324 149 -340 156 -355 ct 184 -355 l 
184 0 l  p ef
312 -174 m  312 -216 316 -250 324 -275 ct 333 -301 346 -320 363 -334 ct 380 -348 401 -355 427 -355 ct 
446 -355 462 -351 477 -344 ct 491 -336 503 -325 512 -311 ct 522 -296 529 -279 534 -258 ct 
539 -237 542 -209 542 -174 ct 542 -133 538 -99 529 -74 ct 521 -48 508 -29 491 -15 ct 
474 -1 453 6 427 6 ct 393 6 366 -6 346 -31 ct 323 -60 312 -108 312 -174 ct p
356 -174 m  356 -116 363 -78 377 -59 ct 390 -39 407 -30 427 -30 ct 447 -30 464 -39 477 -59 ct 
491 -78 497 -117 497 -174 ct 497 -233 491 -271 477 -290 ct 464 -309 447 -319 426 -319 ct 
406 -319 390 -311 379 -294 ct 364 -272 356 -232 356 -174 ct p ef
603 -174 m  603 -216 607 -250 615 -275 ct 624 -301 637 -320 654 -334 ct 671 -348 692 -355 718 -355 ct 
737 -355 753 -351 768 -344 ct 782 -336 794 -325 803 -311 ct 813 -296 820 -279 825 -258 ct 
830 -237 833 -209 833 -174 ct 833 -133 829 -99 820 -74 ct 812 -48 799 -29 782 -15 ct 
765 -1 744 6 718 6 ct 684 6 657 -6 637 -31 ct 614 -60 603 -108 603 -174 ct p
647 -174 m  647 -116 654 -78 668 -59 ct 681 -39 698 -30 718 -30 ct 738 -30 755 -39 768 -59 ct 
782 -78 788 -117 788 -174 ct 788 -233 782 -271 768 -290 ct 755 -309 738 -319 717 -319 ct 
697 -319 681 -311 670 -294 ct 655 -272 647 -232 647 -174 ct p ef
894 -174 m  894 -216 898 -250 906 -275 ct 915 -301 928 -320 945 -334 ct 962 -348 983 -355 1009 -355 ct 
1028 -355 1044 -351 1059 -344 ct 1073 -336 1085 -325 1094 -311 ct 1104 -296 1111 -279 1116 -258 ct 
1121 -237 1124 -209 1124 -174 ct 1124 -133 1120 -99 1111 -74 ct 1103 -48 1090 -29 1073 -15 ct 
1056 -1 1035 6 1009 6 ct 975 6 948 -6 928 -31 ct 905 -60 894 -108 894 -174 ct p
938 -174 m  938 -116 945 -78 959 -59 ct 972 -39 989 -30 1009 -30 ct 1029 -30 1046 -39 1059 -59 ct 
1073 -78 1079 -117 1079 -174 ct 1079 -233 1073 -271 1059 -290 ct 1046 -309 1029 -319 1008 -319 ct 
988 -319 972 -311 961 -294 ct 946 -272 938 -232 938 -174 ct p ef
pom
pum
48981 31797 t
184 0 m  141 0 l  141 -277 l  130 -267 116 -257 100 -247 ct 83 -237 67 -229 54 -224 ct 
54 -266 l  78 -278 99 -292 117 -308 ct 136 -324 149 -340 156 -355 ct 184 -355 l 
184 0 l  p ef
312 -93 m  357 -96 l  360 -74 368 -58 381 -46 ct 393 -35 408 -30 425 -30 ct 
446 -30 464 -38 478 -53 ct 493 -69 500 -90 500 -116 ct 500 -141 493 -160 479 -175 ct 
465 -189 447 -196 424 -196 ct 410 -196 398 -193 387 -186 ct 375 -180 366 -172 360 -162 ct 
319 -167 l  353 -349 l  529 -349 l  529 -308 l  388 -308 l  369 -212 l 
390 -227 413 -234 436 -234 ct 467 -234 493 -224 514 -202 ct 535 -181 546 -153 546 -120 ct 
546 -88 537 -60 518 -37 ct 495 -8 464 6 425 6 ct 393 6 367 -3 346 -21 ct 326 -39 314 -63 312 -93 ct 
p ef
603 -174 m  603 -216 607 -250 615 -275 ct 624 -301 637 -320 654 -334 ct 671 -348 692 -355 718 -355 ct 
737 -355 753 -351 768 -344 ct 782 -336 794 -325 803 -311 ct 813 -296 820 -279 825 -258 ct 
830 -237 833 -209 833 -174 ct 833 -133 829 -99 820 -74 ct 812 -48 799 -29 782 -15 ct 
765 -1 744 6 718 6 ct 684 6 657 -6 637 -31 ct 614 -60 603 -108 603 -174 ct p
647 -174 m  647 -116 654 -78 668 -59 ct 681 -39 698 -30 718 -30 ct 738 -30 755 -39 768 -59 ct 
782 -78 788 -117 788 -174 ct 788 -233 782 -271 768 -290 ct 755 -309 738 -319 717 -319 ct 
697 -319 681 -311 670 -294 ct 655 -272 647 -232 647 -174 ct p ef
894 -174 m  894 -216 898 -250 906 -275 ct 915 -301 928 -320 945 -334 ct 962 -348 983 -355 1009 -355 ct 
1028 -355 1044 -351 1059 -344 ct 1073 -336 1085 -325 1094 -311 ct 1104 -296 1111 -279 1116 -258 ct 
1121 -237 1124 -209 1124 -174 ct 1124 -133 1120 -99 1111 -74 ct 1103 -48 1090 -29 1073 -15 ct 
1056 -1 1035 6 1009 6 ct 975 6 948 -6 928 -31 ct 905 -60 894 -108 894 -174 ct p
938 -174 m  938 -116 945 -78 959 -59 ct 972 -39 989 -30 1009 -30 ct 1029 -30 1046 -39 1059 -59 ct 
1073 -78 1079 -117 1079 -174 ct 1079 -233 1073 -271 1059 -290 ct 1046 -309 1029 -319 1008 -319 ct 
988 -319 972 -311 961 -294 ct 946 -272 938 -232 938 -174 ct p ef
pom
pum
54354 31797 t
249 -42 m  249 0 l  15 0 l  15 -10 16 -21 20 -30 ct 26 -46 36 -62 49 -77 ct 
62 -93 81 -110 105 -131 ct 144 -162 170 -187 183 -206 ct 197 -224 204 -241 204 -258 ct 
204 -275 197 -290 185 -301 ct 173 -313 157 -319 137 -319 ct 116 -319 99 -313 87 -300 ct 
74 -288 68 -270 68 -248 ct 23 -253 l  26 -286 38 -311 58 -329 ct 78 -346 104 -355 138 -355 ct 
172 -355 199 -346 219 -327 ct 238 -308 248 -285 248 -257 ct 248 -243 245 -229 240 -215 ct 
234 -201 224 -187 211 -172 ct 197 -157 175 -136 144 -110 ct 118 -88 101 -73 94 -65 ct 
86 -57 80 -50 75 -42 ct 249 -42 l  p ef
312 -174 m  312 -216 316 -250 324 -275 ct 333 -301 346 -320 363 -334 ct 380 -348 401 -355 427 -355 ct 
446 -355 462 -351 477 -344 ct 491 -336 503 -325 512 -311 ct 522 -296 529 -279 534 -258 ct 
539 -237 542 -209 542 -174 ct 542 -133 538 -99 529 -74 ct 521 -48 508 -29 491 -15 ct 
474 -1 453 6 427 6 ct 393 6 366 -6 346 -31 ct 323 -60 312 -108 312 -174 ct p
356 -174 m  356 -116 363 -78 377 -59 ct 390 -39 407 -30 427 -30 ct 447 -30 464 -39 477 -59 ct 
491 -78 497 -117 497 -174 ct 497 -233 491 -271 477 -290 ct 464 -309 447 -319 426 -319 ct 
406 -319 390 -311 379 -294 ct 364 -272 356 -232 356 -174 ct p ef
603 -174 m  603 -216 607 -250 615 -275 ct 624 -301 637 -320 654 -334 ct 671 -348 692 -355 718 -355 ct 
737 -355 753 -351 768 -344 ct 782 -336 794 -325 803 -311 ct 813 -296 820 -279 825 -258 ct 
830 -237 833 -209 833 -174 ct 833 -133 829 -99 820 -74 ct 812 -48 799 -29 782 -15 ct 
765 -1 744 6 718 6 ct 684 6 657 -6 637 -31 ct 614 -60 603 -108 603 -174 ct p
647 -174 m  647 -116 654 -78 668 -59 ct 681 -39 698 -30 718 -30 ct 738 -30 755 -39 768 -59 ct 
782 -78 788 -117 788 -174 ct 788 -233 782 -271 768 -290 ct 755 -309 738 -319 717 -319 ct 
697 -319 681 -311 670 -294 ct 655 -272 647 -232 647 -174 ct p ef
894 -174 m  894 -216 898 -250 906 -275 ct 915 -301 928 -320 945 -334 ct 962 -348 983 -355 1009 -355 ct 
1028 -355 1044 -351 1059 -344 ct 1073 -336 1085 -325 1094 -311 ct 1104 -296 1111 -279 1116 -258 ct 
1121 -237 1124 -209 1124 -174 ct 1124 -133 1120 -99 1111 -74 ct 1103 -48 1090 -29 1073 -15 ct 
1056 -1 1035 6 1009 6 ct 975 6 948 -6 928 -31 ct 905 -60 894 -108 894 -174 ct p
938 -174 m  938 -116 945 -78 959 -59 ct 972 -39 989 -30 1009 -30 ct 1029 -30 1046 -39 1059 -59 ct 
1073 -78 1079 -117 1079 -174 ct 1079 -233 1073 -271 1059 -290 ct 1046 -309 1029 -319 1008 -319 ct 
988 -319 972 -311 961 -294 ct 946 -272 938 -232 938 -174 ct p ef
pom
pum
59727 31797 t
249 -42 m  249 0 l  15 0 l  15 -10 16 -21 20 -30 ct 26 -46 36 -62 49 -77 ct 
62 -93 81 -110 105 -131 ct 144 -162 170 -187 183 -206 ct 197 -224 204 -241 204 -258 ct 
204 -275 197 -290 185 -301 ct 173 -313 157 -319 137 -319 ct 116 -319 99 -313 87 -300 ct 
74 -288 68 -270 68 -248 ct 23 -253 l  26 -286 38 -311 58 -329 ct 78 -346 104 -355 138 -355 ct 
172 -355 199 -346 219 -327 ct 238 -308 248 -285 248 -257 ct 248 -243 245 -229 240 -215 ct 
234 -201 224 -187 211 -172 ct 197 -157 175 -136 144 -110 ct 118 -88 101 -73 94 -65 ct 
86 -57 80 -50 75 -42 ct 249 -42 l  p ef
312 -93 m  357 -96 l  360 -74 368 -58 381 -46 ct 393 -35 408 -30 425 -30 ct 
446 -30 464 -38 478 -53 ct 493 -69 500 -90 500 -116 ct 500 -141 493 -160 479 -175 ct 
465 -189 447 -196 424 -196 ct 410 -196 398 -193 387 -186 ct 375 -180 366 -172 360 -162 ct 
319 -167 l  353 -349 l  529 -349 l  529 -308 l  388 -308 l  369 -212 l 
390 -227 413 -234 436 -234 ct 467 -234 493 -224 514 -202 ct 535 -181 546 -153 546 -120 ct 
546 -88 537 -60 518 -37 ct 495 -8 464 6 425 6 ct 393 6 367 -3 346 -21 ct 326 -39 314 -63 312 -93 ct 
p ef
603 -174 m  603 -216 607 -250 615 -275 ct 624 -301 637 -320 654 -334 ct 671 -348 692 -355 718 -355 ct 
737 -355 753 -351 768 -344 ct 782 -336 794 -325 803 -311 ct 813 -296 820 -279 825 -258 ct 
830 -237 833 -209 833 -174 ct 833 -133 829 -99 820 -74 ct 812 -48 799 -29 782 -15 ct 
765 -1 744 6 718 6 ct 684 6 657 -6 637 -31 ct 614 -60 603 -108 603 -174 ct p
647 -174 m  647 -116 654 -78 668 -59 ct 681 -39 698 -30 718 -30 ct 738 -30 755 -39 768 -59 ct 
782 -78 788 -117 788 -174 ct 788 -233 782 -271 768 -290 ct 755 -309 738 -319 717 -319 ct 
697 -319 681 -311 670 -294 ct 655 -272 647 -232 647 -174 ct p ef
894 -174 m  894 -216 898 -250 906 -275 ct 915 -301 928 -320 945 -334 ct 962 -348 983 -355 1009 -355 ct 
1028 -355 1044 -351 1059 -344 ct 1073 -336 1085 -325 1094 -311 ct 1104 -296 1111 -279 1116 -258 ct 
1121 -237 1124 -209 1124 -174 ct 1124 -133 1120 -99 1111 -74 ct 1103 -48 1090 -29 1073 -15 ct 
1056 -1 1035 6 1009 6 ct 975 6 948 -6 928 -31 ct 905 -60 894 -108 894 -174 ct p
938 -174 m  938 -116 945 -78 959 -59 ct 972 -39 989 -30 1009 -30 ct 1029 -30 1046 -39 1059 -59 ct 
1073 -78 1079 -117 1079 -174 ct 1079 -233 1073 -271 1059 -290 ct 1046 -309 1029 -319 1008 -319 ct 
988 -319 972 -311 961 -294 ct 946 -272 938 -232 938 -174 ct p ef
pom
pum
32904 31244 t
21 -174 m  21 -216 25 -250 33 -275 ct 42 -301 55 -320 72 -334 ct 89 -348 110 -355 136 -355 ct 
155 -355 171 -351 186 -344 ct 200 -336 212 -325 221 -311 ct 231 -296 238 -279 243 -258 ct 
248 -237 251 -209 251 -174 ct 251 -133 247 -99 238 -74 ct 230 -48 217 -29 200 -15 ct 
183 -1 162 6 136 6 ct 102 6 75 -6 55 -31 ct 32 -60 21 -108 21 -174 ct p
65 -174 m  65 -116 72 -78 86 -59 ct 99 -39 116 -30 136 -30 ct 156 -30 173 -39 186 -59 ct 
200 -78 206 -117 206 -174 ct 206 -233 200 -271 186 -290 ct 173 -309 156 -319 135 -319 ct 
115 -319 99 -311 88 -294 ct 73 -272 65 -232 65 -174 ct p ef
pom
pum
32190 30010 t
21 -174 m  21 -216 25 -250 33 -275 ct 42 -301 55 -320 72 -334 ct 89 -348 110 -355 136 -355 ct 
155 -355 171 -351 186 -344 ct 200 -336 212 -325 221 -311 ct 231 -296 238 -279 243 -258 ct 
248 -237 251 -209 251 -174 ct 251 -133 247 -99 238 -74 ct 230 -48 217 -29 200 -15 ct 
183 -1 162 6 136 6 ct 102 6 75 -6 55 -31 ct 32 -60 21 -108 21 -174 ct p
65 -174 m  65 -116 72 -78 86 -59 ct 99 -39 116 -30 136 -30 ct 156 -30 173 -39 186 -59 ct 
200 -78 206 -117 206 -174 ct 206 -233 200 -271 186 -290 ct 173 -309 156 -319 135 -319 ct 
115 -319 99 -311 88 -294 ct 73 -272 65 -232 65 -174 ct p ef
335 0 m  335 -49 l  384 -49 l  384 0 l  384 18 381 33 375 44 ct 368 55 358 64 344 70 ct 
332 51 l  341 47 348 41 352 34 ct 357 26 359 15 360 0 ct 335 0 l  p ef
444 -174 m  444 -216 448 -250 456 -275 ct 465 -301 478 -320 495 -334 ct 512 -348 533 -355 559 -355 ct 
578 -355 594 -351 609 -344 ct 623 -336 635 -325 644 -311 ct 654 -296 661 -279 666 -258 ct 
671 -237 674 -209 674 -174 ct 674 -133 670 -99 661 -74 ct 653 -48 640 -29 623 -15 ct 
606 -1 585 6 559 6 ct 525 6 498 -6 478 -31 ct 455 -60 444 -108 444 -174 ct p
488 -174 m  488 -116 495 -78 509 -59 ct 522 -39 539 -30 559 -30 ct 579 -30 596 -39 609 -59 ct 
623 -78 629 -117 629 -174 ct 629 -233 623 -271 609 -290 ct 596 -309 579 -319 558 -319 ct 
538 -319 522 -311 511 -294 ct 496 -272 488 -232 488 -174 ct p ef
735 -93 m  780 -96 l  783 -74 791 -58 804 -46 ct 816 -35 831 -30 848 -30 ct 
869 -30 887 -38 901 -53 ct 916 -69 923 -90 923 -116 ct 923 -141 916 -160 902 -175 ct 
888 -189 870 -196 847 -196 ct 833 -196 821 -193 810 -186 ct 798 -180 789 -172 783 -162 ct 
742 -167 l  776 -349 l  952 -349 l  952 -308 l  811 -308 l  792 -212 l 
813 -227 836 -234 859 -234 ct 890 -234 916 -224 937 -202 ct 958 -181 969 -153 969 -120 ct 
969 -88 960 -60 941 -37 ct 918 -8 887 6 848 6 ct 816 6 790 -3 769 -21 ct 749 -39 737 -63 735 -93 ct 
p ef
pom
pum
32481 28776 t
21 -174 m  21 -216 25 -250 33 -275 ct 42 -301 55 -320 72 -334 ct 89 -348 110 -355 136 -355 ct 
155 -355 171 -351 186 -344 ct 200 -336 212 -325 221 -311 ct 231 -296 238 -279 243 -258 ct 
248 -237 251 -209 251 -174 ct 251 -133 247 -99 238 -74 ct 230 -48 217 -29 200 -15 ct 
183 -1 162 6 136 6 ct 102 6 75 -6 55 -31 ct 32 -60 21 -108 21 -174 ct p
65 -174 m  65 -116 72 -78 86 -59 ct 99 -39 116 -30 136 -30 ct 156 -30 173 -39 186 -59 ct 
200 -78 206 -117 206 -174 ct 206 -233 200 -271 186 -290 ct 173 -309 156 -319 135 -319 ct 
115 -319 99 -311 88 -294 ct 73 -272 65 -232 65 -174 ct p ef
335 0 m  335 -49 l  384 -49 l  384 0 l  384 18 381 33 375 44 ct 368 55 358 64 344 70 ct 
332 51 l  341 47 348 41 352 34 ct 357 26 359 15 360 0 ct 335 0 l  p ef
607 0 m  564 0 l  564 -277 l  553 -267 539 -257 523 -247 ct 506 -237 490 -229 477 -224 ct 
477 -266 l  501 -278 522 -292 540 -308 ct 559 -324 572 -340 579 -355 ct 607 -355 l 
607 0 l  p ef
pom
pum
32190 27542 t
21 -174 m  21 -216 25 -250 33 -275 ct 42 -301 55 -320 72 -334 ct 89 -348 110 -355 136 -355 ct 
155 -355 171 -351 186 -344 ct 200 -336 212 -325 221 -311 ct 231 -296 238 -279 243 -258 ct 
248 -237 251 -209 251 -174 ct 251 -133 247 -99 238 -74 ct 230 -48 217 -29 200 -15 ct 
183 -1 162 6 136 6 ct 102 6 75 -6 55 -31 ct 32 -60 21 -108 21 -174 ct p
65 -174 m  65 -116 72 -78 86 -59 ct 99 -39 116 -30 136 -30 ct 156 -30 173 -39 186 -59 ct 
200 -78 206 -117 206 -174 ct 206 -233 200 -271 186 -290 ct 173 -309 156 -319 135 -319 ct 
115 -319 99 -311 88 -294 ct 73 -272 65 -232 65 -174 ct p ef
335 0 m  335 -49 l  384 -49 l  384 0 l  384 18 381 33 375 44 ct 368 55 358 64 344 70 ct 
332 51 l  341 47 348 41 352 34 ct 357 26 359 15 360 0 ct 335 0 l  p ef
607 0 m  564 0 l  564 -277 l  553 -267 539 -257 523 -247 ct 506 -237 490 -229 477 -224 ct 
477 -266 l  501 -278 522 -292 540 -308 ct 559 -324 572 -340 579 -355 ct 607 -355 l 
607 0 l  p ef
735 -93 m  780 -96 l  783 -74 791 -58 804 -46 ct 816 -35 831 -30 848 -30 ct 
869 -30 887 -38 901 -53 ct 916 -69 923 -90 923 -116 ct 923 -141 916 -160 902 -175 ct 
888 -189 870 -196 847 -196 ct 833 -196 821 -193 810 -186 ct 798 -180 789 -172 783 -162 ct 
742 -167 l  776 -349 l  952 -349 l  952 -308 l  811 -308 l  792 -212 l 
813 -227 836 -234 859 -234 ct 890 -234 916 -224 937 -202 ct 958 -181 969 -153 969 -120 ct 
969 -88 960 -60 941 -37 ct 918 -8 887 6 848 6 ct 816 6 790 -3 769 -21 ct 749 -39 737 -63 735 -93 ct 
p ef
pom
pum
32481 26308 t
21 -174 m  21 -216 25 -250 33 -275 ct 42 -301 55 -320 72 -334 ct 89 -348 110 -355 136 -355 ct 
155 -355 171 -351 186 -344 ct 200 -336 212 -325 221 -311 ct 231 -296 238 -279 243 -258 ct 
248 -237 251 -209 251 -174 ct 251 -133 247 -99 238 -74 ct 230 -48 217 -29 200 -15 ct 
183 -1 162 6 136 6 ct 102 6 75 -6 55 -31 ct 32 -60 21 -108 21 -174 ct p
65 -174 m  65 -116 72 -78 86 -59 ct 99 -39 116 -30 136 -30 ct 156 -30 173 -39 186 -59 ct 
200 -78 206 -117 206 -174 ct 206 -233 200 -271 186 -290 ct 173 -309 156 -319 135 -319 ct 
115 -319 99 -311 88 -294 ct 73 -272 65 -232 65 -174 ct p ef
335 0 m  335 -49 l  384 -49 l  384 0 l  384 18 381 33 375 44 ct 368 55 358 64 344 70 ct 
332 51 l  341 47 348 41 352 34 ct 357 26 359 15 360 0 ct 335 0 l  p ef
672 -42 m  672 0 l  438 0 l  438 -10 439 -21 443 -30 ct 449 -46 459 -62 472 -77 ct 
485 -93 504 -110 528 -131 ct 567 -162 593 -187 606 -206 ct 620 -224 627 -241 627 -258 ct 
627 -275 620 -290 608 -301 ct 596 -313 580 -319 560 -319 ct 539 -319 522 -313 510 -300 ct 
497 -288 491 -270 491 -248 ct 446 -253 l  449 -286 461 -311 481 -329 ct 501 -346 527 -355 561 -355 ct 
595 -355 622 -346 642 -327 ct 661 -308 671 -285 671 -257 ct 671 -243 668 -229 663 -215 ct 
657 -201 647 -187 634 -172 ct 620 -157 598 -136 567 -110 ct 541 -88 524 -73 517 -65 ct 
509 -57 503 -50 498 -42 ct 672 -42 l  p ef
pom
pum
32190 25074 t
21 -174 m  21 -216 25 -250 33 -275 ct 42 -301 55 -320 72 -334 ct 89 -348 110 -355 136 -355 ct 
155 -355 171 -351 186 -344 ct 200 -336 212 -325 221 -311 ct 231 -296 238 -279 243 -258 ct 
248 -237 251 -209 251 -174 ct 251 -133 247 -99 238 -74 ct 230 -48 217 -29 200 -15 ct 
183 -1 162 6 136 6 ct 102 6 75 -6 55 -31 ct 32 -60 21 -108 21 -174 ct p
65 -174 m  65 -116 72 -78 86 -59 ct 99 -39 116 -30 136 -30 ct 156 -30 173 -39 186 -59 ct 
200 -78 206 -117 206 -174 ct 206 -233 200 -271 186 -290 ct 173 -309 156 -319 135 -319 ct 
115 -319 99 -311 88 -294 ct 73 -272 65 -232 65 -174 ct p ef
335 0 m  335 -49 l  384 -49 l  384 0 l  384 18 381 33 375 44 ct 368 55 358 64 344 70 ct 
332 51 l  341 47 348 41 352 34 ct 357 26 359 15 360 0 ct 335 0 l  p ef
672 -42 m  672 0 l  438 0 l  438 -10 439 -21 443 -30 ct 449 -46 459 -62 472 -77 ct 
485 -93 504 -110 528 -131 ct 567 -162 593 -187 606 -206 ct 620 -224 627 -241 627 -258 ct 
627 -275 620 -290 608 -301 ct 596 -313 580 -319 560 -319 ct 539 -319 522 -313 510 -300 ct 
497 -288 491 -270 491 -248 ct 446 -253 l  449 -286 461 -311 481 -329 ct 501 -346 527 -355 561 -355 ct 
595 -355 622 -346 642 -327 ct 661 -308 671 -285 671 -257 ct 671 -243 668 -229 663 -215 ct 
657 -201 647 -187 634 -172 ct 620 -157 598 -136 567 -110 ct 541 -88 524 -73 517 -65 ct 
509 -57 503 -50 498 -42 ct 672 -42 l  p ef
735 -93 m  780 -96 l  783 -74 791 -58 804 -46 ct 816 -35 831 -30 848 -30 ct 
869 -30 887 -38 901 -53 ct 916 -69 923 -90 923 -116 ct 923 -141 916 -160 902 -175 ct 
888 -189 870 -196 847 -196 ct 833 -196 821 -193 810 -186 ct 798 -180 789 -172 783 -162 ct 
742 -167 l  776 -349 l  952 -349 l  952 -308 l  811 -308 l  792 -212 l 
813 -227 836 -234 859 -234 ct 890 -234 916 -224 937 -202 ct 958 -181 969 -153 969 -120 ct 
969 -88 960 -60 941 -37 ct 918 -8 887 6 848 6 ct 816 6 790 -3 769 -21 ct 749 -39 737 -63 735 -93 ct 
p ef
pom
pum
32481 23839 t
21 -174 m  21 -216 25 -250 33 -275 ct 42 -301 55 -320 72 -334 ct 89 -348 110 -355 136 -355 ct 
155 -355 171 -351 186 -344 ct 200 -336 212 -325 221 -311 ct 231 -296 238 -279 243 -258 ct 
248 -237 251 -209 251 -174 ct 251 -133 247 -99 238 -74 ct 230 -48 217 -29 200 -15 ct 
183 -1 162 6 136 6 ct 102 6 75 -6 55 -31 ct 32 -60 21 -108 21 -174 ct p
65 -174 m  65 -116 72 -78 86 -59 ct 99 -39 116 -30 136 -30 ct 156 -30 173 -39 186 -59 ct 
200 -78 206 -117 206 -174 ct 206 -233 200 -271 186 -290 ct 173 -309 156 -319 135 -319 ct 
115 -319 99 -311 88 -294 ct 73 -272 65 -232 65 -174 ct p ef
335 0 m  335 -49 l  384 -49 l  384 0 l  384 18 381 33 375 44 ct 368 55 358 64 344 70 ct 
332 51 l  341 47 348 41 352 34 ct 357 26 359 15 360 0 ct 335 0 l  p ef
444 -93 m  487 -99 l  492 -75 501 -57 513 -46 ct 525 -35 539 -30 556 -30 ct 
577 -30 594 -37 608 -51 ct 622 -65 629 -83 629 -104 ct 629 -123 623 -140 610 -153 ct 
597 -166 580 -172 560 -172 ct 552 -172 542 -171 529 -167 ct 534 -205 l  537 -205 539 -205 541 -205 ct 
560 -205 576 -210 591 -220 ct 606 -229 613 -244 613 -264 ct 613 -280 608 -294 597 -304 ct 
586 -315 572 -320 555 -320 ct 539 -320 524 -315 513 -304 ct 502 -293 495 -277 492 -256 ct 
448 -264 l  453 -293 465 -316 484 -332 ct 503 -348 526 -356 554 -356 ct 574 -356 592 -352 608 -343 ct 
624 -335 636 -324 645 -309 ct 654 -295 658 -280 658 -263 ct 658 -248 654 -234 646 -222 ct 
637 -209 625 -199 609 -191 ct 630 -187 646 -177 658 -161 ct 670 -146 675 -127 675 -105 ct 
675 -74 664 -48 642 -26 ct 619 -5 591 6 556 6 ct 525 6 499 -3 479 -22 ct 458 -40 447 -64 444 -93 ct 
p ef
pom
pum
32190 22605 t
21 -174 m  21 -216 25 -250 33 -275 ct 42 -301 55 -320 72 -334 ct 89 -348 110 -355 136 -355 ct 
155 -355 171 -351 186 -344 ct 200 -336 212 -325 221 -311 ct 231 -296 238 -279 243 -258 ct 
248 -237 251 -209 251 -174 ct 251 -133 247 -99 238 -74 ct 230 -48 217 -29 200 -15 ct 
183 -1 162 6 136 6 ct 102 6 75 -6 55 -31 ct 32 -60 21 -108 21 -174 ct p
65 -174 m  65 -116 72 -78 86 -59 ct 99 -39 116 -30 136 -30 ct 156 -30 173 -39 186 -59 ct 
200 -78 206 -117 206 -174 ct 206 -233 200 -271 186 -290 ct 173 -309 156 -319 135 -319 ct 
115 -319 99 -311 88 -294 ct 73 -272 65 -232 65 -174 ct p ef
335 0 m  335 -49 l  384 -49 l  384 0 l  384 18 381 33 375 44 ct 368 55 358 64 344 70 ct 
332 51 l  341 47 348 41 352 34 ct 357 26 359 15 360 0 ct 335 0 l  p ef
444 -93 m  487 -99 l  492 -75 501 -57 513 -46 ct 525 -35 539 -30 556 -30 ct 
577 -30 594 -37 608 -51 ct 622 -65 629 -83 629 -104 ct 629 -123 623 -140 610 -153 ct 
597 -166 580 -172 560 -172 ct 552 -172 542 -171 529 -167 ct 534 -205 l  537 -205 539 -205 541 -205 ct 
560 -205 576 -210 591 -220 ct 606 -229 613 -244 613 -264 ct 613 -280 608 -294 597 -304 ct 
586 -315 572 -320 555 -320 ct 539 -320 524 -315 513 -304 ct 502 -293 495 -277 492 -256 ct 
448 -264 l  453 -293 465 -316 484 -332 ct 503 -348 526 -356 554 -356 ct 574 -356 592 -352 608 -343 ct 
624 -335 636 -324 645 -309 ct 654 -295 658 -280 658 -263 ct 658 -248 654 -234 646 -222 ct 
637 -209 625 -199 609 -191 ct 630 -187 646 -177 658 -161 ct 670 -146 675 -127 675 -105 ct 
675 -74 664 -48 642 -26 ct 619 -5 591 6 556 6 ct 525 6 499 -3 479 -22 ct 458 -40 447 -64 444 -93 ct 
p ef
735 -93 m  780 -96 l  783 -74 791 -58 804 -46 ct 816 -35 831 -30 848 -30 ct 
869 -30 887 -38 901 -53 ct 916 -69 923 -90 923 -116 ct 923 -141 916 -160 902 -175 ct 
888 -189 870 -196 847 -196 ct 833 -196 821 -193 810 -186 ct 798 -180 789 -172 783 -162 ct 
742 -167 l  776 -349 l  952 -349 l  952 -308 l  811 -308 l  792 -212 l 
813 -227 836 -234 859 -234 ct 890 -234 916 -224 937 -202 ct 958 -181 969 -153 969 -120 ct 
969 -88 960 -60 941 -37 ct 918 -8 887 6 848 6 ct 816 6 790 -3 769 -21 ct 749 -39 737 -63 735 -93 ct 
p ef
pom
pum
32481 21371 t
21 -174 m  21 -216 25 -250 33 -275 ct 42 -301 55 -320 72 -334 ct 89 -348 110 -355 136 -355 ct 
155 -355 171 -351 186 -344 ct 200 -336 212 -325 221 -311 ct 231 -296 238 -279 243 -258 ct 
248 -237 251 -209 251 -174 ct 251 -133 247 -99 238 -74 ct 230 -48 217 -29 200 -15 ct 
183 -1 162 6 136 6 ct 102 6 75 -6 55 -31 ct 32 -60 21 -108 21 -174 ct p
65 -174 m  65 -116 72 -78 86 -59 ct 99 -39 116 -30 136 -30 ct 156 -30 173 -39 186 -59 ct 
200 -78 206 -117 206 -174 ct 206 -233 200 -271 186 -290 ct 173 -309 156 -319 135 -319 ct 
115 -319 99 -311 88 -294 ct 73 -272 65 -232 65 -174 ct p ef
335 0 m  335 -49 l  384 -49 l  384 0 l  384 18 381 33 375 44 ct 368 55 358 64 344 70 ct 
332 51 l  341 47 348 41 352 34 ct 357 26 359 15 360 0 ct 335 0 l  p ef
583 0 m  583 -85 l  429 -85 l  429 -125 l  591 -354 l  626 -354 l  626 -125 l 
674 -125 l  674 -85 l  626 -85 l  626 0 l  583 0 l  p
583 -125 m  583 -284 l  472 -125 l  583 -125 l  p ef
pom
pum
32190 20137 t
21 -174 m  21 -216 25 -250 33 -275 ct 42 -301 55 -320 72 -334 ct 89 -348 110 -355 136 -355 ct 
155 -355 171 -351 186 -344 ct 200 -336 212 -325 221 -311 ct 231 -296 238 -279 243 -258 ct 
248 -237 251 -209 251 -174 ct 251 -133 247 -99 238 -74 ct 230 -48 217 -29 200 -15 ct 
183 -1 162 6 136 6 ct 102 6 75 -6 55 -31 ct 32 -60 21 -108 21 -174 ct p
65 -174 m  65 -116 72 -78 86 -59 ct 99 -39 116 -30 136 -30 ct 156 -30 173 -39 186 -59 ct 
200 -78 206 -117 206 -174 ct 206 -233 200 -271 186 -290 ct 173 -309 156 -319 135 -319 ct 
115 -319 99 -311 88 -294 ct 73 -272 65 -232 65 -174 ct p ef
335 0 m  335 -49 l  384 -49 l  384 0 l  384 18 381 33 375 44 ct 368 55 358 64 344 70 ct 
332 51 l  341 47 348 41 352 34 ct 357 26 359 15 360 0 ct 335 0 l  p ef
583 0 m  583 -85 l  429 -85 l  429 -125 l  591 -354 l  626 -354 l  626 -125 l 
674 -125 l  674 -85 l  626 -85 l  626 0 l  583 0 l  p
583 -125 m  583 -284 l  472 -125 l  583 -125 l  p ef
735 -93 m  780 -96 l  783 -74 791 -58 804 -46 ct 816 -35 831 -30 848 -30 ct 
869 -30 887 -38 901 -53 ct 916 -69 923 -90 923 -116 ct 923 -141 916 -160 902 -175 ct 
888 -189 870 -196 847 -196 ct 833 -196 821 -193 810 -186 ct 798 -180 789 -172 783 -162 ct 
742 -167 l  776 -349 l  952 -349 l  952 -308 l  811 -308 l  792 -212 l 
813 -227 836 -234 859 -234 ct 890 -234 916 -224 937 -202 ct 958 -181 969 -153 969 -120 ct 
969 -88 960 -60 941 -37 ct 918 -8 887 6 848 6 ct 816 6 790 -3 769 -21 ct 749 -39 737 -63 735 -93 ct 
p ef
pom
pum
32481 18904 t
21 -174 m  21 -216 25 -250 33 -275 ct 42 -301 55 -320 72 -334 ct 89 -348 110 -355 136 -355 ct 
155 -355 171 -351 186 -344 ct 200 -336 212 -325 221 -311 ct 231 -296 238 -279 243 -258 ct 
248 -237 251 -209 251 -174 ct 251 -133 247 -99 238 -74 ct 230 -48 217 -29 200 -15 ct 
183 -1 162 6 136 6 ct 102 6 75 -6 55 -31 ct 32 -60 21 -108 21 -174 ct p
65 -174 m  65 -116 72 -78 86 -59 ct 99 -39 116 -30 136 -30 ct 156 -30 173 -39 186 -59 ct 
200 -78 206 -117 206 -174 ct 206 -233 200 -271 186 -290 ct 173 -309 156 -319 135 -319 ct 
115 -319 99 -311 88 -294 ct 73 -272 65 -232 65 -174 ct p ef
335 0 m  335 -49 l  384 -49 l  384 0 l  384 18 381 33 375 44 ct 368 55 358 64 344 70 ct 
332 51 l  341 47 348 41 352 34 ct 357 26 359 15 360 0 ct 335 0 l  p ef
444 -93 m  489 -96 l  492 -74 500 -58 513 -46 ct 525 -35 540 -30 557 -30 ct 
578 -30 596 -38 610 -53 ct 625 -69 632 -90 632 -116 ct 632 -141 625 -160 611 -175 ct 
597 -189 579 -196 556 -196 ct 542 -196 530 -193 519 -186 ct 507 -180 498 -172 492 -162 ct 
451 -167 l  485 -349 l  661 -349 l  661 -308 l  520 -308 l  501 -212 l 
522 -227 545 -234 568 -234 ct 599 -234 625 -224 646 -202 ct 667 -181 678 -153 678 -120 ct 
678 -88 669 -60 650 -37 ct 627 -8 596 6 557 6 ct 525 6 499 -3 478 -21 ct 458 -39 446 -63 444 -93 ct 
p ef
pom
pum
43009 32889 t
290 -124 m  337 -112 l  327 -74 310 -44 284 -24 ct 259 -4 228 6 191 6 ct 153 6 122 -2 98 -17 ct 
74 -33 56 -55 43 -85 ct 31 -114 25 -146 25 -180 ct 25 -217 32 -249 46 -276 ct 60 -304 80 -324 106 -339 ct 
132 -353 160 -360 192 -360 ct 227 -360 257 -351 281 -333 ct 305 -315 322 -290 331 -257 ct 
285 -246 l  277 -272 265 -291 249 -302 ct 234 -314 214 -320 191 -320 ct 163 -320 141 -313 122 -300 ct 
104 -287 91 -270 84 -248 ct 77 -226 73 -203 73 -180 ct 73 -150 77 -124 86 -101 ct 
95 -79 108 -62 127 -51 ct 145 -40 165 -34 187 -34 ct 213 -34 235 -42 254 -57 ct 
272 -72 284 -94 290 -124 ct p ef
380 0 m  380 -35 l  543 -222 l  524 -222 508 -222 494 -222 ct 389 -222 l 
389 -256 l  599 -256 l  599 -227 l  460 -65 l  433 -35 l  453 -37 471 -37 488 -37 ct 
606 -37 l  606 0 l  380 0 l  p ef
843 -82 m  888 -77 l  881 -51 868 -30 848 -16 ct 829 -1 805 6 775 6 ct 738 6 708 -6 686 -29 ct 
664 -52 653 -84 653 -126 ct 653 -169 664 -202 686 -226 ct 709 -250 737 -262 773 -262 ct 
807 -262 835 -250 857 -227 ct 878 -204 889 -171 889 -129 ct 889 -126 889 -122 889 -117 ct 
698 -117 l  700 -89 708 -67 722 -52 ct 736 -37 754 -30 775 -30 ct 791 -30 805 -34 816 -42 ct 
827 -51 836 -64 843 -82 ct p
700 -153 m  843 -153 l  841 -174 836 -190 827 -201 ct 813 -218 795 -226 773 -226 ct 
753 -226 737 -219 723 -206 ct 709 -193 702 -175 700 -153 ct p
766 -6 m  795 -6 l  789 9 786 22 786 34 ct 786 45 789 54 796 61 ct 802 67 811 71 821 71 ct 
833 71 847 67 861 60 ct 861 88 l  853 93 844 96 834 99 ct 824 102 816 103 808 103 ct 
793 103 780 98 770 89 ct 760 79 756 66 756 50 ct 756 36 759 17 766 -6 ct p ef
941 -76 m  984 -83 l  987 -66 993 -53 1004 -43 ct 1015 -34 1031 -30 1050 -30 ct 
1070 -30 1085 -34 1095 -42 ct 1105 -50 1109 -60 1109 -70 ct 1109 -80 1105 -88 1097 -94 ct 
1091 -97 1076 -102 1052 -108 ct 1020 -116 998 -123 986 -129 ct 974 -135 964 -143 958 -154 ct 
952 -164 948 -175 948 -188 ct 948 -199 951 -210 956 -220 ct 962 -229 969 -237 978 -244 ct 
984 -249 994 -253 1005 -257 ct 1017 -260 1029 -262 1043 -262 ct 1063 -262 1080 -259 1096 -253 ct 
1111 -247 1122 -239 1129 -230 ct 1137 -220 1142 -206 1144 -190 ct 1102 -184 l 
1100 -197 1094 -208 1085 -215 ct 1076 -222 1063 -226 1046 -226 ct 1026 -226 1012 -223 1003 -216 ct 
995 -210 990 -202 990 -193 ct 990 -187 992 -182 996 -178 ct 999 -173 1005 -169 1012 -166 ct 
1017 -165 1029 -161 1051 -155 ct 1081 -147 1103 -140 1115 -135 ct 1127 -130 1137 -122 1144 -112 ct 
1150 -102 1154 -90 1154 -75 ct 1154 -61 1150 -47 1141 -34 ct 1133 -21 1121 -11 1105 -4 ct 
1089 2 1071 6 1051 6 ct 1017 6 992 -1 975 -15 ct 957 -29 946 -49 941 -76 ct p ef
1318 -39 m  1325 -1 l  1312 2 1301 3 1292 3 ct 1276 3 1264 0 1255 -4 ct 1246 -9 1240 -16 1237 -24 ct 
1233 -32 1232 -49 1232 -75 ct 1232 -223 l  1200 -223 l  1200 -257 l  1232 -257 l 
1232 -320 l  1275 -346 l  1275 -257 l  1318 -257 l  1318 -223 l  1275 -223 l 
1275 -73 l  1275 -61 1275 -53 1277 -49 ct 1279 -46 1281 -43 1284 -41 ct 1288 -39 1293 -38 1299 -38 ct 
1304 -38 1310 -38 1318 -39 ct p ef
1339 -128 m  1339 -175 1353 -211 1379 -233 ct 1401 -252 1428 -262 1460 -262 ct 
1495 -262 1524 -250 1546 -227 ct 1568 -204 1579 -172 1579 -132 ct 1579 -99 1574 -73 1565 -54 ct 
1555 -35 1540 -20 1521 -10 ct 1503 1 1482 6 1460 6 ct 1424 6 1395 -6 1373 -29 ct 
1350 -52 1339 -85 1339 -128 ct p
1384 -128 m  1384 -95 1391 -71 1406 -54 ct 1420 -38 1438 -30 1460 -30 ct 1481 -30 1499 -38 1513 -54 ct 
1528 -71 1535 -96 1535 -129 ct 1535 -161 1528 -185 1513 -201 ct 1499 -218 1481 -226 1460 -226 ct 
1438 -226 1420 -218 1406 -202 ct 1391 -185 1384 -161 1384 -128 ct p ef
1741 -39 m  1748 -1 l  1735 2 1724 3 1715 3 ct 1699 3 1687 0 1678 -4 ct 1669 -9 1663 -16 1660 -24 ct 
1656 -32 1655 -49 1655 -75 ct 1655 -223 l  1623 -223 l  1623 -257 l  1655 -257 l 
1655 -320 l  1698 -346 l  1698 -257 l  1741 -257 l  1741 -223 l  1698 -223 l 
1698 -73 l  1698 -61 1698 -53 1700 -49 ct 1702 -46 1704 -43 1707 -41 ct 1711 -39 1716 -38 1722 -38 ct 
1727 -38 1733 -38 1741 -39 ct p ef
1778 0 m  1778 -354 l  1821 -354 l  1821 0 l  1778 0 l  p ef
1885 -304 m  1885 -354 l  1928 -354 l  1928 -304 l  1885 -304 l  p
1885 0 m  1885 -256 l  1928 -256 l  1928 0 l  1885 0 l  p ef
2038 0 m  1959 -256 l  2004 -256 l  2045 -108 l  2060 -53 l  2061 -56 2065 -74 2074 -106 ct 
2114 -256 l  2159 -256 l  2197 -108 l  2210 -59 l  2225 -108 l  2269 -256 l 
2311 -256 l  2231 0 l  2186 0 l  2145 -153 l  2135 -197 l  2083 0 l  2038 0 l 
p ef
2344 -128 m  2344 -175 2358 -211 2384 -233 ct 2406 -252 2433 -262 2465 -262 ct 
2500 -262 2529 -250 2551 -227 ct 2573 -204 2584 -172 2584 -132 ct 2584 -99 2579 -73 2570 -54 ct 
2560 -35 2545 -20 2526 -10 ct 2508 1 2487 6 2465 6 ct 2429 6 2400 -6 2378 -29 ct 
2355 -52 2344 -85 2344 -128 ct p
2389 -128 m  2389 -95 2396 -71 2411 -54 ct 2425 -38 2443 -30 2465 -30 ct 2486 -30 2504 -38 2518 -54 ct 
2533 -71 2540 -96 2540 -129 ct 2540 -161 2533 -185 2518 -201 ct 2504 -218 2486 -226 2465 -226 ct 
2443 -226 2425 -218 2411 -202 ct 2396 -185 2389 -161 2389 -128 ct p ef
2634 -76 m  2677 -83 l  2680 -66 2686 -53 2697 -43 ct 2708 -34 2724 -30 2743 -30 ct 
2763 -30 2778 -34 2788 -42 ct 2798 -50 2802 -60 2802 -70 ct 2802 -80 2798 -88 2790 -94 ct 
2784 -97 2769 -102 2745 -108 ct 2713 -116 2691 -123 2679 -129 ct 2667 -135 2657 -143 2651 -154 ct 
2645 -164 2641 -175 2641 -188 ct 2641 -199 2644 -210 2649 -220 ct 2655 -229 2662 -237 2671 -244 ct 
2677 -249 2687 -253 2698 -257 ct 2710 -260 2722 -262 2736 -262 ct 2756 -262 2773 -259 2789 -253 ct 
2804 -247 2815 -239 2822 -230 ct 2830 -220 2835 -206 2837 -190 ct 2795 -184 l 
2793 -197 2787 -208 2778 -215 ct 2769 -222 2756 -226 2739 -226 ct 2719 -226 2705 -223 2696 -216 ct 
2688 -210 2683 -202 2683 -193 ct 2683 -187 2685 -182 2689 -178 ct 2692 -173 2698 -169 2705 -166 ct 
2710 -165 2722 -161 2744 -155 ct 2774 -147 2796 -140 2808 -135 ct 2820 -130 2830 -122 2837 -112 ct 
2843 -102 2847 -90 2847 -75 ct 2847 -61 2843 -47 2834 -34 ct 2826 -21 2814 -11 2798 -4 ct 
2782 2 2764 6 2744 6 ct 2710 6 2685 -1 2668 -15 ct 2650 -29 2639 -49 2634 -76 ct 
p
2714 -288 m  2746 -356 l  2803 -356 l  2750 -288 l  2714 -288 l  p ef
3084 -94 m  3126 -88 l  3122 -59 3110 -36 3091 -19 ct 3071 -2 3048 6 3020 6 ct 
2985 6 2957 -5 2935 -28 ct 2914 -51 2903 -84 2903 -127 ct 2903 -155 2908 -179 2917 -199 ct 
2926 -220 2940 -236 2959 -246 ct 2978 -257 2998 -262 3020 -262 ct 3048 -262 3071 -255 3088 -241 ct 
3106 -227 3117 -207 3122 -181 ct 3080 -174 l  3076 -191 3069 -204 3059 -213 ct 
3049 -222 3036 -226 3022 -226 ct 3000 -226 2982 -218 2968 -202 ct 2955 -187 2948 -162 2948 -128 ct 
2948 -94 2955 -69 2968 -53 ct 2981 -38 2998 -30 3019 -30 ct 3036 -30 3051 -35 3062 -45 ct 
3073 -56 3081 -72 3084 -94 ct p
2986 -288 m  3018 -356 l  3075 -356 l  3022 -288 l  2986 -288 l  p ef
3314 98 m  3314 -256 l  3353 -256 l  3353 -223 l  3362 -236 3373 -246 3385 -252 ct 
3396 -259 3411 -262 3427 -262 ct 3449 -262 3469 -256 3485 -245 ct 3502 -234 3515 -218 3523 -197 ct 
3532 -177 3536 -155 3536 -130 ct 3536 -104 3531 -80 3522 -59 ct 3512 -38 3499 -22 3481 -11 ct 
3463 0 3444 6 3424 6 ct 3410 6 3397 3 3385 -3 ct 3374 -10 3364 -17 3357 -27 ct 
3357 98 l  3314 98 l  p
3353 -127 m  3353 -94 3360 -69 3373 -54 ct 3386 -38 3402 -30 3421 -30 ct 3441 -30 3457 -38 3471 -54 ct 
3485 -71 3492 -96 3492 -130 ct 3492 -163 3485 -187 3471 -204 ct 3458 -220 3442 -228 3423 -228 ct 
3405 -228 3388 -219 3374 -202 ct 3360 -185 3353 -160 3353 -127 ct p ef
3588 -128 m  3588 -175 3602 -211 3628 -233 ct 3650 -252 3677 -262 3709 -262 ct 
3744 -262 3773 -250 3795 -227 ct 3817 -204 3828 -172 3828 -132 ct 3828 -99 3823 -73 3814 -54 ct 
3804 -35 3789 -20 3770 -10 ct 3752 1 3731 6 3709 6 ct 3673 6 3644 -6 3622 -29 ct 
3599 -52 3588 -85 3588 -128 ct p
3633 -128 m  3633 -95 3640 -71 3655 -54 ct 3669 -38 3687 -30 3709 -30 ct 3730 -30 3748 -38 3762 -54 ct 
3777 -71 3784 -96 3784 -129 ct 3784 -161 3777 -185 3762 -201 ct 3748 -218 3730 -226 3709 -226 ct 
3687 -226 3669 -218 3655 -202 ct 3640 -185 3633 -161 3633 -128 ct p ef
4063 -94 m  4105 -88 l  4101 -59 4089 -36 4070 -19 ct 4050 -2 4027 6 3999 6 ct 
3964 6 3936 -5 3914 -28 ct 3893 -51 3882 -84 3882 -127 ct 3882 -155 3887 -179 3896 -199 ct 
3905 -220 3919 -236 3938 -246 ct 3957 -257 3977 -262 3999 -262 ct 4027 -262 4050 -255 4067 -241 ct 
4085 -227 4096 -207 4101 -181 ct 4059 -174 l  4055 -191 4048 -204 4038 -213 ct 
4028 -222 4015 -226 4001 -226 ct 3979 -226 3961 -218 3947 -202 ct 3934 -187 3927 -162 3927 -128 ct 
3927 -94 3934 -69 3947 -53 ct 3960 -38 3977 -30 3998 -30 ct 4015 -30 4030 -35 4041 -45 ct 
4052 -56 4060 -72 4063 -94 ct p ef
4138 0 m  4138 -35 l  4301 -222 l  4282 -222 4266 -222 4252 -222 ct 4147 -222 l 
4147 -256 l  4357 -256 l  4357 -227 l  4218 -65 l  4191 -35 l  4211 -37 4229 -37 4246 -37 ct 
4364 -37 l  4364 0 l  4138 0 l  p ef
4592 -31 m  4576 -18 4560 -8 4545 -2 ct 4530 3 4514 6 4497 6 ct 4469 6 4448 -1 4433 -15 ct 
4417 -28 4410 -46 4410 -67 ct 4410 -80 4413 -91 4418 -102 ct 4424 -112 4432 -120 4441 -127 ct 
4450 -133 4461 -138 4472 -141 ct 4481 -143 4493 -145 4511 -148 ct 4546 -152 4572 -157 4588 -163 ct 
4588 -168 4588 -172 4588 -174 ct 4588 -192 4584 -204 4576 -211 ct 4565 -221 4548 -226 4527 -226 ct 
4506 -226 4491 -222 4481 -215 ct 4472 -208 4464 -195 4460 -177 ct 4417 -183 l 
4421 -201 4428 -216 4436 -227 ct 4445 -238 4458 -247 4475 -253 ct 4491 -259 4511 -262 4533 -262 ct 
4555 -262 4573 -259 4586 -254 ct 4600 -249 4610 -243 4616 -235 ct 4623 -227 4627 -217 4630 -205 ct 
4631 -198 4632 -185 4632 -165 ct 4632 -107 l  4632 -67 4633 -41 4635 -31 ct 
4637 -20 4640 -10 4646 0 ct 4600 0 l  4596 -9 4593 -19 4592 -31 ct p
4588 -128 m  4572 -122 4549 -117 4517 -112 ct 4499 -109 4487 -107 4479 -103 ct 
4472 -100 4466 -95 4462 -89 ct 4458 -83 4456 -76 4456 -69 ct 4456 -57 4461 -47 4469 -40 ct 
4478 -32 4491 -28 4508 -28 ct 4525 -28 4539 -32 4552 -39 ct 4565 -46 4575 -56 4581 -69 ct 
4586 -79 4588 -93 4588 -113 ct 4588 -128 l  p
4602 -12 m  4632 -12 l  4626 3 4623 16 4623 28 ct 4623 39 4626 48 4632 55 ct 
4639 61 4647 65 4657 65 ct 4670 65 4683 61 4698 54 ct 4698 82 l  4690 87 4680 90 4671 93 ct 
4661 96 4652 97 4645 97 ct 4629 97 4616 92 4607 82 ct 4597 73 4592 60 4592 44 ct 
4592 30 4596 11 4602 -12 ct p ef
4810 -39 m  4817 -1 l  4804 2 4793 3 4784 3 ct 4768 3 4756 0 4747 -4 ct 4738 -9 4732 -16 4729 -24 ct 
4725 -32 4724 -49 4724 -75 ct 4724 -223 l  4692 -223 l  4692 -257 l  4724 -257 l 
4724 -320 l  4767 -346 l  4767 -257 l  4810 -257 l  4810 -223 l  4767 -223 l 
4767 -73 l  4767 -61 4767 -53 4769 -49 ct 4771 -46 4773 -43 4776 -41 ct 4780 -39 4785 -38 4791 -38 ct 
4796 -38 4802 -38 4810 -39 ct p ef
4848 0 m  4848 -354 l  4891 -354 l  4891 -152 l  4994 -256 l  5050 -256 l 
4952 -161 l  5060 0 l  5007 0 l  4922 -131 l  4891 -102 l  4891 0 l  4848 0 l 
p ef
5096 -128 m  5096 -175 5110 -211 5136 -233 ct 5158 -252 5185 -262 5217 -262 ct 
5252 -262 5281 -250 5303 -227 ct 5325 -204 5336 -172 5336 -132 ct 5336 -99 5331 -73 5322 -54 ct 
5312 -35 5297 -20 5278 -10 ct 5260 1 5239 6 5217 6 ct 5181 6 5152 -6 5130 -29 ct 
5107 -52 5096 -85 5096 -128 ct p
5141 -128 m  5141 -95 5148 -71 5163 -54 ct 5177 -38 5195 -30 5217 -30 ct 5238 -30 5256 -38 5270 -54 ct 
5285 -71 5292 -96 5292 -129 ct 5292 -161 5285 -185 5270 -201 ct 5256 -218 5238 -226 5217 -226 ct 
5195 -226 5177 -218 5163 -202 ct 5148 -185 5141 -161 5141 -128 ct p ef
5451 0 m  5372 -256 l  5417 -256 l  5458 -108 l  5473 -53 l  5474 -56 5478 -74 5487 -106 ct 
5527 -256 l  5572 -256 l  5610 -108 l  5623 -59 l  5638 -108 l  5682 -256 l 
5724 -256 l  5644 0 l  5599 0 l  5558 -153 l  5548 -197 l  5496 0 l  5451 0 l 
p ef
5941 -31 m  5925 -18 5909 -8 5894 -2 ct 5879 3 5863 6 5846 6 ct 5818 6 5797 -1 5782 -15 ct 
5766 -28 5759 -46 5759 -67 ct 5759 -80 5762 -91 5767 -102 ct 5773 -112 5781 -120 5790 -127 ct 
5799 -133 5810 -138 5821 -141 ct 5830 -143 5842 -145 5860 -148 ct 5895 -152 5921 -157 5937 -163 ct 
5937 -168 5937 -172 5937 -174 ct 5937 -192 5933 -204 5925 -211 ct 5914 -221 5897 -226 5876 -226 ct 
5855 -226 5840 -222 5830 -215 ct 5821 -208 5813 -195 5809 -177 ct 5766 -183 l 
5770 -201 5777 -216 5785 -227 ct 5794 -238 5807 -247 5824 -253 ct 5840 -259 5860 -262 5882 -262 ct 
5904 -262 5922 -259 5935 -254 ct 5949 -249 5959 -243 5965 -235 ct 5972 -227 5976 -217 5979 -205 ct 
5980 -198 5981 -184 5981 -165 ct 5981 -107 l  5981 -67 5982 -41 5984 -31 ct 
5986 -20 5989 -10 5995 0 ct 5949 0 l  5945 -9 5942 -19 5941 -31 ct p
5937 -128 m  5921 -122 5898 -117 5866 -112 ct 5848 -109 5836 -107 5828 -103 ct 
5821 -100 5815 -95 5811 -89 ct 5807 -83 5805 -76 5805 -69 ct 5805 -57 5810 -47 5818 -40 ct 
5827 -32 5840 -28 5857 -28 ct 5874 -28 5888 -32 5901 -39 ct 5914 -46 5924 -56 5930 -69 ct 
5935 -79 5937 -93 5937 -113 ct 5937 -128 l  p ef
6199 98 m  6199 -354 l  6294 -354 l  6294 -318 l  6242 -318 l  6242 62 l 
6294 62 l  6294 98 l  6199 98 l  p ef
6337 0 m  6337 -354 l  6383 -354 l  6383 -209 l  6567 -209 l  6567 -354 l 
6614 -354 l  6614 0 l  6567 0 l  6567 -167 l  6383 -167 l  6383 0 l  6337 0 l 
p ef
6678 0 m  6678 -35 l  6841 -222 l  6822 -222 6806 -222 6792 -222 ct 6687 -222 l 
6687 -256 l  6897 -256 l  6897 -227 l  6758 -65 l  6731 -35 l  6751 -37 6769 -37 6786 -37 ct 
6904 -37 l  6904 0 l  6678 0 l  p ef
7037 98 m  6941 98 l  6941 62 l  6994 62 l  6994 -318 l  6941 -318 l  6941 -354 l 
7037 -354 l  7037 98 l  p ef
pom
pum
31308 27005 t
89.9 r 34 0 m  34 -329 l  157 -329 l  182 -329 202 -326 217 -319 ct 232 -312 244 -302 253 -288 ct 
262 -275 266 -260 266 -245 ct 266 -231 262 -218 254 -205 ct 247 -193 235 -183 220 -175 ct 
240 -169 255 -159 266 -145 ct 276 -131 282 -115 282 -96 ct 282 -80 278 -66 272 -52 ct 
265 -39 257 -29 248 -22 ct 238 -15 226 -9 212 -6 ct 197 -2 180 0 159 0 ct 34 0 l 
p
77 -191 m  148 -191 l  167 -191 181 -192 190 -195 ct 201 -198 209 -204 215 -211 ct 
220 -219 223 -228 223 -240 ct 223 -251 220 -260 215 -269 ct 210 -277 202 -282 193 -286 ct 
183 -289 166 -290 143 -290 ct 77 -290 l  77 -191 l  p
77 -39 m  159 -39 l  173 -39 183 -39 188 -40 ct 199 -42 207 -45 214 -49 ct 220 -54 226 -60 230 -68 ct 
235 -76 237 -85 237 -95 ct 237 -108 234 -118 227 -128 ct 221 -137 212 -143 201 -147 ct 
190 -150 174 -152 153 -152 ct 77 -152 l  77 -39 l  p ef
321 -129 m  292 -104 l  292 -140 l  321 -164 l  321 -329 l  361 -329 l 
361 -199 l  391 -224 l  391 -189 l  361 -163 l  361 0 l  321 0 l  321 -129 l 
p ef
583 -30 m  568 -17 553 -8 539 -3 ct 526 2 511 5 495 5 ct 469 5 449 -1 435 -14 ct 
421 -27 414 -43 414 -63 ct 414 -75 416 -86 422 -95 ct 427 -105 434 -113 442 -118 ct 
451 -124 461 -129 471 -132 ct 479 -134 491 -136 507 -138 ct 540 -142 564 -146 579 -152 ct 
579 -157 579 -161 579 -162 ct 579 -179 576 -190 568 -197 ct 558 -206 542 -211 522 -211 ct 
503 -211 489 -207 480 -201 ct 471 -194 464 -182 460 -165 ct 421 -171 l  424 -188 430 -201 438 -212 ct 
446 -222 458 -230 474 -236 ct 489 -241 507 -244 528 -244 ct 548 -244 565 -242 577 -237 ct 
590 -232 599 -226 605 -219 ct 611 -211 616 -202 618 -191 ct 619 -184 620 -172 620 -154 ct 
620 -100 l  620 -62 621 -39 623 -29 ct 624 -19 628 -9 633 0 ct 591 0 l  586 -8 584 -18 583 -30 ct 
p
579 -120 m  565 -114 543 -109 513 -105 ct 497 -102 485 -100 478 -97 ct 471 -94 466 -89 462 -84 ct 
458 -78 457 -71 457 -64 ct 457 -54 461 -45 469 -37 ct 477 -30 489 -27 505 -27 ct 
520 -27 534 -30 546 -37 ct 558 -44 567 -53 573 -65 ct 577 -74 579 -87 579 -105 ct 
579 -120 l  p
592 -11 m  620 -11 l  614 2 611 15 611 26 ct 611 36 614 44 620 50 ct 627 57 634 60 644 60 ct 
655 60 668 56 681 50 ct 681 76 l  673 80 665 84 656 86 ct 647 89 639 90 632 90 ct 
617 90 605 86 596 77 ct 588 68 583 56 583 40 ct 583 28 586 10 592 -11 ct p ef
820 -1 m  820 -31 l  805 -7 782 5 753 5 ct 734 5 717 0 701 -11 ct 685 -21 673 -36 664 -55 ct 
655 -73 651 -95 651 -120 ct 651 -143 655 -165 663 -184 ct 670 -204 682 -219 698 -229 ct 
714 -239 732 -244 751 -244 ct 766 -244 778 -241 790 -235 ct 801 -229 810 -221 817 -212 ct 
817 -330 l  857 -330 l  857 -1 l  820 -1 l  p
692 -120 m  692 -89 699 -66 711 -51 ct 724 -36 739 -28 757 -28 ct 775 -28 790 -35 802 -50 ct 
814 -64 820 -86 820 -116 ct 820 -149 814 -173 802 -188 ct 789 -203 774 -211 755 -211 ct 
737 -211 722 -204 710 -189 ct 698 -174 692 -151 692 -120 ct p ef
1079 0 m  1006 -239 l  1048 -239 l  1086 -101 l  1100 -50 l  1101 -52 1105 -69 1112 -99 ct 
1150 -239 l  1192 -239 l  1227 -100 l  1239 -55 l  1253 -101 l  1294 -239 l 
1333 -239 l  1258 0 l  1217 0 l  1179 -143 l  1170 -183 l  1121 0 l  1079 0 l 
p ef
1332 0 m  1332 -33 l  1483 -207 l  1466 -207 1451 -207 1438 -207 ct 1341 -207 l 
1341 -239 l  1535 -239 l  1535 -212 l  1407 -61 l  1382 -33 l  1400 -34 1417 -35 1433 -35 ct 
1543 -35 l  1543 0 l  1332 0 l  p ef
1584 20 m  1623 26 l  1625 38 1629 47 1637 52 ct 1647 60 1660 64 1678 64 ct 
1696 64 1711 60 1721 52 ct 1731 45 1738 34 1742 21 ct 1744 12 1745 -5 1745 -31 ct 
1727 -10 1705 0 1679 0 ct 1646 0 1621 -12 1603 -36 ct 1585 -59 1576 -88 1576 -121 ct 
1576 -143 1580 -164 1588 -184 ct 1596 -203 1608 -218 1624 -228 ct 1639 -239 1658 -244 1679 -244 ct 
1707 -244 1730 -233 1748 -210 ct 1748 -239 l  1786 -239 l  1786 -32 l  1786 5 1782 31 1774 47 ct 
1767 62 1755 75 1738 84 ct 1722 92 1702 97 1678 97 ct 1650 97 1627 91 1609 78 ct 
1592 65 1583 46 1584 20 ct p
1617 -124 m  1617 -92 1623 -69 1636 -55 ct 1648 -41 1664 -33 1682 -33 ct 1701 -33 1717 -41 1729 -55 ct 
1742 -69 1748 -92 1748 -122 ct 1748 -151 1741 -173 1729 -188 ct 1716 -203 1700 -211 1682 -211 ct 
1664 -211 1649 -203 1636 -189 ct 1624 -174 1617 -152 1617 -124 ct p ef
1828 0 m  1828 -329 l  1869 -329 l  1869 0 l  1828 0 l  p ef
2098 -77 m  2140 -71 l  2133 -47 2121 -28 2103 -14 ct 2086 -1 2063 6 2035 6 ct 
2000 6 1973 -5 1952 -27 ct 1932 -48 1922 -78 1922 -117 ct 1922 -157 1932 -188 1953 -211 ct 
1973 -233 2000 -244 2033 -244 ct 2065 -244 2091 -233 2111 -211 ct 2131 -190 2141 -159 2141 -120 ct 
2141 -117 2141 -114 2141 -109 ct 1964 -109 l  1965 -83 1972 -62 1986 -48 ct 
1999 -34 2016 -28 2035 -28 ct 2050 -28 2063 -31 2073 -39 ct 2084 -47 2092 -59 2098 -77 ct 
p
1966 -142 m  2099 -142 l  2097 -162 2092 -177 2083 -187 ct 2071 -203 2054 -211 2033 -211 ct 
2015 -211 1999 -205 1987 -192 ct 1974 -180 1967 -163 1966 -142 ct p
2026 -5 m  2054 -5 l  2048 8 2045 21 2045 32 ct 2045 42 2048 50 2054 56 ct 2061 63 2068 66 2078 66 ct 
2089 66 2102 62 2115 56 ct 2115 82 l  2107 86 2099 90 2090 92 ct 2081 95 2073 96 2066 96 ct 
2051 96 2039 92 2031 83 ct 2022 74 2017 61 2017 46 ct 2017 34 2020 16 2026 -5 ct 
p ef
2328 -1 m  2328 -31 l  2313 -7 2290 5 2261 5 ct 2242 5 2225 0 2209 -11 ct 2193 -21 2181 -36 2172 -55 ct 
2163 -73 2159 -95 2159 -120 ct 2159 -143 2163 -165 2171 -184 ct 2178 -204 2190 -219 2206 -229 ct 
2222 -239 2240 -244 2259 -244 ct 2274 -244 2286 -241 2298 -235 ct 2309 -229 2318 -221 2325 -212 ct 
2325 -330 l  2365 -330 l  2365 -1 l  2328 -1 l  p
2200 -120 m  2200 -89 2207 -66 2219 -51 ct 2232 -36 2247 -28 2265 -28 ct 2283 -28 2298 -35 2310 -50 ct 
2322 -64 2328 -86 2328 -116 ct 2328 -149 2322 -173 2310 -188 ct 2297 -203 2282 -211 2263 -211 ct 
2245 -211 2230 -204 2218 -189 ct 2206 -174 2200 -151 2200 -120 ct p ef
2411 0 m  2411 -239 l  2448 -239 l  2448 -205 l  2465 -231 2490 -244 2523 -244 ct 
2538 -244 2551 -241 2563 -236 ct 2575 -231 2584 -224 2590 -216 ct 2596 -208 2600 -198 2602 -186 ct 
2604 -179 2605 -165 2605 -147 ct 2605 0 l  2564 0 l  2564 -145 l  2564 -162 2563 -174 2560 -182 ct 
2556 -190 2551 -197 2543 -202 ct 2535 -207 2526 -209 2515 -209 ct 2498 -209 2483 -203 2470 -193 ct 
2458 -182 2452 -161 2452 -130 ct 2452 0 l  2411 0 l  p ef
2647 92 m  2643 54 l  2652 56 2659 58 2666 58 ct 2675 58 2682 56 2688 53 ct 
2693 50 2697 46 2701 41 ct 2703 37 2707 27 2713 10 ct 2714 8 2715 5 2717 1 ct 2626 -239 l 
2670 -239 l  2719 -100 l  2726 -83 2732 -64 2737 -45 ct 2741 -64 2747 -82 2753 -99 ct 
2804 -239 l  2844 -239 l  2754 4 l  2744 30 2737 48 2731 58 ct 2724 72 2716 81 2707 88 ct 
2697 94 2686 97 2673 97 ct 2666 97 2657 95 2647 92 ct p ef
3021 91 m  3021 -330 l  3110 -330 l  3110 -297 l  3062 -297 l  3062 58 l 
3110 58 l  3110 91 l  3021 91 l  p ef
3149 -250 m  3149 -274 3155 -294 3166 -310 ct 3178 -327 3195 -335 3218 -335 ct 
3238 -335 3255 -328 3269 -313 ct 3282 -298 3289 -276 3289 -248 ct 3289 -220 3282 -199 3269 -184 ct 
3255 -169 3238 -161 3218 -161 ct 3198 -161 3182 -168 3169 -183 ct 3155 -198 3149 -220 3149 -250 ct 
p
3219 -307 m  3209 -307 3200 -303 3194 -294 ct 3187 -285 3184 -270 3184 -246 ct 
3184 -225 3187 -210 3194 -202 ct 3201 -193 3209 -189 3219 -189 ct 3229 -189 3237 -193 3244 -202 ct 
3251 -211 3254 -226 3254 -249 ct 3254 -271 3251 -286 3244 -294 ct 3237 -303 3229 -307 3219 -307 ct 
p
3219 12 m  3399 -335 l  3432 -335 l  3252 12 l  3219 12 l  p
3361 -77 m  3361 -101 3367 -121 3379 -137 ct 3391 -154 3408 -162 3430 -162 ct 
3451 -162 3468 -155 3482 -140 ct 3495 -125 3502 -103 3502 -75 ct 3502 -47 3495 -26 3481 -11 ct 
3468 4 3451 12 3431 12 ct 3411 12 3394 5 3381 -10 ct 3368 -25 3361 -48 3361 -77 ct 
p
3432 -134 m  3421 -134 3413 -130 3406 -121 ct 3400 -112 3396 -97 3396 -73 ct 
3396 -52 3400 -38 3406 -29 ct 3413 -20 3421 -16 3431 -16 ct 3442 -16 3450 -20 3457 -29 ct 
3463 -38 3467 -53 3467 -76 ct 3467 -98 3463 -113 3457 -121 ct 3450 -130 3442 -134 3432 -134 ct 
p ef
3617 91 m  3528 91 l  3528 58 l  3576 58 l  3576 -297 l  3528 -297 l  3528 -330 l 
3617 -330 l  3617 91 l  p ef
pom
0 16625 t 
pom
count op_count sub {pop} repeat countdictstack dict_count sub {end} repeat b4_inc_state restore
%%PageTrailer
%%Trailer
%%EOF
