%!PS-Adobe-3.0 EPSF-3.0
%%Creator: MATLAB, The MathWorks, Inc. Version 7.12.0.635 (R2011a). Operating System: Microsoft Windows 7.
%%Title: C:\Users\Kasia\Desktop\Autotune\autotune-bitbucket\autotune\sprawko\img\flattered_2.eps
%%CreationDate: 01/05/2014  20:00:26
%%DocumentNeededFonts: Helvetica
%%DocumentProcessColors: Cyan Magenta Yellow Black
%%LanguageLevel: 2
%%Pages: 1
%%BoundingBox:    87   262   507   578
%%EndComments

%%BeginProlog
% MathWorks dictionary
/MathWorks 160 dict begin
% definition operators
/bdef {bind def} bind def
/ldef {load def} bind def
/xdef {exch def} bdef
/xstore {exch store} bdef
% operator abbreviations
/c  /clip ldef
/cc /concat ldef
/cp /closepath ldef
/gr /grestore ldef
/gs /gsave ldef
/mt /moveto ldef
/np /newpath ldef
/cm /currentmatrix ldef
/sm /setmatrix ldef
/rm /rmoveto ldef
/rl /rlineto ldef
/s {show newpath} bdef
/sc {setcmykcolor} bdef
/sr /setrgbcolor ldef
/sg /setgray ldef
/w /setlinewidth ldef
/j /setlinejoin ldef
/cap /setlinecap ldef
/rc {rectclip} bdef
/rf {rectfill} bdef
% page state control
/pgsv () def
/bpage {/pgsv save def} bdef
/epage {pgsv restore} bdef
/bplot /gsave ldef
/eplot {stroke grestore} bdef
% orientation switch
/portraitMode 0 def /landscapeMode 1 def /rotateMode 2 def
% coordinate system mappings
/dpi2point 0 def
% font control
/FontSize 0 def
/FMS {/FontSize xstore findfont [FontSize 0 0 FontSize neg 0 0]
  makefont setfont} bdef
/ISOLatin1Encoding where {pop /WindowsLatin1Encoding 256 array bdef
ISOLatin1Encoding WindowsLatin1Encoding copy pop
/.notdef/.notdef/quotesinglbase/florin/quotedblbase/ellipsis/dagger
/daggerdbl/circumflex/perthousand/Scaron/guilsinglleft/OE/.notdef/.notdef
/.notdef/.notdef/quoteleft/quoteright/quotedblleft/quotedblright/bullet
/endash/emdash/tilde/trademark/scaron/guilsinglright/oe/.notdef/.notdef
/Ydieresis WindowsLatin1Encoding 128 32 getinterval astore pop}
{/WindowsLatin1Encoding StandardEncoding bdef} ifelse
/reencode {exch dup where {pop load} {pop StandardEncoding} ifelse
  exch dup 3 1 roll findfont dup length dict begin
  { 1 index /FID ne {def}{pop pop} ifelse } forall
  /Encoding exch def currentdict end definefont pop} bdef
/isroman {findfont /CharStrings get /Agrave known} bdef
/FMSR {3 1 roll 1 index dup isroman {reencode} {pop pop} ifelse
  exch FMS} bdef
/csm {1 dpi2point div -1 dpi2point div scale neg translate
 dup landscapeMode eq {pop -90 rotate}
  {rotateMode eq {90 rotate} if} ifelse} bdef
% line types: solid, dotted, dashed, dotdash
/SO { [] 0 setdash } bdef
/DO { [.5 dpi2point mul 4 dpi2point mul] 0 setdash } bdef
/DA { [6 dpi2point mul] 0 setdash } bdef
/DD { [.5 dpi2point mul 4 dpi2point mul 6 dpi2point mul 4
  dpi2point mul] 0 setdash } bdef
% macros for lines and objects
/L {lineto stroke} bdef
/MP {3 1 roll moveto 1 sub {rlineto} repeat} bdef
/AP {{rlineto} repeat} bdef
/PDlw -1 def
/W {/PDlw currentlinewidth def setlinewidth} def
/PP {closepath eofill} bdef
/DP {closepath stroke} bdef
/MR {4 -2 roll moveto dup  0 exch rlineto exch 0 rlineto
  neg 0 exch rlineto closepath} bdef
/FR {MR stroke} bdef
/PR {MR fill} bdef
/L1i {{currentfile picstr readhexstring pop} image} bdef
/tMatrix matrix def
/MakeOval {newpath tMatrix currentmatrix pop translate scale
0 0 1 0 360 arc tMatrix setmatrix} bdef
/FO {MakeOval stroke} bdef
/PO {MakeOval fill} bdef
/PD {currentlinewidth 2 div 0 360 arc fill
   PDlw -1 eq not {PDlw w /PDlw -1 def} if} def
/FA {newpath tMatrix currentmatrix pop translate scale
  0 0 1 5 -2 roll arc tMatrix setmatrix stroke} bdef
/PA {newpath tMatrix currentmatrix pop	translate 0 0 moveto scale
  0 0 1 5 -2 roll arc closepath tMatrix setmatrix fill} bdef
/FAn {newpath tMatrix currentmatrix pop translate scale
  0 0 1 5 -2 roll arcn tMatrix setmatrix stroke} bdef
/PAn {newpath tMatrix currentmatrix pop translate 0 0 moveto scale
  0 0 1 5 -2 roll arcn closepath tMatrix setmatrix fill} bdef
/vradius 0 def /hradius 0 def /lry 0 def
/lrx 0 def /uly 0 def /ulx 0 def /rad 0 def
/MRR {/vradius xdef /hradius xdef /lry xdef /lrx xdef /uly xdef
  /ulx xdef newpath tMatrix currentmatrix pop ulx hradius add uly
  vradius add translate hradius vradius scale 0 0 1 180 270 arc 
  tMatrix setmatrix lrx hradius sub uly vradius add translate
  hradius vradius scale 0 0 1 270 360 arc tMatrix setmatrix
  lrx hradius sub lry vradius sub translate hradius vradius scale
  0 0 1 0 90 arc tMatrix setmatrix ulx hradius add lry vradius sub
  translate hradius vradius scale 0 0 1 90 180 arc tMatrix setmatrix
  closepath} bdef
/FRR {MRR stroke } bdef
/PRR {MRR fill } bdef
/MlrRR {/lry xdef /lrx xdef /uly xdef /ulx xdef /rad lry uly sub 2 div def
  newpath tMatrix currentmatrix pop ulx rad add uly rad add translate
  rad rad scale 0 0 1 90 270 arc tMatrix setmatrix lrx rad sub lry rad
  sub translate rad rad scale 0 0 1 270 90 arc tMatrix setmatrix
  closepath} bdef
/FlrRR {MlrRR stroke } bdef
/PlrRR {MlrRR fill } bdef
/MtbRR {/lry xdef /lrx xdef /uly xdef /ulx xdef /rad lrx ulx sub 2 div def
  newpath tMatrix currentmatrix pop ulx rad add uly rad add translate
  rad rad scale 0 0 1 180 360 arc tMatrix setmatrix lrx rad sub lry rad
  sub translate rad rad scale 0 0 1 0 180 arc tMatrix setmatrix
  closepath} bdef
/FtbRR {MtbRR stroke } bdef
/PtbRR {MtbRR fill } bdef
/stri 6 array def /dtri 6 array def
/smat 6 array def /dmat 6 array def
/tmat1 6 array def /tmat2 6 array def /dif 3 array def
/asub {/ind2 exch def /ind1 exch def dup dup
  ind1 get exch ind2 get sub exch } bdef
/tri_to_matrix {
  2 0 asub 3 1 asub 4 0 asub 5 1 asub
  dup 0 get exch 1 get 7 -1 roll astore } bdef
/compute_transform {
  dmat dtri tri_to_matrix tmat1 invertmatrix 
  smat stri tri_to_matrix tmat2 concatmatrix } bdef
/ds {stri astore pop} bdef
/dt {dtri astore pop} bdef
/db {2 copy /cols xdef /rows xdef mul dup 3 mul string
  currentfile 
  3 index 0 eq {/ASCIIHexDecode filter}
  {/ASCII85Decode filter 3 index 2 eq {/RunLengthDecode filter} if }
  ifelse exch readstring pop
  dup 0 3 index getinterval /rbmap xdef
  dup 2 index dup getinterval /gbmap xdef
  1 index dup 2 mul exch getinterval /bbmap xdef pop pop}bdef
/it {gs np dtri aload pop moveto lineto lineto cp c
  cols rows 8 compute_transform 
  rbmap gbmap bbmap true 3 colorimage gr}bdef
/il {newpath moveto lineto stroke}bdef
currentdict end def
%%EndProlog

%%BeginSetup
MathWorks begin

0 cap

end
%%EndSetup

%%Page: 1 1
%%BeginPageSetup
%%PageBoundingBox:    87   262   507   578
MathWorks begin
bpage
%%EndPageSetup

%%BeginObject: obj1
bplot

/dpi2point 12 def
portraitMode 1044 6936 csm

    0     0  5045  3782 rc
85 dict begin %Colortable dictionary
/c0 { 0.000000 0.000000 0.000000 sr} bdef
/c1 { 1.000000 1.000000 1.000000 sr} bdef
/c2 { 0.900000 0.000000 0.000000 sr} bdef
/c3 { 0.000000 0.820000 0.000000 sr} bdef
/c4 { 0.000000 0.000000 0.800000 sr} bdef
/c5 { 0.910000 0.820000 0.320000 sr} bdef
/c6 { 1.000000 0.260000 0.820000 sr} bdef
/c7 { 0.000000 0.820000 0.820000 sr} bdef
c0
1 j
1 sg
   0    0 5046 3783 rf
6 w
0 3083 3910 0 0 -3083 656 3366 4 MP
PP
-3910 0 0 3083 3910 0 0 -3083 656 3366 5 MP stroke
4 w
DO
SO
6 w
0 sg
 656 3366 mt 4566 3366 L
 656 3366 mt  656  283 L
 656 3366 mt  656 3326 L
%%IncludeResource: font Helvetica
/Helvetica /WindowsLatin1Encoding 120 FMSR

 556 3511 mt 
(100) s
1307 3366 mt 1307 3326 L
1207 3511 mt 
(200) s
1959 3366 mt 1959 3326 L
1859 3511 mt 
(300) s
2611 3366 mt 2611 3326 L
2511 3511 mt 
(400) s
3262 3366 mt 3262 3326 L
3162 3511 mt 
(500) s
3914 3366 mt 3914 3326 L
3814 3511 mt 
(600) s
4566 3366 mt 4566 3326 L
4466 3511 mt 
(700) s
 656 3366 mt  695 3366 L
 555 3410 mt 
(0) s
 656 3057 mt  695 3057 L
 555 3101 mt 
(1) s
 656 2749 mt  695 2749 L
 555 2793 mt 
(2) s
 656 2441 mt  695 2441 L
 555 2485 mt 
(3) s
 656 2133 mt  695 2133 L
 555 2177 mt 
(4) s
 656 1825 mt  695 1825 L
 555 1869 mt 
(5) s
 656 1516 mt  695 1516 L
 555 1560 mt 
(6) s
 656 1208 mt  695 1208 L
 555 1252 mt 
(7) s
 656  900 mt  695  900 L
 555  944 mt 
(8) s
 656  592 mt  695  592 L
 555  636 mt 
(9) s
 656  284 mt  695  284 L
 488  328 mt 
(10) s
gs 656 284 3911 3083 rc
24 w
gr

24 w
/c8 { 0.000000 0.000000 1.000000 sr} bdef
c8
1242 2391 mt 1292 2441 L
1292 2391 mt 1242 2441 L
1382 1565 mt 1432 1615 L
1432 1565 mt 1382 1615 L
1522 2372 mt 1572 2422 L
1572 2372 mt 1522 2422 L
1663 3111 mt 1713 3161 L
1713 3111 mt 1663 3161 L
1803 3178 mt 1853 3228 L
1853 3178 mt 1803 3228 L
1943 3133 mt 1993 3183 L
1993 3133 mt 1943 3183 L
2084 3239 mt 2134 3289 L
2134 3239 mt 2084 3289 L
2224 3276 mt 2274 3326 L
2274 3276 mt 2224 3326 L
2364 3226 mt 2414 3276 L
2414 3226 mt 2364 3276 L
2505 3186 mt 2555 3236 L
2555 3186 mt 2505 3236 L
2645 2114 mt 2695 2164 L
2695 2114 mt 2645 2164 L
2785  445 mt 2835  495 L
2835  445 mt 2785  495 L
2926 1535 mt 2976 1585 L
2976 1535 mt 2926 1585 L
3066 2920 mt 3116 2970 L
3116 2920 mt 3066 2970 L
3206 3250 mt 3256 3300 L
3256 3250 mt 3206 3300 L
3347 3309 mt 3397 3359 L
3397 3309 mt 3347 3359 L
3487 3266 mt 3537 3316 L
3537 3266 mt 3487 3316 L
3627 3313 mt 3677 3363 L
3677 3313 mt 3627 3363 L
3768 3235 mt 3818 3285 L
3818 3235 mt 3768 3285 L
3908 2861 mt 3958 2911 L
3958 2861 mt 3908 2911 L
4048 1474 mt 4098 1524 L
4098 1474 mt 4048 1524 L
4189  318 mt 4239  368 L
4239  318 mt 4189  368 L
4329 1909 mt 4379 1959 L
4379 1909 mt 4329 1959 L
gs 656 284 3911 3083 rc
0 -950 1267 3366 2 MP stroke
0 -1776 1407 3366 2 MP stroke
0 -969 1547 3366 2 MP stroke
0 -230 1688 3366 2 MP stroke
0 -163 1828 3366 2 MP stroke
0 -208 1968 3366 2 MP stroke
0 -102 2109 3366 2 MP stroke
0 -65 2249 3366 2 MP stroke
0 -115 2389 3366 2 MP stroke
0 -155 2530 3366 2 MP stroke
0 -1227 2670 3366 2 MP stroke
0 -2896 2810 3366 2 MP stroke
0 -1806 2951 3366 2 MP stroke
0 -421 3091 3366 2 MP stroke
0 -91 3231 3366 2 MP stroke
0 -32 3372 3366 2 MP stroke
0 -75 3512 3366 2 MP stroke
0 -28 3652 3366 2 MP stroke
0 -106 3793 3366 2 MP stroke
0 -480 3933 3366 2 MP stroke
0 -1867 4073 3366 2 MP stroke
0 -3023 4214 3366 2 MP stroke
0 -1432 4354 3366 2 MP stroke
6 w
0 sg
3910 0 656 3366 2 MP stroke
gr

6 w
0 sg
2483  189 mt 
(After) s
2537 3654 mt 
(Hz) s
gs 656 284 3911 3083 rc
36 w
gr

36 w
/c9 { 1.000000 0.000000 0.000000 sr} bdef
c9
1231 2918 mt 1303 2918 L
1267 2882 mt 1267 2954 L
1371 2742 mt 1443 2742 L
1407 2706 mt 1407 2778 L
1511 2944 mt 1583 2944 L
1547 2908 mt 1547 2980 L
1652 3154 mt 1724 3154 L
1688 3118 mt 1688 3190 L
1792 3332 mt 1864 3332 L
1828 3296 mt 1828 3368 L
1932 3336 mt 2004 3336 L
1968 3300 mt 1968 3372 L
2073 3349 mt 2145 3349 L
2109 3313 mt 2109 3385 L
2213 3332 mt 2285 3332 L
2249 3296 mt 2249 3368 L
2353 3353 mt 2425 3353 L
2389 3317 mt 2389 3389 L
2494 3181 mt 2566 3181 L
2530 3145 mt 2530 3217 L
2634 2446 mt 2706 2446 L
2670 2410 mt 2670 2482 L
2774 2432 mt 2846 2432 L
2810 2396 mt 2810 2468 L
2915 3238 mt 2987 3238 L
2951 3202 mt 2951 3274 L
3055 3023 mt 3127 3023 L
3091 2987 mt 3091 3059 L
3195 3261 mt 3267 3261 L
3231 3225 mt 3231 3297 L
3336 3365 mt 3408 3365 L
3372 3329 mt 3372 3401 L
3476 3337 mt 3548 3337 L
3512 3301 mt 3512 3373 L
3616 3354 mt 3688 3354 L
3652 3318 mt 3652 3390 L
3757 3312 mt 3829 3312 L
3793 3276 mt 3793 3348 L
3897 3169 mt 3969 3169 L
3933 3133 mt 3933 3205 L
4037 2518 mt 4109 2518 L
4073 2482 mt 4073 2554 L
4178 2048 mt 4250 2048 L
4214 2012 mt 4214 2084 L
4318 3012 mt 4390 3012 L
4354 2976 mt 4354 3048 L
1242 2893 mt 1292 2943 L
1292 2893 mt 1242 2943 L
1382 2717 mt 1432 2767 L
1432 2717 mt 1382 2767 L
1522 2919 mt 1572 2969 L
1572 2919 mt 1522 2969 L
1663 3129 mt 1713 3179 L
1713 3129 mt 1663 3179 L
1803 3307 mt 1853 3357 L
1853 3307 mt 1803 3357 L
1943 3311 mt 1993 3361 L
1993 3311 mt 1943 3361 L
2084 3324 mt 2134 3374 L
2134 3324 mt 2084 3374 L
2224 3307 mt 2274 3357 L
2274 3307 mt 2224 3357 L
2364 3328 mt 2414 3378 L
2414 3328 mt 2364 3378 L
2505 3156 mt 2555 3206 L
2555 3156 mt 2505 3206 L
2645 2421 mt 2695 2471 L
2695 2421 mt 2645 2471 L
2785 2407 mt 2835 2457 L
2835 2407 mt 2785 2457 L
2926 3213 mt 2976 3263 L
2976 3213 mt 2926 3263 L
3066 2998 mt 3116 3048 L
3116 2998 mt 3066 3048 L
3206 3236 mt 3256 3286 L
3256 3236 mt 3206 3286 L
3347 3340 mt 3397 3390 L
3397 3340 mt 3347 3390 L
3487 3312 mt 3537 3362 L
3537 3312 mt 3487 3362 L
3627 3329 mt 3677 3379 L
3677 3329 mt 3627 3379 L
3768 3287 mt 3818 3337 L
3818 3287 mt 3768 3337 L
3908 3144 mt 3958 3194 L
3958 3144 mt 3908 3194 L
4048 2493 mt 4098 2543 L
4098 2493 mt 4048 2543 L
4189 2023 mt 4239 2073 L
4239 2023 mt 4189 2073 L
4329 2987 mt 4379 3037 L
4379 2987 mt 4329 3037 L
gs 656 284 3911 3083 rc
0 -448 1267 3366 2 MP stroke
0 -624 1407 3366 2 MP stroke
0 -422 1547 3366 2 MP stroke
0 -212 1688 3366 2 MP stroke
0 -34 1828 3366 2 MP stroke
0 -30 1968 3366 2 MP stroke
0 -17 2109 3366 2 MP stroke
0 -34 2249 3366 2 MP stroke
0 -13 2389 3366 2 MP stroke
0 -185 2530 3366 2 MP stroke
0 -920 2670 3366 2 MP stroke
0 -934 2810 3366 2 MP stroke
0 -128 2951 3366 2 MP stroke
0 -343 3091 3366 2 MP stroke
0 -105 3231 3366 2 MP stroke
0 -1 3372 3366 2 MP stroke
0 -29 3512 3366 2 MP stroke
0 -12 3652 3366 2 MP stroke
0 -54 3793 3366 2 MP stroke
0 -197 3933 3366 2 MP stroke
0 -848 4073 3366 2 MP stroke
0 -1318 4214 3366 2 MP stroke
0 -354 4354 3366 2 MP stroke
24 w
gr

24 w
c8
  60   60 4305 3366 PO
0 sg
  60   60 4305 3366 FO
gs 656 284 3911 3083 rc
gr

c9
  60   60 4214 3366 PO
0 sg
  60   60 4214 3366 FO
gs 656 284 3911 3083 rc
6 w
gr

6 w

end %%Color Dict

eplot
%%EndObject

epage
end

showpage

%%Trailer
%%EOF
