%!PS-Adobe-3.0 EPSF-3.0
%%Creator: MATLAB, The MathWorks, Inc. Version 7.12.0.635 (R2011a). Operating System: Microsoft Windows 7.
%%Title: C:\Users\Kasia\Desktop\Autotune\autotune-bitbucket\autotune\sprawko\img\y01.eps
%%CreationDate: 01/06/2014  01:47:44
%%DocumentNeededFonts: Helvetica
%%DocumentProcessColors: Cyan Magenta Yellow Black
%%LanguageLevel: 2
%%Pages: 1
%%BoundingBox:    87   262   507   578
%%EndComments

%%BeginProlog
% MathWorks dictionary
/MathWorks 160 dict begin
% definition operators
/bdef {bind def} bind def
/ldef {load def} bind def
/xdef {exch def} bdef
/xstore {exch store} bdef
% operator abbreviations
/c  /clip ldef
/cc /concat ldef
/cp /closepath ldef
/gr /grestore ldef
/gs /gsave ldef
/mt /moveto ldef
/np /newpath ldef
/cm /currentmatrix ldef
/sm /setmatrix ldef
/rm /rmoveto ldef
/rl /rlineto ldef
/s {show newpath} bdef
/sc {setcmykcolor} bdef
/sr /setrgbcolor ldef
/sg /setgray ldef
/w /setlinewidth ldef
/j /setlinejoin ldef
/cap /setlinecap ldef
/rc {rectclip} bdef
/rf {rectfill} bdef
% page state control
/pgsv () def
/bpage {/pgsv save def} bdef
/epage {pgsv restore} bdef
/bplot /gsave ldef
/eplot {stroke grestore} bdef
% orientation switch
/portraitMode 0 def /landscapeMode 1 def /rotateMode 2 def
% coordinate system mappings
/dpi2point 0 def
% font control
/FontSize 0 def
/FMS {/FontSize xstore findfont [FontSize 0 0 FontSize neg 0 0]
  makefont setfont} bdef
/ISOLatin1Encoding where {pop /WindowsLatin1Encoding 256 array bdef
ISOLatin1Encoding WindowsLatin1Encoding copy pop
/.notdef/.notdef/quotesinglbase/florin/quotedblbase/ellipsis/dagger
/daggerdbl/circumflex/perthousand/Scaron/guilsinglleft/OE/.notdef/.notdef
/.notdef/.notdef/quoteleft/quoteright/quotedblleft/quotedblright/bullet
/endash/emdash/tilde/trademark/scaron/guilsinglright/oe/.notdef/.notdef
/Ydieresis WindowsLatin1Encoding 128 32 getinterval astore pop}
{/WindowsLatin1Encoding StandardEncoding bdef} ifelse
/reencode {exch dup where {pop load} {pop StandardEncoding} ifelse
  exch dup 3 1 roll findfont dup length dict begin
  { 1 index /FID ne {def}{pop pop} ifelse } forall
  /Encoding exch def currentdict end definefont pop} bdef
/isroman {findfont /CharStrings get /Agrave known} bdef
/FMSR {3 1 roll 1 index dup isroman {reencode} {pop pop} ifelse
  exch FMS} bdef
/csm {1 dpi2point div -1 dpi2point div scale neg translate
 dup landscapeMode eq {pop -90 rotate}
  {rotateMode eq {90 rotate} if} ifelse} bdef
% line types: solid, dotted, dashed, dotdash
/SO { [] 0 setdash } bdef
/DO { [.5 dpi2point mul 4 dpi2point mul] 0 setdash } bdef
/DA { [6 dpi2point mul] 0 setdash } bdef
/DD { [.5 dpi2point mul 4 dpi2point mul 6 dpi2point mul 4
  dpi2point mul] 0 setdash } bdef
% macros for lines and objects
/L {lineto stroke} bdef
/MP {3 1 roll moveto 1 sub {rlineto} repeat} bdef
/AP {{rlineto} repeat} bdef
/PDlw -1 def
/W {/PDlw currentlinewidth def setlinewidth} def
/PP {closepath eofill} bdef
/DP {closepath stroke} bdef
/MR {4 -2 roll moveto dup  0 exch rlineto exch 0 rlineto
  neg 0 exch rlineto closepath} bdef
/FR {MR stroke} bdef
/PR {MR fill} bdef
/L1i {{currentfile picstr readhexstring pop} image} bdef
/tMatrix matrix def
/MakeOval {newpath tMatrix currentmatrix pop translate scale
0 0 1 0 360 arc tMatrix setmatrix} bdef
/FO {MakeOval stroke} bdef
/PO {MakeOval fill} bdef
/PD {currentlinewidth 2 div 0 360 arc fill
   PDlw -1 eq not {PDlw w /PDlw -1 def} if} def
/FA {newpath tMatrix currentmatrix pop translate scale
  0 0 1 5 -2 roll arc tMatrix setmatrix stroke} bdef
/PA {newpath tMatrix currentmatrix pop	translate 0 0 moveto scale
  0 0 1 5 -2 roll arc closepath tMatrix setmatrix fill} bdef
/FAn {newpath tMatrix currentmatrix pop translate scale
  0 0 1 5 -2 roll arcn tMatrix setmatrix stroke} bdef
/PAn {newpath tMatrix currentmatrix pop translate 0 0 moveto scale
  0 0 1 5 -2 roll arcn closepath tMatrix setmatrix fill} bdef
/vradius 0 def /hradius 0 def /lry 0 def
/lrx 0 def /uly 0 def /ulx 0 def /rad 0 def
/MRR {/vradius xdef /hradius xdef /lry xdef /lrx xdef /uly xdef
  /ulx xdef newpath tMatrix currentmatrix pop ulx hradius add uly
  vradius add translate hradius vradius scale 0 0 1 180 270 arc 
  tMatrix setmatrix lrx hradius sub uly vradius add translate
  hradius vradius scale 0 0 1 270 360 arc tMatrix setmatrix
  lrx hradius sub lry vradius sub translate hradius vradius scale
  0 0 1 0 90 arc tMatrix setmatrix ulx hradius add lry vradius sub
  translate hradius vradius scale 0 0 1 90 180 arc tMatrix setmatrix
  closepath} bdef
/FRR {MRR stroke } bdef
/PRR {MRR fill } bdef
/MlrRR {/lry xdef /lrx xdef /uly xdef /ulx xdef /rad lry uly sub 2 div def
  newpath tMatrix currentmatrix pop ulx rad add uly rad add translate
  rad rad scale 0 0 1 90 270 arc tMatrix setmatrix lrx rad sub lry rad
  sub translate rad rad scale 0 0 1 270 90 arc tMatrix setmatrix
  closepath} bdef
/FlrRR {MlrRR stroke } bdef
/PlrRR {MlrRR fill } bdef
/MtbRR {/lry xdef /lrx xdef /uly xdef /ulx xdef /rad lrx ulx sub 2 div def
  newpath tMatrix currentmatrix pop ulx rad add uly rad add translate
  rad rad scale 0 0 1 180 360 arc tMatrix setmatrix lrx rad sub lry rad
  sub translate rad rad scale 0 0 1 0 180 arc tMatrix setmatrix
  closepath} bdef
/FtbRR {MtbRR stroke } bdef
/PtbRR {MtbRR fill } bdef
/stri 6 array def /dtri 6 array def
/smat 6 array def /dmat 6 array def
/tmat1 6 array def /tmat2 6 array def /dif 3 array def
/asub {/ind2 exch def /ind1 exch def dup dup
  ind1 get exch ind2 get sub exch } bdef
/tri_to_matrix {
  2 0 asub 3 1 asub 4 0 asub 5 1 asub
  dup 0 get exch 1 get 7 -1 roll astore } bdef
/compute_transform {
  dmat dtri tri_to_matrix tmat1 invertmatrix 
  smat stri tri_to_matrix tmat2 concatmatrix } bdef
/ds {stri astore pop} bdef
/dt {dtri astore pop} bdef
/db {2 copy /cols xdef /rows xdef mul dup 3 mul string
  currentfile 
  3 index 0 eq {/ASCIIHexDecode filter}
  {/ASCII85Decode filter 3 index 2 eq {/RunLengthDecode filter} if }
  ifelse exch readstring pop
  dup 0 3 index getinterval /rbmap xdef
  dup 2 index dup getinterval /gbmap xdef
  1 index dup 2 mul exch getinterval /bbmap xdef pop pop}bdef
/it {gs np dtri aload pop moveto lineto lineto cp c
  cols rows 8 compute_transform 
  rbmap gbmap bbmap true 3 colorimage gr}bdef
/il {newpath moveto lineto stroke}bdef
currentdict end def
%%EndProlog

%%BeginSetup
MathWorks begin

0 cap

end
%%EndSetup

%%Page: 1 1
%%BeginPageSetup
%%PageBoundingBox:    87   262   507   578
MathWorks begin
bpage
%%EndPageSetup

%%BeginObject: obj1
bplot

/dpi2point 12 def
portraitMode 1044 6936 csm

    0     0  5045  3782 rc
85 dict begin %Colortable dictionary
/c0 { 0.000000 0.000000 0.000000 sr} bdef
/c1 { 1.000000 1.000000 1.000000 sr} bdef
/c2 { 0.900000 0.000000 0.000000 sr} bdef
/c3 { 0.000000 0.820000 0.000000 sr} bdef
/c4 { 0.000000 0.000000 0.800000 sr} bdef
/c5 { 0.910000 0.820000 0.320000 sr} bdef
/c6 { 1.000000 0.260000 0.820000 sr} bdef
/c7 { 0.000000 0.820000 0.820000 sr} bdef
c0
1 j
1 sg
   0    0 5046 3783 rf
6 w
0 3082 3910 0 0 -3082 656 3366 4 MP
PP
-3910 0 0 3082 3910 0 0 -3082 656 3366 5 MP stroke
4 w
DO
SO
6 w
0 sg
 656 3366 mt 4566 3366 L
 656 3366 mt  656  284 L
 656 3366 mt  656 3326 L
%%IncludeResource: font Helvetica
/Helvetica /WindowsLatin1Encoding 120 FMSR

 623 3511 mt 
(0) s
1214 3366 mt 1214 3326 L
1114 3511 mt 
(200) s
1773 3366 mt 1773 3326 L
1673 3511 mt 
(400) s
2331 3366 mt 2331 3326 L
2231 3511 mt 
(600) s
2890 3366 mt 2890 3326 L
2790 3511 mt 
(800) s
3448 3366 mt 3448 3326 L
3315 3511 mt 
(1000) s
4007 3366 mt 4007 3326 L
3874 3511 mt 
(1200) s
4566 3366 mt 4566 3326 L
4433 3511 mt 
(1400) s
 656 3366 mt  695 3366 L
 555 3410 mt 
(0) s
 656 3057 mt  695 3057 L
 455 3101 mt 
(0.1) s
 656 2749 mt  695 2749 L
 455 2793 mt 
(0.2) s
 656 2441 mt  695 2441 L
 455 2485 mt 
(0.3) s
 656 2133 mt  695 2133 L
 455 2177 mt 
(0.4) s
 656 1825 mt  695 1825 L
 455 1869 mt 
(0.5) s
 656 1516 mt  695 1516 L
 455 1560 mt 
(0.6) s
 656 1208 mt  695 1208 L
 455 1252 mt 
(0.7) s
 656  900 mt  695  900 L
 455  944 mt 
(0.8) s
 656  592 mt  695  592 L
 455  636 mt 
(0.9) s
 656  284 mt  695  284 L
 555  328 mt 
(1) s
gs 656 284 3911 3083 rc
24 w
gr

24 w
/c8 { 0.000000 0.000000 1.000000 sr} bdef
c8
1172 2818 mt 1222 2868 L
1222 2818 mt 1172 2868 L
1232 2076 mt 1282 2126 L
1282 2076 mt 1232 2126 L
1292 1703 mt 1342 1753 L
1342 1703 mt 1292 1753 L
1352 2232 mt 1402 2282 L
1402 2232 mt 1352 2282 L
1412 2847 mt 1462 2897 L
1462 2847 mt 1412 2897 L
1472 3174 mt 1522 3224 L
1522 3174 mt 1472 3224 L
1533 3109 mt 1583 3159 L
1583 3109 mt 1533 3159 L
1593 3035 mt 1643 3085 L
1643 3035 mt 1593 3085 L
1653 2629 mt 1703 2679 L
1703 2629 mt 1653 2679 L
1713 2976 mt 1763 3026 L
1763 2976 mt 1713 3026 L
1773 3091 mt 1823 3141 L
1823 3091 mt 1773 3141 L
1833 3264 mt 1883 3314 L
1883 3264 mt 1833 3314 L
1893 2828 mt 1943 2878 L
1943 2828 mt 1893 2878 L
1954 2575 mt 2004 2625 L
2004 2575 mt 1954 2625 L
2014 2772 mt 2064 2822 L
2064 2772 mt 2014 2822 L
2074 3185 mt 2124 3235 L
2124 3185 mt 2074 3235 L
2134 2859 mt 2184 2909 L
2184 2859 mt 2134 2909 L
2194 3052 mt 2244 3102 L
2244 3052 mt 2194 3102 L
2254 2876 mt 2304 2926 L
2304 2876 mt 2254 2926 L
2314 2423 mt 2364 2473 L
2364 2423 mt 2314 2473 L
2375 1543 mt 2425 1593 L
2425 1543 mt 2375 1593 L
2435 1385 mt 2485 1435 L
2485 1385 mt 2435 1435 L
2495 2467 mt 2545 2517 L
2545 2467 mt 2495 2517 L
2555 2296 mt 2605 2346 L
2605 2296 mt 2555 2346 L
2615 1635 mt 2665 1685 L
2665 1635 mt 2615 1685 L
2675  336 mt 2725  386 L
2725  336 mt 2675  386 L
2735  634 mt 2785  684 L
2785  634 mt 2735  684 L
2796 1477 mt 2846 1527 L
2846 1477 mt 2796 1527 L
2856 2092 mt 2906 2142 L
2906 2092 mt 2856 2142 L
2916  863 mt 2966  913 L
2966  863 mt 2916  913 L
2976 1102 mt 3026 1152 L
3026 1102 mt 2976 1152 L
3036 2723 mt 3086 2773 L
3086 2723 mt 3036 2773 L
3096 2501 mt 3146 2551 L
3146 2501 mt 3096 2551 L
3156 3179 mt 3206 3229 L
3206 3179 mt 3156 3229 L
3216 2839 mt 3266 2889 L
3266 2839 mt 3216 2889 L
3277 3021 mt 3327 3071 L
3327 3021 mt 3277 3071 L
3337 2855 mt 3387 2905 L
3387 2855 mt 3337 2905 L
3397 2936 mt 3447 2986 L
3447 2936 mt 3397 2986 L
3457 3163 mt 3507 3213 L
3507 3163 mt 3457 3213 L
3517 3127 mt 3567 3177 L
3567 3127 mt 3517 3177 L
3577 3097 mt 3627 3147 L
3627 3097 mt 3577 3147 L
3637 3119 mt 3687 3169 L
3687 3119 mt 3637 3169 L
3698 3115 mt 3748 3165 L
3748 3115 mt 3698 3165 L
3758 3007 mt 3808 3057 L
3808 3007 mt 3758 3057 L
3818 2978 mt 3868 3028 L
3868 2978 mt 3818 3028 L
3878 3200 mt 3928 3250 L
3928 3200 mt 3878 3250 L
3938 3158 mt 3988 3208 L
3988 3158 mt 3938 3208 L
3998 2978 mt 4048 3028 L
4048 2978 mt 3998 3028 L
4058 3148 mt 4108 3198 L
4108 3148 mt 4058 3198 L
4119 3248 mt 4169 3298 L
4169 3248 mt 4119 3298 L
4179 3274 mt 4229 3324 L
4229 3274 mt 4179 3324 L
4239 3317 mt 4289 3367 L
4289 3317 mt 4239 3367 L
4299 3139 mt 4349 3189 L
4349 3139 mt 4299 3189 L
4359 3127 mt 4409 3177 L
4409 3127 mt 4359 3177 L
4419 3277 mt 4469 3327 L
4469 3277 mt 4419 3327 L
gs 656 284 3911 3083 rc
0 -523 1197 3366 2 MP stroke
0 -1265 1257 3366 2 MP stroke
0 -1638 1317 3366 2 MP stroke
0 -1109 1377 3366 2 MP stroke
0 -494 1437 3366 2 MP stroke
0 -167 1497 3366 2 MP stroke
0 -232 1558 3366 2 MP stroke
0 -306 1618 3366 2 MP stroke
0 -712 1678 3366 2 MP stroke
0 -365 1738 3366 2 MP stroke
0 -250 1798 3366 2 MP stroke
0 -77 1858 3366 2 MP stroke
0 -513 1918 3366 2 MP stroke
0 -766 1979 3366 2 MP stroke
0 -569 2039 3366 2 MP stroke
0 -156 2099 3366 2 MP stroke
0 -482 2159 3366 2 MP stroke
0 -289 2219 3366 2 MP stroke
0 -465 2279 3366 2 MP stroke
0 -918 2339 3366 2 MP stroke
0 -1798 2400 3366 2 MP stroke
0 -1956 2460 3366 2 MP stroke
0 -874 2520 3366 2 MP stroke
0 -1045 2580 3366 2 MP stroke
0 -1706 2640 3366 2 MP stroke
0 -3005 2700 3366 2 MP stroke
0 -2707 2760 3366 2 MP stroke
0 -1864 2821 3366 2 MP stroke
0 -1249 2881 3366 2 MP stroke
0 -2478 2941 3366 2 MP stroke
0 -2239 3001 3366 2 MP stroke
0 -618 3061 3366 2 MP stroke
0 -840 3121 3366 2 MP stroke
0 -162 3181 3366 2 MP stroke
0 -502 3241 3366 2 MP stroke
0 -320 3302 3366 2 MP stroke
0 -486 3362 3366 2 MP stroke
0 -405 3422 3366 2 MP stroke
0 -178 3482 3366 2 MP stroke
0 -214 3542 3366 2 MP stroke
0 -244 3602 3366 2 MP stroke
0 -222 3662 3366 2 MP stroke
0 -226 3723 3366 2 MP stroke
0 -334 3783 3366 2 MP stroke
0 -363 3843 3366 2 MP stroke
0 -141 3903 3366 2 MP stroke
0 -183 3963 3366 2 MP stroke
0 -363 4023 3366 2 MP stroke
0 -193 4083 3366 2 MP stroke
0 -93 4144 3366 2 MP stroke
0 -67 4204 3366 2 MP stroke
0 -24 4264 3366 2 MP stroke
0 -202 4324 3366 2 MP stroke
0 -214 4384 3366 2 MP stroke
0 -64 4444 3366 2 MP stroke
6 w
0 sg
3910 0 656 3366 2 MP stroke
gr

6 w
0 sg
2483  189 mt 
(After) s
2537 3654 mt 
(Hz) s
gs 656 284 3911 3083 rc
36 w
gr

36 w
/c9 { 1.000000 0.000000 0.000000 sr} bdef
c9
1161 2958 mt 1233 2958 L
1197 2922 mt 1197 2994 L
1221 2650 mt 1293 2650 L
1257 2614 mt 1257 2686 L
1281 2784 mt 1353 2784 L
1317 2748 mt 1317 2820 L
1341 3148 mt 1413 3148 L
1377 3112 mt 1377 3184 L
1401 3229 mt 1473 3229 L
1437 3193 mt 1437 3265 L
1461 3262 mt 1533 3262 L
1497 3226 mt 1497 3298 L
1522 3214 mt 1594 3214 L
1558 3178 mt 1558 3250 L
1582 3112 mt 1654 3112 L
1618 3076 mt 1618 3148 L
1642 3093 mt 1714 3093 L
1678 3057 mt 1678 3129 L
1702 3172 mt 1774 3172 L
1738 3136 mt 1738 3208 L
1762 3227 mt 1834 3227 L
1798 3191 mt 1798 3263 L
1822 3247 mt 1894 3247 L
1858 3211 mt 1858 3283 L
1882 3091 mt 1954 3091 L
1918 3055 mt 1918 3127 L
1943 2980 mt 2015 2980 L
1979 2944 mt 1979 3016 L
2003 3073 mt 2075 3073 L
2039 3037 mt 2039 3109 L
2063 3255 mt 2135 3255 L
2099 3219 mt 2099 3291 L
2123 3172 mt 2195 3172 L
2159 3136 mt 2159 3208 L
2183 3113 mt 2255 3113 L
2219 3077 mt 2219 3149 L
2243 3024 mt 2315 3024 L
2279 2988 mt 2279 3060 L
2303 2743 mt 2375 2743 L
2339 2707 mt 2339 2779 L
2364 2542 mt 2436 2542 L
2400 2506 mt 2400 2578 L
2424 2726 mt 2496 2726 L
2460 2690 mt 2460 2762 L
2484 3206 mt 2556 3206 L
2520 3170 mt 2520 3242 L
2544 3030 mt 2616 3030 L
2580 2994 mt 2580 3066 L
2604 2625 mt 2676 2625 L
2640 2589 mt 2640 2661 L
2664 2538 mt 2736 2538 L
2700 2502 mt 2700 2574 L
2724 2795 mt 2796 2795 L
2760 2759 mt 2760 2831 L
2785 2537 mt 2857 2537 L
2821 2501 mt 2821 2573 L
2845 2292 mt 2917 2292 L
2881 2256 mt 2881 2328 L
2905 2439 mt 2977 2439 L
2941 2403 mt 2941 2475 L
2965 2537 mt 3037 2537 L
3001 2501 mt 3001 2573 L
3025 2648 mt 3097 2648 L
3061 2612 mt 3061 2684 L
3085 3011 mt 3157 3011 L
3121 2975 mt 3121 3047 L
3145 3211 mt 3217 3211 L
3181 3175 mt 3181 3247 L
3205 3214 mt 3277 3214 L
3241 3178 mt 3241 3250 L
3266 3323 mt 3338 3323 L
3302 3287 mt 3302 3359 L
3326 3154 mt 3398 3154 L
3362 3118 mt 3362 3190 L
3386 3172 mt 3458 3172 L
3422 3136 mt 3422 3208 L
3446 3322 mt 3518 3322 L
3482 3286 mt 3482 3358 L
3506 3237 mt 3578 3237 L
3542 3201 mt 3542 3273 L
3566 3203 mt 3638 3203 L
3602 3167 mt 3602 3239 L
3626 3211 mt 3698 3211 L
3662 3175 mt 3662 3247 L
3687 3208 mt 3759 3208 L
3723 3172 mt 3723 3244 L
3747 3210 mt 3819 3210 L
3783 3174 mt 3783 3246 L
3807 3228 mt 3879 3228 L
3843 3192 mt 3843 3264 L
3867 3291 mt 3939 3291 L
3903 3255 mt 3903 3327 L
3927 3290 mt 3999 3290 L
3963 3254 mt 3963 3326 L
3987 3259 mt 4059 3259 L
4023 3223 mt 4023 3295 L
4047 3312 mt 4119 3312 L
4083 3276 mt 4083 3348 L
4108 3353 mt 4180 3353 L
4144 3317 mt 4144 3389 L
4168 3353 mt 4240 3353 L
4204 3317 mt 4204 3389 L
4228 3324 mt 4300 3324 L
4264 3288 mt 4264 3360 L
4288 3262 mt 4360 3262 L
4324 3226 mt 4324 3298 L
4348 3271 mt 4420 3271 L
4384 3235 mt 4384 3307 L
4408 3337 mt 4480 3337 L
4444 3301 mt 4444 3373 L
1172 2933 mt 1222 2983 L
1222 2933 mt 1172 2983 L
1232 2625 mt 1282 2675 L
1282 2625 mt 1232 2675 L
1292 2759 mt 1342 2809 L
1342 2759 mt 1292 2809 L
1352 3123 mt 1402 3173 L
1402 3123 mt 1352 3173 L
1412 3204 mt 1462 3254 L
1462 3204 mt 1412 3254 L
1472 3237 mt 1522 3287 L
1522 3237 mt 1472 3287 L
1533 3189 mt 1583 3239 L
1583 3189 mt 1533 3239 L
1593 3087 mt 1643 3137 L
1643 3087 mt 1593 3137 L
1653 3068 mt 1703 3118 L
1703 3068 mt 1653 3118 L
1713 3147 mt 1763 3197 L
1763 3147 mt 1713 3197 L
1773 3202 mt 1823 3252 L
1823 3202 mt 1773 3252 L
1833 3222 mt 1883 3272 L
1883 3222 mt 1833 3272 L
1893 3066 mt 1943 3116 L
1943 3066 mt 1893 3116 L
1954 2955 mt 2004 3005 L
2004 2955 mt 1954 3005 L
2014 3048 mt 2064 3098 L
2064 3048 mt 2014 3098 L
2074 3230 mt 2124 3280 L
2124 3230 mt 2074 3280 L
2134 3147 mt 2184 3197 L
2184 3147 mt 2134 3197 L
2194 3088 mt 2244 3138 L
2244 3088 mt 2194 3138 L
2254 2999 mt 2304 3049 L
2304 2999 mt 2254 3049 L
2314 2718 mt 2364 2768 L
2364 2718 mt 2314 2768 L
2375 2517 mt 2425 2567 L
2425 2517 mt 2375 2567 L
2435 2701 mt 2485 2751 L
2485 2701 mt 2435 2751 L
2495 3181 mt 2545 3231 L
2545 3181 mt 2495 3231 L
2555 3005 mt 2605 3055 L
2605 3005 mt 2555 3055 L
2615 2600 mt 2665 2650 L
2665 2600 mt 2615 2650 L
2675 2513 mt 2725 2563 L
2725 2513 mt 2675 2563 L
2735 2770 mt 2785 2820 L
2785 2770 mt 2735 2820 L
2796 2512 mt 2846 2562 L
2846 2512 mt 2796 2562 L
2856 2267 mt 2906 2317 L
2906 2267 mt 2856 2317 L
2916 2414 mt 2966 2464 L
2966 2414 mt 2916 2464 L
2976 2512 mt 3026 2562 L
3026 2512 mt 2976 2562 L
3036 2623 mt 3086 2673 L
3086 2623 mt 3036 2673 L
3096 2986 mt 3146 3036 L
3146 2986 mt 3096 3036 L
3156 3186 mt 3206 3236 L
3206 3186 mt 3156 3236 L
3216 3189 mt 3266 3239 L
3266 3189 mt 3216 3239 L
3277 3298 mt 3327 3348 L
3327 3298 mt 3277 3348 L
3337 3129 mt 3387 3179 L
3387 3129 mt 3337 3179 L
3397 3147 mt 3447 3197 L
3447 3147 mt 3397 3197 L
3457 3297 mt 3507 3347 L
3507 3297 mt 3457 3347 L
3517 3212 mt 3567 3262 L
3567 3212 mt 3517 3262 L
3577 3178 mt 3627 3228 L
3627 3178 mt 3577 3228 L
3637 3186 mt 3687 3236 L
3687 3186 mt 3637 3236 L
3698 3183 mt 3748 3233 L
3748 3183 mt 3698 3233 L
3758 3185 mt 3808 3235 L
3808 3185 mt 3758 3235 L
3818 3203 mt 3868 3253 L
3868 3203 mt 3818 3253 L
3878 3266 mt 3928 3316 L
3928 3266 mt 3878 3316 L
3938 3265 mt 3988 3315 L
3988 3265 mt 3938 3315 L
3998 3234 mt 4048 3284 L
4048 3234 mt 3998 3284 L
4058 3287 mt 4108 3337 L
4108 3287 mt 4058 3337 L
4119 3328 mt 4169 3378 L
4169 3328 mt 4119 3378 L
4179 3328 mt 4229 3378 L
4229 3328 mt 4179 3378 L
4239 3299 mt 4289 3349 L
4289 3299 mt 4239 3349 L
4299 3237 mt 4349 3287 L
4349 3237 mt 4299 3287 L
4359 3246 mt 4409 3296 L
4409 3246 mt 4359 3296 L
4419 3312 mt 4469 3362 L
4469 3312 mt 4419 3362 L
gs 656 284 3911 3083 rc
0 -408 1197 3366 2 MP stroke
0 -716 1257 3366 2 MP stroke
0 -582 1317 3366 2 MP stroke
0 -218 1377 3366 2 MP stroke
0 -137 1437 3366 2 MP stroke
0 -104 1497 3366 2 MP stroke
0 -152 1558 3366 2 MP stroke
0 -254 1618 3366 2 MP stroke
0 -273 1678 3366 2 MP stroke
0 -194 1738 3366 2 MP stroke
0 -139 1798 3366 2 MP stroke
0 -119 1858 3366 2 MP stroke
0 -275 1918 3366 2 MP stroke
0 -386 1979 3366 2 MP stroke
0 -293 2039 3366 2 MP stroke
0 -111 2099 3366 2 MP stroke
0 -194 2159 3366 2 MP stroke
0 -253 2219 3366 2 MP stroke
0 -342 2279 3366 2 MP stroke
0 -623 2339 3366 2 MP stroke
0 -824 2400 3366 2 MP stroke
0 -640 2460 3366 2 MP stroke
0 -160 2520 3366 2 MP stroke
0 -336 2580 3366 2 MP stroke
0 -741 2640 3366 2 MP stroke
0 -828 2700 3366 2 MP stroke
0 -571 2760 3366 2 MP stroke
0 -829 2821 3366 2 MP stroke
0 -1074 2881 3366 2 MP stroke
0 -927 2941 3366 2 MP stroke
0 -829 3001 3366 2 MP stroke
0 -718 3061 3366 2 MP stroke
0 -355 3121 3366 2 MP stroke
0 -155 3181 3366 2 MP stroke
0 -152 3241 3366 2 MP stroke
0 -43 3302 3366 2 MP stroke
0 -212 3362 3366 2 MP stroke
0 -194 3422 3366 2 MP stroke
0 -44 3482 3366 2 MP stroke
0 -129 3542 3366 2 MP stroke
0 -163 3602 3366 2 MP stroke
0 -155 3662 3366 2 MP stroke
0 -158 3723 3366 2 MP stroke
0 -156 3783 3366 2 MP stroke
0 -138 3843 3366 2 MP stroke
0 -75 3903 3366 2 MP stroke
0 -76 3963 3366 2 MP stroke
0 -107 4023 3366 2 MP stroke
0 -54 4083 3366 2 MP stroke
0 -13 4144 3366 2 MP stroke
0 -13 4204 3366 2 MP stroke
0 -42 4264 3366 2 MP stroke
0 -104 4324 3366 2 MP stroke
0 -95 4384 3366 2 MP stroke
0 -29 4444 3366 2 MP stroke
24 w
gr

24 w
c8
  60   60 2722 3366 PO
0 sg
  60   60 2722 3366 FO
gs 656 284 3911 3083 rc
gr

c9
  60   60 2912 3366 PO
0 sg
  60   60 2912 3366 FO
gs 656 284 3911 3083 rc
6 w
gr

6 w

end %%Color Dict

eplot
%%EndObject

epage
end

showpage

%%Trailer
%%EOF
