%!PS-Adobe-3.0 EPSF-3.0
%%Creator: MATLAB, The MathWorks, Inc. Version 7.12.0.635 (R2011a). Operating System: Microsoft Windows 7.
%%Title: C:\Users\Kasia\Desktop\Autotune\autotune-bitbucket\autotune\sprawko\img\y12.eps
%%CreationDate: 01/06/2014  01:48:27
%%DocumentNeededFonts: Helvetica
%%DocumentProcessColors: Cyan Magenta Yellow Black
%%LanguageLevel: 2
%%Pages: 1
%%BoundingBox:    87   262   507   578
%%EndComments

%%BeginProlog
% MathWorks dictionary
/MathWorks 160 dict begin
% definition operators
/bdef {bind def} bind def
/ldef {load def} bind def
/xdef {exch def} bdef
/xstore {exch store} bdef
% operator abbreviations
/c  /clip ldef
/cc /concat ldef
/cp /closepath ldef
/gr /grestore ldef
/gs /gsave ldef
/mt /moveto ldef
/np /newpath ldef
/cm /currentmatrix ldef
/sm /setmatrix ldef
/rm /rmoveto ldef
/rl /rlineto ldef
/s {show newpath} bdef
/sc {setcmykcolor} bdef
/sr /setrgbcolor ldef
/sg /setgray ldef
/w /setlinewidth ldef
/j /setlinejoin ldef
/cap /setlinecap ldef
/rc {rectclip} bdef
/rf {rectfill} bdef
% page state control
/pgsv () def
/bpage {/pgsv save def} bdef
/epage {pgsv restore} bdef
/bplot /gsave ldef
/eplot {stroke grestore} bdef
% orientation switch
/portraitMode 0 def /landscapeMode 1 def /rotateMode 2 def
% coordinate system mappings
/dpi2point 0 def
% font control
/FontSize 0 def
/FMS {/FontSize xstore findfont [FontSize 0 0 FontSize neg 0 0]
  makefont setfont} bdef
/ISOLatin1Encoding where {pop /WindowsLatin1Encoding 256 array bdef
ISOLatin1Encoding WindowsLatin1Encoding copy pop
/.notdef/.notdef/quotesinglbase/florin/quotedblbase/ellipsis/dagger
/daggerdbl/circumflex/perthousand/Scaron/guilsinglleft/OE/.notdef/.notdef
/.notdef/.notdef/quoteleft/quoteright/quotedblleft/quotedblright/bullet
/endash/emdash/tilde/trademark/scaron/guilsinglright/oe/.notdef/.notdef
/Ydieresis WindowsLatin1Encoding 128 32 getinterval astore pop}
{/WindowsLatin1Encoding StandardEncoding bdef} ifelse
/reencode {exch dup where {pop load} {pop StandardEncoding} ifelse
  exch dup 3 1 roll findfont dup length dict begin
  { 1 index /FID ne {def}{pop pop} ifelse } forall
  /Encoding exch def currentdict end definefont pop} bdef
/isroman {findfont /CharStrings get /Agrave known} bdef
/FMSR {3 1 roll 1 index dup isroman {reencode} {pop pop} ifelse
  exch FMS} bdef
/csm {1 dpi2point div -1 dpi2point div scale neg translate
 dup landscapeMode eq {pop -90 rotate}
  {rotateMode eq {90 rotate} if} ifelse} bdef
% line types: solid, dotted, dashed, dotdash
/SO { [] 0 setdash } bdef
/DO { [.5 dpi2point mul 4 dpi2point mul] 0 setdash } bdef
/DA { [6 dpi2point mul] 0 setdash } bdef
/DD { [.5 dpi2point mul 4 dpi2point mul 6 dpi2point mul 4
  dpi2point mul] 0 setdash } bdef
% macros for lines and objects
/L {lineto stroke} bdef
/MP {3 1 roll moveto 1 sub {rlineto} repeat} bdef
/AP {{rlineto} repeat} bdef
/PDlw -1 def
/W {/PDlw currentlinewidth def setlinewidth} def
/PP {closepath eofill} bdef
/DP {closepath stroke} bdef
/MR {4 -2 roll moveto dup  0 exch rlineto exch 0 rlineto
  neg 0 exch rlineto closepath} bdef
/FR {MR stroke} bdef
/PR {MR fill} bdef
/L1i {{currentfile picstr readhexstring pop} image} bdef
/tMatrix matrix def
/MakeOval {newpath tMatrix currentmatrix pop translate scale
0 0 1 0 360 arc tMatrix setmatrix} bdef
/FO {MakeOval stroke} bdef
/PO {MakeOval fill} bdef
/PD {currentlinewidth 2 div 0 360 arc fill
   PDlw -1 eq not {PDlw w /PDlw -1 def} if} def
/FA {newpath tMatrix currentmatrix pop translate scale
  0 0 1 5 -2 roll arc tMatrix setmatrix stroke} bdef
/PA {newpath tMatrix currentmatrix pop	translate 0 0 moveto scale
  0 0 1 5 -2 roll arc closepath tMatrix setmatrix fill} bdef
/FAn {newpath tMatrix currentmatrix pop translate scale
  0 0 1 5 -2 roll arcn tMatrix setmatrix stroke} bdef
/PAn {newpath tMatrix currentmatrix pop translate 0 0 moveto scale
  0 0 1 5 -2 roll arcn closepath tMatrix setmatrix fill} bdef
/vradius 0 def /hradius 0 def /lry 0 def
/lrx 0 def /uly 0 def /ulx 0 def /rad 0 def
/MRR {/vradius xdef /hradius xdef /lry xdef /lrx xdef /uly xdef
  /ulx xdef newpath tMatrix currentmatrix pop ulx hradius add uly
  vradius add translate hradius vradius scale 0 0 1 180 270 arc 
  tMatrix setmatrix lrx hradius sub uly vradius add translate
  hradius vradius scale 0 0 1 270 360 arc tMatrix setmatrix
  lrx hradius sub lry vradius sub translate hradius vradius scale
  0 0 1 0 90 arc tMatrix setmatrix ulx hradius add lry vradius sub
  translate hradius vradius scale 0 0 1 90 180 arc tMatrix setmatrix
  closepath} bdef
/FRR {MRR stroke } bdef
/PRR {MRR fill } bdef
/MlrRR {/lry xdef /lrx xdef /uly xdef /ulx xdef /rad lry uly sub 2 div def
  newpath tMatrix currentmatrix pop ulx rad add uly rad add translate
  rad rad scale 0 0 1 90 270 arc tMatrix setmatrix lrx rad sub lry rad
  sub translate rad rad scale 0 0 1 270 90 arc tMatrix setmatrix
  closepath} bdef
/FlrRR {MlrRR stroke } bdef
/PlrRR {MlrRR fill } bdef
/MtbRR {/lry xdef /lrx xdef /uly xdef /ulx xdef /rad lrx ulx sub 2 div def
  newpath tMatrix currentmatrix pop ulx rad add uly rad add translate
  rad rad scale 0 0 1 180 360 arc tMatrix setmatrix lrx rad sub lry rad
  sub translate rad rad scale 0 0 1 0 180 arc tMatrix setmatrix
  closepath} bdef
/FtbRR {MtbRR stroke } bdef
/PtbRR {MtbRR fill } bdef
/stri 6 array def /dtri 6 array def
/smat 6 array def /dmat 6 array def
/tmat1 6 array def /tmat2 6 array def /dif 3 array def
/asub {/ind2 exch def /ind1 exch def dup dup
  ind1 get exch ind2 get sub exch } bdef
/tri_to_matrix {
  2 0 asub 3 1 asub 4 0 asub 5 1 asub
  dup 0 get exch 1 get 7 -1 roll astore } bdef
/compute_transform {
  dmat dtri tri_to_matrix tmat1 invertmatrix 
  smat stri tri_to_matrix tmat2 concatmatrix } bdef
/ds {stri astore pop} bdef
/dt {dtri astore pop} bdef
/db {2 copy /cols xdef /rows xdef mul dup 3 mul string
  currentfile 
  3 index 0 eq {/ASCIIHexDecode filter}
  {/ASCII85Decode filter 3 index 2 eq {/RunLengthDecode filter} if }
  ifelse exch readstring pop
  dup 0 3 index getinterval /rbmap xdef
  dup 2 index dup getinterval /gbmap xdef
  1 index dup 2 mul exch getinterval /bbmap xdef pop pop}bdef
/it {gs np dtri aload pop moveto lineto lineto cp c
  cols rows 8 compute_transform 
  rbmap gbmap bbmap true 3 colorimage gr}bdef
/il {newpath moveto lineto stroke}bdef
currentdict end def
%%EndProlog

%%BeginSetup
MathWorks begin

0 cap

end
%%EndSetup

%%Page: 1 1
%%BeginPageSetup
%%PageBoundingBox:    87   262   507   578
MathWorks begin
bpage
%%EndPageSetup

%%BeginObject: obj1
bplot

/dpi2point 12 def
portraitMode 1044 6936 csm

    0     0  5045  3782 rc
85 dict begin %Colortable dictionary
/c0 { 0.000000 0.000000 0.000000 sr} bdef
/c1 { 1.000000 1.000000 1.000000 sr} bdef
/c2 { 0.900000 0.000000 0.000000 sr} bdef
/c3 { 0.000000 0.820000 0.000000 sr} bdef
/c4 { 0.000000 0.000000 0.800000 sr} bdef
/c5 { 0.910000 0.820000 0.320000 sr} bdef
/c6 { 1.000000 0.260000 0.820000 sr} bdef
/c7 { 0.000000 0.820000 0.820000 sr} bdef
c0
1 j
1 sg
   0    0 5046 3783 rf
6 w
0 3082 3910 0 0 -3082 656 3366 4 MP
PP
-3910 0 0 3082 3910 0 0 -3082 656 3366 5 MP stroke
4 w
DO
SO
6 w
0 sg
 656 3366 mt 4566 3366 L
 656 3366 mt  656  284 L
 656 3366 mt  656 3326 L
%%IncludeResource: font Helvetica
/Helvetica /WindowsLatin1Encoding 120 FMSR

 623 3511 mt 
(0) s
1214 3366 mt 1214 3326 L
1114 3511 mt 
(200) s
1773 3366 mt 1773 3326 L
1673 3511 mt 
(400) s
2331 3366 mt 2331 3326 L
2231 3511 mt 
(600) s
2890 3366 mt 2890 3326 L
2790 3511 mt 
(800) s
3448 3366 mt 3448 3326 L
3315 3511 mt 
(1000) s
4007 3366 mt 4007 3326 L
3874 3511 mt 
(1200) s
4566 3366 mt 4566 3326 L
4433 3511 mt 
(1400) s
 656 3366 mt  695 3366 L
 555 3410 mt 
(0) s
 656 3057 mt  695 3057 L
 455 3101 mt 
(0.1) s
 656 2749 mt  695 2749 L
 455 2793 mt 
(0.2) s
 656 2441 mt  695 2441 L
 455 2485 mt 
(0.3) s
 656 2133 mt  695 2133 L
 455 2177 mt 
(0.4) s
 656 1825 mt  695 1825 L
 455 1869 mt 
(0.5) s
 656 1516 mt  695 1516 L
 455 1560 mt 
(0.6) s
 656 1208 mt  695 1208 L
 455 1252 mt 
(0.7) s
 656  900 mt  695  900 L
 455  944 mt 
(0.8) s
 656  592 mt  695  592 L
 455  636 mt 
(0.9) s
 656  284 mt  695  284 L
 555  328 mt 
(1) s
gs 656 284 3911 3083 rc
24 w
gr

24 w
/c8 { 0.000000 0.000000 1.000000 sr} bdef
c8
1172 2818 mt 1222 2868 L
1222 2818 mt 1172 2868 L
1232 2076 mt 1282 2126 L
1282 2076 mt 1232 2126 L
1292 1703 mt 1342 1753 L
1342 1703 mt 1292 1753 L
1352 2232 mt 1402 2282 L
1402 2232 mt 1352 2282 L
1412 2847 mt 1462 2897 L
1462 2847 mt 1412 2897 L
1472 3174 mt 1522 3224 L
1522 3174 mt 1472 3224 L
1533 3109 mt 1583 3159 L
1583 3109 mt 1533 3159 L
1593 3035 mt 1643 3085 L
1643 3035 mt 1593 3085 L
1653 2629 mt 1703 2679 L
1703 2629 mt 1653 2679 L
1713 2976 mt 1763 3026 L
1763 2976 mt 1713 3026 L
1773 3091 mt 1823 3141 L
1823 3091 mt 1773 3141 L
1833 3264 mt 1883 3314 L
1883 3264 mt 1833 3314 L
1893 2828 mt 1943 2878 L
1943 2828 mt 1893 2878 L
1954 2575 mt 2004 2625 L
2004 2575 mt 1954 2625 L
2014 2772 mt 2064 2822 L
2064 2772 mt 2014 2822 L
2074 3185 mt 2124 3235 L
2124 3185 mt 2074 3235 L
2134 2859 mt 2184 2909 L
2184 2859 mt 2134 2909 L
2194 3052 mt 2244 3102 L
2244 3052 mt 2194 3102 L
2254 2876 mt 2304 2926 L
2304 2876 mt 2254 2926 L
2314 2423 mt 2364 2473 L
2364 2423 mt 2314 2473 L
2375 1543 mt 2425 1593 L
2425 1543 mt 2375 1593 L
2435 1385 mt 2485 1435 L
2485 1385 mt 2435 1435 L
2495 2467 mt 2545 2517 L
2545 2467 mt 2495 2517 L
2555 2296 mt 2605 2346 L
2605 2296 mt 2555 2346 L
2615 1635 mt 2665 1685 L
2665 1635 mt 2615 1685 L
2675  336 mt 2725  386 L
2725  336 mt 2675  386 L
2735  634 mt 2785  684 L
2785  634 mt 2735  684 L
2796 1477 mt 2846 1527 L
2846 1477 mt 2796 1527 L
2856 2092 mt 2906 2142 L
2906 2092 mt 2856 2142 L
2916  863 mt 2966  913 L
2966  863 mt 2916  913 L
2976 1102 mt 3026 1152 L
3026 1102 mt 2976 1152 L
3036 2723 mt 3086 2773 L
3086 2723 mt 3036 2773 L
3096 2501 mt 3146 2551 L
3146 2501 mt 3096 2551 L
3156 3179 mt 3206 3229 L
3206 3179 mt 3156 3229 L
3216 2839 mt 3266 2889 L
3266 2839 mt 3216 2889 L
3277 3021 mt 3327 3071 L
3327 3021 mt 3277 3071 L
3337 2855 mt 3387 2905 L
3387 2855 mt 3337 2905 L
3397 2936 mt 3447 2986 L
3447 2936 mt 3397 2986 L
3457 3163 mt 3507 3213 L
3507 3163 mt 3457 3213 L
3517 3127 mt 3567 3177 L
3567 3127 mt 3517 3177 L
3577 3097 mt 3627 3147 L
3627 3097 mt 3577 3147 L
3637 3119 mt 3687 3169 L
3687 3119 mt 3637 3169 L
3698 3115 mt 3748 3165 L
3748 3115 mt 3698 3165 L
3758 3007 mt 3808 3057 L
3808 3007 mt 3758 3057 L
3818 2978 mt 3868 3028 L
3868 2978 mt 3818 3028 L
3878 3200 mt 3928 3250 L
3928 3200 mt 3878 3250 L
3938 3158 mt 3988 3208 L
3988 3158 mt 3938 3208 L
3998 2978 mt 4048 3028 L
4048 2978 mt 3998 3028 L
4058 3148 mt 4108 3198 L
4108 3148 mt 4058 3198 L
4119 3248 mt 4169 3298 L
4169 3248 mt 4119 3298 L
4179 3274 mt 4229 3324 L
4229 3274 mt 4179 3324 L
4239 3317 mt 4289 3367 L
4289 3317 mt 4239 3367 L
4299 3139 mt 4349 3189 L
4349 3139 mt 4299 3189 L
4359 3127 mt 4409 3177 L
4409 3127 mt 4359 3177 L
4419 3277 mt 4469 3327 L
4469 3277 mt 4419 3327 L
gs 656 284 3911 3083 rc
0 -523 1197 3366 2 MP stroke
0 -1265 1257 3366 2 MP stroke
0 -1638 1317 3366 2 MP stroke
0 -1109 1377 3366 2 MP stroke
0 -494 1437 3366 2 MP stroke
0 -167 1497 3366 2 MP stroke
0 -232 1558 3366 2 MP stroke
0 -306 1618 3366 2 MP stroke
0 -712 1678 3366 2 MP stroke
0 -365 1738 3366 2 MP stroke
0 -250 1798 3366 2 MP stroke
0 -77 1858 3366 2 MP stroke
0 -513 1918 3366 2 MP stroke
0 -766 1979 3366 2 MP stroke
0 -569 2039 3366 2 MP stroke
0 -156 2099 3366 2 MP stroke
0 -482 2159 3366 2 MP stroke
0 -289 2219 3366 2 MP stroke
0 -465 2279 3366 2 MP stroke
0 -918 2339 3366 2 MP stroke
0 -1798 2400 3366 2 MP stroke
0 -1956 2460 3366 2 MP stroke
0 -874 2520 3366 2 MP stroke
0 -1045 2580 3366 2 MP stroke
0 -1706 2640 3366 2 MP stroke
0 -3005 2700 3366 2 MP stroke
0 -2707 2760 3366 2 MP stroke
0 -1864 2821 3366 2 MP stroke
0 -1249 2881 3366 2 MP stroke
0 -2478 2941 3366 2 MP stroke
0 -2239 3001 3366 2 MP stroke
0 -618 3061 3366 2 MP stroke
0 -840 3121 3366 2 MP stroke
0 -162 3181 3366 2 MP stroke
0 -502 3241 3366 2 MP stroke
0 -320 3302 3366 2 MP stroke
0 -486 3362 3366 2 MP stroke
0 -405 3422 3366 2 MP stroke
0 -178 3482 3366 2 MP stroke
0 -214 3542 3366 2 MP stroke
0 -244 3602 3366 2 MP stroke
0 -222 3662 3366 2 MP stroke
0 -226 3723 3366 2 MP stroke
0 -334 3783 3366 2 MP stroke
0 -363 3843 3366 2 MP stroke
0 -141 3903 3366 2 MP stroke
0 -183 3963 3366 2 MP stroke
0 -363 4023 3366 2 MP stroke
0 -193 4083 3366 2 MP stroke
0 -93 4144 3366 2 MP stroke
0 -67 4204 3366 2 MP stroke
0 -24 4264 3366 2 MP stroke
0 -202 4324 3366 2 MP stroke
0 -214 4384 3366 2 MP stroke
0 -64 4444 3366 2 MP stroke
6 w
0 sg
3910 0 656 3366 2 MP stroke
gr

6 w
0 sg
2483  189 mt 
(After) s
2537 3654 mt 
(Hz) s
gs 656 284 3911 3083 rc
36 w
gr

36 w
/c9 { 1.000000 0.000000 0.000000 sr} bdef
c9
1161 3013 mt 1233 3013 L
1197 2977 mt 1197 3049 L
1221 2561 mt 1293 2561 L
1257 2525 mt 1257 2597 L
1281 2389 mt 1353 2389 L
1317 2353 mt 1317 2425 L
1341 2661 mt 1413 2661 L
1377 2625 mt 1377 2697 L
1401 3046 mt 1473 3046 L
1437 3010 mt 1437 3082 L
1461 3214 mt 1533 3214 L
1497 3178 mt 1497 3250 L
1522 3274 mt 1594 3274 L
1558 3238 mt 1558 3310 L
1582 3159 mt 1654 3159 L
1618 3123 mt 1618 3195 L
1642 3010 mt 1714 3010 L
1678 2974 mt 1678 3046 L
1702 3100 mt 1774 3100 L
1738 3064 mt 1738 3136 L
1762 3238 mt 1834 3238 L
1798 3202 mt 1798 3274 L
1822 3334 mt 1894 3334 L
1858 3298 mt 1858 3370 L
1882 3071 mt 1954 3071 L
1918 3035 mt 1918 3107 L
1943 2914 mt 2015 2914 L
1979 2878 mt 1979 2950 L
2003 3027 mt 2075 3027 L
2039 2991 mt 2039 3063 L
2063 3231 mt 2135 3231 L
2099 3195 mt 2099 3267 L
2123 3123 mt 2195 3123 L
2159 3087 mt 2159 3159 L
2183 3184 mt 2255 3184 L
2219 3148 mt 2219 3220 L
2243 3099 mt 2315 3099 L
2279 3063 mt 2279 3135 L
2303 2699 mt 2375 2699 L
2339 2663 mt 2339 2735 L
2364 2377 mt 2436 2377 L
2400 2341 mt 2400 2413 L
2424 2441 mt 2496 2441 L
2460 2405 mt 2460 2477 L
2484 2865 mt 2556 2865 L
2520 2829 mt 2520 2901 L
2544 2770 mt 2616 2770 L
2580 2734 mt 2580 2806 L
2604 1901 mt 2676 1901 L
2640 1865 mt 2640 1937 L
2664 1046 mt 2736 1046 L
2700 1010 mt 2700 1082 L
2724 1542 mt 2796 1542 L
2760 1506 mt 2760 1578 L
2785 2333 mt 2857 2333 L
2821 2297 mt 2821 2369 L
2845 2381 mt 2917 2381 L
2881 2345 mt 2881 2417 L
2905 1916 mt 2977 1916 L
2941 1880 mt 2941 1952 L
2965 2064 mt 3037 2064 L
3001 2028 mt 3001 2100 L
3025 2706 mt 3097 2706 L
3061 2670 mt 3061 2742 L
3085 2983 mt 3157 2983 L
3121 2947 mt 3121 3019 L
3145 3218 mt 3217 3218 L
3181 3182 mt 3181 3254 L
3205 3213 mt 3277 3213 L
3241 3177 mt 3241 3249 L
3266 3204 mt 3338 3204 L
3302 3168 mt 3302 3240 L
3326 3079 mt 3398 3079 L
3362 3043 mt 3362 3115 L
3386 3116 mt 3458 3116 L
3422 3080 mt 3422 3152 L
3446 3219 mt 3518 3219 L
3482 3183 mt 3482 3255 L
3506 3244 mt 3578 3244 L
3542 3208 mt 3542 3280 L
3566 3273 mt 3638 3273 L
3602 3237 mt 3602 3309 L
3626 3237 mt 3698 3237 L
3662 3201 mt 3662 3273 L
3687 3188 mt 3759 3188 L
3723 3152 mt 3723 3224 L
3747 3148 mt 3819 3148 L
3783 3112 mt 3783 3184 L
3807 3163 mt 3879 3163 L
3843 3127 mt 3843 3199 L
3867 3290 mt 3939 3290 L
3903 3254 mt 3903 3326 L
3927 3250 mt 3999 3250 L
3963 3214 mt 3963 3286 L
3987 3184 mt 4059 3184 L
4023 3148 mt 4023 3220 L
4047 3266 mt 4119 3266 L
4083 3230 mt 4083 3302 L
4108 3358 mt 4180 3358 L
4144 3322 mt 4144 3394 L
4168 3333 mt 4240 3333 L
4204 3297 mt 4204 3369 L
4228 3316 mt 4300 3316 L
4264 3280 mt 4264 3352 L
4288 3257 mt 4360 3257 L
4324 3221 mt 4324 3293 L
4348 3252 mt 4420 3252 L
4384 3216 mt 4384 3288 L
4408 3320 mt 4480 3320 L
4444 3284 mt 4444 3356 L
1172 2988 mt 1222 3038 L
1222 2988 mt 1172 3038 L
1232 2536 mt 1282 2586 L
1282 2536 mt 1232 2586 L
1292 2364 mt 1342 2414 L
1342 2364 mt 1292 2414 L
1352 2636 mt 1402 2686 L
1402 2636 mt 1352 2686 L
1412 3021 mt 1462 3071 L
1462 3021 mt 1412 3071 L
1472 3189 mt 1522 3239 L
1522 3189 mt 1472 3239 L
1533 3249 mt 1583 3299 L
1583 3249 mt 1533 3299 L
1593 3134 mt 1643 3184 L
1643 3134 mt 1593 3184 L
1653 2985 mt 1703 3035 L
1703 2985 mt 1653 3035 L
1713 3075 mt 1763 3125 L
1763 3075 mt 1713 3125 L
1773 3213 mt 1823 3263 L
1823 3213 mt 1773 3263 L
1833 3309 mt 1883 3359 L
1883 3309 mt 1833 3359 L
1893 3046 mt 1943 3096 L
1943 3046 mt 1893 3096 L
1954 2889 mt 2004 2939 L
2004 2889 mt 1954 2939 L
2014 3002 mt 2064 3052 L
2064 3002 mt 2014 3052 L
2074 3206 mt 2124 3256 L
2124 3206 mt 2074 3256 L
2134 3098 mt 2184 3148 L
2184 3098 mt 2134 3148 L
2194 3159 mt 2244 3209 L
2244 3159 mt 2194 3209 L
2254 3074 mt 2304 3124 L
2304 3074 mt 2254 3124 L
2314 2674 mt 2364 2724 L
2364 2674 mt 2314 2724 L
2375 2352 mt 2425 2402 L
2425 2352 mt 2375 2402 L
2435 2416 mt 2485 2466 L
2485 2416 mt 2435 2466 L
2495 2840 mt 2545 2890 L
2545 2840 mt 2495 2890 L
2555 2745 mt 2605 2795 L
2605 2745 mt 2555 2795 L
2615 1876 mt 2665 1926 L
2665 1876 mt 2615 1926 L
2675 1021 mt 2725 1071 L
2725 1021 mt 2675 1071 L
2735 1517 mt 2785 1567 L
2785 1517 mt 2735 1567 L
2796 2308 mt 2846 2358 L
2846 2308 mt 2796 2358 L
2856 2356 mt 2906 2406 L
2906 2356 mt 2856 2406 L
2916 1891 mt 2966 1941 L
2966 1891 mt 2916 1941 L
2976 2039 mt 3026 2089 L
3026 2039 mt 2976 2089 L
3036 2681 mt 3086 2731 L
3086 2681 mt 3036 2731 L
3096 2958 mt 3146 3008 L
3146 2958 mt 3096 3008 L
3156 3193 mt 3206 3243 L
3206 3193 mt 3156 3243 L
3216 3188 mt 3266 3238 L
3266 3188 mt 3216 3238 L
3277 3179 mt 3327 3229 L
3327 3179 mt 3277 3229 L
3337 3054 mt 3387 3104 L
3387 3054 mt 3337 3104 L
3397 3091 mt 3447 3141 L
3447 3091 mt 3397 3141 L
3457 3194 mt 3507 3244 L
3507 3194 mt 3457 3244 L
3517 3219 mt 3567 3269 L
3567 3219 mt 3517 3269 L
3577 3248 mt 3627 3298 L
3627 3248 mt 3577 3298 L
3637 3212 mt 3687 3262 L
3687 3212 mt 3637 3262 L
3698 3163 mt 3748 3213 L
3748 3163 mt 3698 3213 L
3758 3123 mt 3808 3173 L
3808 3123 mt 3758 3173 L
3818 3138 mt 3868 3188 L
3868 3138 mt 3818 3188 L
3878 3265 mt 3928 3315 L
3928 3265 mt 3878 3315 L
3938 3225 mt 3988 3275 L
3988 3225 mt 3938 3275 L
3998 3159 mt 4048 3209 L
4048 3159 mt 3998 3209 L
4058 3241 mt 4108 3291 L
4108 3241 mt 4058 3291 L
4119 3333 mt 4169 3383 L
4169 3333 mt 4119 3383 L
4179 3308 mt 4229 3358 L
4229 3308 mt 4179 3358 L
4239 3291 mt 4289 3341 L
4289 3291 mt 4239 3341 L
4299 3232 mt 4349 3282 L
4349 3232 mt 4299 3282 L
4359 3227 mt 4409 3277 L
4409 3227 mt 4359 3277 L
4419 3295 mt 4469 3345 L
4469 3295 mt 4419 3345 L
gs 656 284 3911 3083 rc
0 -353 1197 3366 2 MP stroke
0 -805 1257 3366 2 MP stroke
0 -977 1317 3366 2 MP stroke
0 -705 1377 3366 2 MP stroke
0 -320 1437 3366 2 MP stroke
0 -152 1497 3366 2 MP stroke
0 -92 1558 3366 2 MP stroke
0 -207 1618 3366 2 MP stroke
0 -356 1678 3366 2 MP stroke
0 -266 1738 3366 2 MP stroke
0 -128 1798 3366 2 MP stroke
0 -32 1858 3366 2 MP stroke
0 -295 1918 3366 2 MP stroke
0 -452 1979 3366 2 MP stroke
0 -339 2039 3366 2 MP stroke
0 -135 2099 3366 2 MP stroke
0 -243 2159 3366 2 MP stroke
0 -182 2219 3366 2 MP stroke
0 -267 2279 3366 2 MP stroke
0 -667 2339 3366 2 MP stroke
0 -989 2400 3366 2 MP stroke
0 -925 2460 3366 2 MP stroke
0 -501 2520 3366 2 MP stroke
0 -596 2580 3366 2 MP stroke
0 -1465 2640 3366 2 MP stroke
0 -2320 2700 3366 2 MP stroke
0 -1824 2760 3366 2 MP stroke
0 -1033 2821 3366 2 MP stroke
0 -985 2881 3366 2 MP stroke
0 -1450 2941 3366 2 MP stroke
0 -1302 3001 3366 2 MP stroke
0 -660 3061 3366 2 MP stroke
0 -383 3121 3366 2 MP stroke
0 -148 3181 3366 2 MP stroke
0 -153 3241 3366 2 MP stroke
0 -162 3302 3366 2 MP stroke
0 -287 3362 3366 2 MP stroke
0 -250 3422 3366 2 MP stroke
0 -147 3482 3366 2 MP stroke
0 -122 3542 3366 2 MP stroke
0 -93 3602 3366 2 MP stroke
0 -129 3662 3366 2 MP stroke
0 -178 3723 3366 2 MP stroke
0 -218 3783 3366 2 MP stroke
0 -203 3843 3366 2 MP stroke
0 -76 3903 3366 2 MP stroke
0 -116 3963 3366 2 MP stroke
0 -182 4023 3366 2 MP stroke
0 -100 4083 3366 2 MP stroke
0 -8 4144 3366 2 MP stroke
0 -33 4204 3366 2 MP stroke
0 -50 4264 3366 2 MP stroke
0 -109 4324 3366 2 MP stroke
0 -114 4384 3366 2 MP stroke
0 -46 4444 3366 2 MP stroke
24 w
gr

24 w
c8
  60   60 2722 3366 PO
0 sg
  60   60 2722 3366 FO
gs 656 284 3911 3083 rc
gr

c9
  60   60 2732 3366 PO
0 sg
  60   60 2732 3366 FO
gs 656 284 3911 3083 rc
6 w
gr

6 w

end %%Color Dict

eplot
%%EndObject

epage
end

showpage

%%Trailer
%%EOF
