\BOOKMARK [1][-]{section.1}{\376\377\000W\000s\000t\001\031\000p}{}% 1
\BOOKMARK [1][-]{section.2}{\376\377\000O\000p\000i\000s\000\040\000d\000z\000i\000a\001\102\000a\000n\000i\000a\000\040\000a\000u\000t\000o\000-\000t\000u\000n\000e}{}% 2
\BOOKMARK [2][-]{subsection.2.1}{\376\377\000G\000a\000m\000a\000\040\000d\001\172\000w\000i\001\031\000k\000\363\000w}{section.2}% 3
\BOOKMARK [2][-]{subsection.2.2}{\376\377\000P\000i\000t\000c\000h\000\040\000s\000h\000i\000f\000t\000i\000n\000g}{section.2}% 4
\BOOKMARK [3][-]{subsubsection.2.2.1}{\376\377\000P\000h\000a\000s\000e\000\040\000v\000o\000c\000o\000d\000e\000r}{subsection.2.2}% 5
\BOOKMARK [2][-]{subsection.2.3}{\376\377\000A\000u\000t\000o\000-\000t\000u\000n\000e}{section.2}% 6
\BOOKMARK [1][-]{section.3}{\376\377\000I\000m\000p\000l\000e\000m\000e\000n\000t\000a\000c\000j\000a\000\040\000o\000f\000f\000l\000i\000n\000e}{}% 7
\BOOKMARK [2][-]{subsection.3.1}{\376\377\000P\000i\000t\000c\000h\000\040\000s\000h\000i\000f\000t\000i\000n\000g}{section.3}% 8
\BOOKMARK [2][-]{subsection.3.2}{\376\377\000D\000e\000t\000e\000k\000c\000j\000a\000\040\000d\000o\000m\000i\000n\000u\000j\001\005\000c\000e\000j\000\040\000c\000z\001\031\000s\000t\000o\000t\000l\000i\000w\000o\001\133\000c\000i\000\040\000w\000\040\000o\000k\000n\000i\000e}{section.3}% 9
\BOOKMARK [2][-]{subsection.3.3}{\376\377\000A\000p\000r\000o\000k\000s\000y\000m\000a\000c\000j\000a\000\040\000w\000i\000d\000m\000a}{section.3}% 10
\BOOKMARK [1][-]{section.4}{\376\377\000I\000m\000p\000l\000e\000m\000e\000n\000t\000a\000c\000j\000a\000\040\000w\000\040\000c\000z\000a\000s\000i\000e\000\040\000r\000z\000e\000c\000z\000y\000w\000i\000s\000t\000y\000m}{}% 11
\BOOKMARK [2][-]{subsection.4.1}{\376\377\000W\000y\000k\000o\000r\000z\000y\000s\000t\000a\000n\000i\000e\000\040\000D\000a\000t\000a\000\040\000A\000c\000q\000u\000i\000s\000i\000t\000i\000o\000n\000\040\000T\000o\000o\000l\000b\000o\000x}{section.4}% 12
\BOOKMARK [2][-]{subsection.4.2}{\376\377\000S\000y\000m\000u\000l\000a\000c\000j\000a\000\040\000p\000r\000a\000c\000y\000\040\000w\000\040\000c\000z\000a\000s\000i\000e\000\040\000p\000s\000e\000u\000d\000o\000-\000r\000z\000e\000c\000z\000y\000w\000i\000s\000t\000y\000m}{section.4}% 13
\BOOKMARK [1][-]{section.5}{\376\377\000T\000e\000s\000t\000y}{}% 14
\BOOKMARK [2][-]{subsection.5.1}{\376\377\000T\000e\000s\000t\000\040\000a\000l\000g\000o\000r\000y\000t\000m\000u\000\040\000p\000i\000t\000c\000h\000\040\000s\000h\000i\000f\000t}{section.5}% 15
\BOOKMARK [2][-]{subsection.5.2}{\376\377\000T\000e\000s\000t\000\040\000a\000u\000t\000o\000-\000t\000u\000n\000e}{section.5}% 16
\BOOKMARK [2][-]{subsection.5.3}{\376\377\000W\000p\001\102\000y\000w\000\040\000z\000a\000s\000t\000o\000s\000o\000w\000a\000n\000y\000c\000h\000\040\000o\000p\000e\000r\000a\000c\000j\000i\000\040\000n\000a\000\040\000d\000o\000k\001\102\000a\000d\000n\000o\001\133\001\007}{section.5}% 17
\BOOKMARK [1][-]{section.6}{\376\377\000T\000e\000s\000t\000y\000\040\000s\000u\000b\000i\000e\000k\000t\000y\000w\000n\000e}{}% 18
\BOOKMARK [1][-]{section.7}{\376\377\000P\000o\000d\000s\000u\000m\000o\000w\000a\000n\000i\000e}{}% 19
