\select@language {polish}
\contentsline {section}{\numberline {1}Wst\k ep}{2}{section.1}
\contentsline {section}{\numberline {2}Opis dzia\IeC {\l }ania auto-tune}{2}{section.2}
\contentsline {subsection}{\numberline {2.1}Gama d\'zwi\k ek\'ow}{2}{subsection.2.1}
\contentsline {subsection}{\numberline {2.2}Pitch shifting}{3}{subsection.2.2}
\contentsline {subsubsection}{\numberline {2.2.1}Phase vocoder}{5}{subsubsection.2.2.1}
\contentsline {subsection}{\numberline {2.3}Auto-tune}{9}{subsection.2.3}
\contentsline {section}{\numberline {3}Implementacja offline}{13}{section.3}
\contentsline {subsection}{\numberline {3.1}Pitch shifting}{13}{subsection.3.1}
\contentsline {subsection}{\numberline {3.2}Detekcja dominuj\k acej cz\k estotliwo\'sci w oknie}{14}{subsection.3.2}
\contentsline {subsection}{\numberline {3.3}Aproksymacja widma}{15}{subsection.3.3}
\contentsline {section}{\numberline {4}Implementacja w czasie rzeczywistym}{16}{section.4}
\contentsline {subsection}{\numberline {4.1}Wykorzystanie Data Acquisition Toolbox}{16}{subsection.4.1}
<<<<<<< HEAD
\contentsline {subsection}{\numberline {4.2}Symulacja pracy w czasie pseudo-rzeczywistym}{18}{subsection.4.2}
\contentsline {section}{\numberline {5}Testy}{22}{section.5}
\contentsline {subsection}{\numberline {5.1}Test algorytmu pitch shift}{22}{subsection.5.1}
\contentsline {subsection}{\numberline {5.2}Test auto-tune}{24}{subsection.5.2}
\contentsline {subsection}{\numberline {5.3}Wp\IeC {\l }yw zastosowanych operacji na dok\IeC {\l }adno\'s\'c}{24}{subsection.5.3}
\contentsline {section}{\numberline {6}Testy subiektywne}{28}{section.6}
\contentsline {section}{\numberline {7}Podsumowanie}{29}{section.7}
=======
\contentsline {subsection}{\numberline {4.2}Symulacja pracy w czasie pseudo-rzeczywistym}{19}{subsection.4.2}
\contentsline {section}{\numberline {5}Testy}{23}{section.5}
\contentsline {subsection}{\numberline {5.1}Test algorytmu pitch shift}{23}{subsection.5.1}
\contentsline {subsection}{\numberline {5.2}Test auto-tune}{26}{subsection.5.2}
\contentsline {subsection}{\numberline {5.3}Wp\IeC {\l }yw zastosowanych operacji na dok\IeC {\l }adno\'s\'c}{26}{subsection.5.3}
\contentsline {section}{\numberline {6}Testy subiektywne}{30}{section.6}
\contentsline {section}{\numberline {7}Podsumowanie}{30}{section.7}
>>>>>>> 2f5e14f59e22482a7d927cf23bb963d329156d74
